EESchema Schematic File Version 4
EELAYER 30 0
EELAYER END
$Descr A4 11693 8268
encoding utf-8
Sheet 2 9
Title "FPC-III"
Date "2020-01-21"
Rev "1.0"
Comp "Gary Wong"
Comment1 "HDMI"
Comment2 ""
Comment3 ""
Comment4 ""
$EndDescr
$Comp
L Connector:HDMI_A J?
U 1 1 5E1A007B
P 8100 3700
AR Path="/5E1A007B" Ref="J?"  Part="1" 
AR Path="/5E11FD2E/5E1A007B" Ref="J3"  Part="1" 
F 0 "J3" H 8530 3746 50  0000 L CNN
F 1 "HDMI_A" H 8530 3655 50  0000 L CNN
F 2 "fpc-iii:AMPHENOL_10029449-001RLF" H 8125 3700 50  0001 C CNN
F 3 "https://en.wikipedia.org/wiki/HDMI" H 8125 3700 50  0001 C CNN
F 4 "609-4614-1" H 8100 3700 50  0001 C CNN "Digikey part"
F 5 "10029449-111RLF" H 8100 3700 50  0001 C CNN "part#"
	1    8100 3700
	1    0    0    -1  
$EndComp
$Comp
L fpc-iii:GND #PWR02
U 1 1 5E139FD3
P 8150 4900
F 0 "#PWR02" H 8150 4650 50  0001 C CNN
F 1 "GND" H 8145 4727 50  0000 C CNN
F 2 "" H 8150 4900 50  0001 C CNN
F 3 "" H 8150 4900 50  0001 C CNN
	1    8150 4900
	1    0    0    -1  
$EndComp
Wire Wire Line
	7900 4800 8000 4800
Connection ~ 8000 4800
Wire Wire Line
	8000 4800 8100 4800
Connection ~ 8100 4800
Wire Wire Line
	8100 4800 8150 4800
Connection ~ 8200 4800
Wire Wire Line
	8200 4800 8300 4800
Connection ~ 8300 4800
Wire Wire Line
	8300 4800 8400 4800
Wire Wire Line
	8150 4900 8150 4800
Connection ~ 8150 4800
Wire Wire Line
	8150 4800 8200 4800
$Comp
L power:+5V #PWR01
U 1 1 5E13E1FA
P 8100 2500
F 0 "#PWR01" H 8100 2350 50  0001 C CNN
F 1 "+5V" H 8115 2673 50  0000 C CNN
F 2 "" H 8100 2500 50  0001 C CNN
F 3 "" H 8100 2500 50  0001 C CNN
	1    8100 2500
	1    0    0    -1  
$EndComp
Wire Wire Line
	8100 2500 8100 2600
Text Label 7700 2900 2    50   ~ 0
D2+
Text Label 7700 3000 2    50   ~ 0
D2-
Text Label 7700 3100 2    50   ~ 0
D1+
Text Label 7700 3200 2    50   ~ 0
D1-
Text Label 7700 3300 2    50   ~ 0
D0+
Text Label 7700 3400 2    50   ~ 0
D0-
Text Label 7700 3500 2    50   ~ 0
CK+
Text Label 7700 3600 2    50   ~ 0
CK-
Text Label 7700 3800 2    50   ~ 0
CEC
Text Label 7700 4000 2    50   ~ 0
SCL
Text Label 7700 4100 2    50   ~ 0
SDA
Text Label 7700 4300 2    50   ~ 0
UTILITY
Text Label 7700 4400 2    50   ~ 0
HPD
Text GLabel 5250 2950 2    50   BiDi ~ 0
HOST0.D0
Text GLabel 3750 2850 0    50   BiDi ~ 0
HOST0.D1
Text GLabel 3750 2950 0    50   BiDi ~ 0
HOST0.D2
Text GLabel 5250 3150 2    50   BiDi ~ 0
HOST0.D3
Text GLabel 3750 3050 0    50   BiDi ~ 0
HOST0.D4
Text GLabel 5250 3050 2    50   BiDi ~ 0
HOST0.D5
Text GLabel 3750 3750 0    50   BiDi ~ 0
HOST0.D6
Text GLabel 3750 3650 0    50   BiDi ~ 0
HOST0.D7
$Comp
L Device:C_Small C1
U 1 1 5E2C4EA7
P 3150 3350
F 0 "C1" V 3250 3150 50  0000 C CNN
F 1 "100n" V 3250 3400 50  0000 C CNN
F 2 "Capacitor_SMD:C_0402_1005Metric" H 3150 3350 50  0001 C CNN
F 3 "~" H 3150 3350 50  0001 C CNN
F 4 "1276-1004-1" H 3150 3350 50  0001 C CNN "Digikey part"
F 5 "*" H 3150 3350 50  0001 C CNN "Tolerance"
F 6 "CL05F104ZO5NNNC" H 3150 3350 50  0001 C CNN "part#"
	1    3150 3350
	0    1    -1   0   
$EndComp
$Comp
L Device:C_Small C5
U 1 1 5E2C5C0C
P 5900 3350
F 0 "C5" V 5950 3200 50  0000 C CNN
F 1 "100n" V 6000 3500 50  0000 C CNN
F 2 "Capacitor_SMD:C_0402_1005Metric" H 5900 3350 50  0001 C CNN
F 3 "~" H 5900 3350 50  0001 C CNN
F 4 "1276-1004-1" H 5900 3350 50  0001 C CNN "Digikey part"
F 5 "*" H 5900 3350 50  0001 C CNN "Tolerance"
F 6 "CL05F104ZO5NNNC" H 5900 3350 50  0001 C CNN "part#"
	1    5900 3350
	0    1    -1   0   
$EndComp
$Comp
L Device:C_Small C7
U 1 1 5E2C67EC
P 5900 3950
F 0 "C7" V 5950 3800 50  0000 C CNN
F 1 "100n" V 6000 4100 50  0000 C CNN
F 2 "Capacitor_SMD:C_0402_1005Metric" H 5900 3950 50  0001 C CNN
F 3 "~" H 5900 3950 50  0001 C CNN
F 4 "1276-1004-1" H 5900 3950 50  0001 C CNN "Digikey part"
F 5 "*" H 5900 3950 50  0001 C CNN "Tolerance"
F 6 "CL05F104ZO5NNNC" H 5900 3950 50  0001 C CNN "part#"
	1    5900 3950
	0    1    -1   0   
$EndComp
$Comp
L Device:C_Small C2
U 1 1 5E2C7392
P 3150 3550
F 0 "C2" V 3250 3350 50  0000 C CNN
F 1 "100n" V 3250 3600 50  0000 C CNN
F 2 "Capacitor_SMD:C_0402_1005Metric" H 3150 3550 50  0001 C CNN
F 3 "~" H 3150 3550 50  0001 C CNN
F 4 "1276-1004-1" H 3150 3550 50  0001 C CNN "Digikey part"
F 5 "*" H 3150 3550 50  0001 C CNN "Tolerance"
F 6 "CL05F104ZO5NNNC" H 3150 3550 50  0001 C CNN "part#"
	1    3150 3550
	0    1    -1   0   
$EndComp
$Comp
L Device:C_Small C6
U 1 1 5E2C77C5
P 5900 3550
F 0 "C6" V 5950 3400 50  0000 C CNN
F 1 "100n" V 5850 3400 50  0000 C CNN
F 2 "Capacitor_SMD:C_0402_1005Metric" H 5900 3550 50  0001 C CNN
F 3 "~" H 5900 3550 50  0001 C CNN
F 4 "1276-1004-1" H 5900 3550 50  0001 C CNN "Digikey part"
F 5 "*" H 5900 3550 50  0001 C CNN "Tolerance"
F 6 "CL05F104ZO5NNNC" H 5900 3550 50  0001 C CNN "part#"
	1    5900 3550
	0    1    -1   0   
$EndComp
$Comp
L Device:C_Small C8
U 1 1 5E2C7B73
P 5900 4350
F 0 "C8" V 5950 4200 50  0000 C CNN
F 1 "100n" V 6000 4500 50  0000 C CNN
F 2 "Capacitor_SMD:C_0402_1005Metric" H 5900 4350 50  0001 C CNN
F 3 "~" H 5900 4350 50  0001 C CNN
F 4 "1276-1004-1" H 5900 4350 50  0001 C CNN "Digikey part"
F 5 "*" H 5900 4350 50  0001 C CNN "Tolerance"
F 6 "CL05F104ZO5NNNC" H 5900 4350 50  0001 C CNN "part#"
	1    5900 4350
	0    1    -1   0   
$EndComp
$Comp
L Device:C_Small C4
U 1 1 5E2C7FC4
P 3150 4350
F 0 "C4" V 3250 4150 50  0000 C CNN
F 1 "100n" V 3250 4400 50  0000 C CNN
F 2 "Capacitor_SMD:C_0402_1005Metric" H 3150 4350 50  0001 C CNN
F 3 "~" H 3150 4350 50  0001 C CNN
F 4 "1276-1004-1" H 3150 4350 50  0001 C CNN "Digikey part"
F 5 "*" H 3150 4350 50  0001 C CNN "Tolerance"
F 6 "CL05F104ZO5NNNC" H 3150 4350 50  0001 C CNN "part#"
	1    3150 4350
	0    1    -1   0   
$EndComp
Wire Wire Line
	3250 3350 3750 3350
Wire Wire Line
	3750 3550 3250 3550
Wire Wire Line
	3250 3950 3750 3950
Wire Wire Line
	3750 4350 3250 4350
Wire Wire Line
	5250 4350 5800 4350
Wire Wire Line
	5800 3950 5250 3950
Wire Wire Line
	5250 3550 5800 3550
Wire Wire Line
	5800 3350 5250 3350
$Comp
L Device:C_Small C3
U 1 1 5E2C6E13
P 3150 3950
F 0 "C3" V 3250 3750 50  0000 C CNN
F 1 "100n" V 3250 4000 50  0000 C CNN
F 2 "Capacitor_SMD:C_0402_1005Metric" H 3150 3950 50  0001 C CNN
F 3 "~" H 3150 3950 50  0001 C CNN
F 4 "1276-1004-1" H 3150 3950 50  0001 C CNN "Digikey part"
F 5 "*" H 3150 3950 50  0001 C CNN "Tolerance"
F 6 "CL05F104ZO5NNNC" H 3150 3950 50  0001 C CNN "part#"
	1    3150 3950
	0    1    -1   0   
$EndComp
Text Label 3050 3350 2    50   ~ 0
CK+
Text Label 3050 3550 2    50   ~ 0
D1+
Text Label 3050 3950 2    50   ~ 0
D0+
Text Label 3050 4350 2    50   ~ 0
D2+
Text Label 6000 3350 0    50   ~ 0
CK-
Text Label 6000 3550 0    50   ~ 0
D1-
Text Label 6000 3950 0    50   ~ 0
D0-
Text Label 6000 4350 0    50   ~ 0
D2-
Wire Wire Line
	2850 3350 3050 3350
Wire Wire Line
	2850 3550 3050 3550
Wire Wire Line
	2850 3950 3050 3950
Wire Wire Line
	2850 4350 3050 4350
Wire Wire Line
	6000 3350 6200 3350
Wire Wire Line
	6200 3550 6000 3550
Wire Wire Line
	6200 3950 6000 3950
Wire Wire Line
	6200 4350 6000 4350
Entry Wire Line
	2750 3450 2850 3350
Entry Wire Line
	2750 3650 2850 3550
Entry Wire Line
	2750 4050 2850 3950
Entry Wire Line
	2750 4450 2850 4350
Entry Wire Line
	6200 4350 6300 4450
Entry Wire Line
	6200 3950 6300 4050
Entry Wire Line
	6200 3550 6300 3650
Entry Wire Line
	6200 3350 6300 3450
Wire Bus Line
	2750 4700 6300 4700
Wire Wire Line
	7500 3600 7700 3600
Wire Wire Line
	7700 3500 7500 3500
Wire Wire Line
	7500 3400 7700 3400
Wire Wire Line
	7700 3300 7500 3300
Wire Wire Line
	7500 3200 7700 3200
Wire Wire Line
	7700 3100 7500 3100
Wire Wire Line
	7500 3000 7700 3000
Wire Wire Line
	7700 2900 7500 2900
NoConn ~ 7700 3800
NoConn ~ 7700 4300
NoConn ~ 7700 4400
Wire Wire Line
	7500 4000 7700 4000
Wire Wire Line
	7700 4100 7500 4100
Wire Wire Line
	5250 2850 6200 2850
Entry Wire Line
	6200 2850 6300 2950
Text Label 5250 2850 0    50   ~ 0
SDA
Text Label 5250 3450 0    50   ~ 0
SCL
Wire Wire Line
	5250 3450 6200 3450
Entry Wire Line
	6200 3450 6300 3550
Text GLabel 3750 3150 0    50   Output ~ 0
RF.SDN
Text GLabel 3750 3250 0    50   BiDi ~ 0
RF.GPIO3
Text GLabel 3750 3450 0    50   BiDi ~ 0
RF.GPIO2
Text GLabel 5250 3250 2    50   Output ~ 0
RF.SEL
Text GLabel 5250 3750 2    50   Output ~ 0
RF.SDI
Text GLabel 3750 3850 0    50   Input ~ 0
RF.SDO
Text GLabel 5250 3650 2    50   Output ~ 0
RF.SCLK
Text GLabel 5250 3850 2    50   BiDi ~ 0
RF.GPIO1
Text GLabel 3750 4250 0    50   BiDi ~ 0
RF.GPIO0
Text GLabel 5250 4250 2    50   Input ~ 0
RF.IRQ
$Comp
L lfe5u-85:LFE5U-85F-6BG381C U?
U 6 1 5E2E76D0
P 4500 3550
AR Path="/5E2E76D0" Ref="U?"  Part="6" 
AR Path="/5E11FD2E/5E2E76D0" Ref="U1"  Part="6" 
F 0 "U1" H 4500 4537 60  0000 C CNN
F 1 "LFE5U-85F-6BG381C" H 4500 4431 60  0000 C CNN
F 2 "Package_BGA:Lattice_caBGA-381_17.0x17.0mm_Layout20x20_P0.8mm_Ball0.4mm_Pad0.4mm_NSMD" H 3450 4500 60  0001 C CNN
F 3 "" H 3450 4500 60  0001 C CNN
F 4 "220-2177" H 4500 3550 50  0001 C CNN "Digikey part"
F 5 "LFE5U-85F-8BG381I" H 4500 3550 50  0001 C CNN "part#"
	6    4500 3550
	1    0    0    -1  
$EndComp
Text GLabel 3750 4050 0    50   Output ~ 0
ETH.~RST
Text GLabel 3750 4150 0    50   Output ~ 0
DEV1.D+
Text GLabel 5250 4050 2    50   Output ~ 0
DEV1.D-
Text GLabel 5250 4150 2    50   Output ~ 0
DEV1.PULL+
Wire Bus Line
	6300 4700 7400 4700
Connection ~ 6300 4700
Entry Wire Line
	7400 3000 7500 2900
Entry Wire Line
	7400 3100 7500 3000
Entry Wire Line
	7400 3200 7500 3100
Entry Wire Line
	7400 3300 7500 3200
Entry Wire Line
	7400 3400 7500 3300
Entry Wire Line
	7400 3500 7500 3400
Entry Wire Line
	7400 3600 7500 3500
Entry Wire Line
	7400 3700 7500 3600
Entry Wire Line
	7400 4100 7500 4000
Entry Wire Line
	7400 4200 7500 4100
Wire Bus Line
	2750 3450 2750 4700
Wire Bus Line
	6300 2950 6300 4700
Wire Bus Line
	7400 3000 7400 4700
$EndSCHEMATC
