EESchema Schematic File Version 4
EELAYER 30 0
EELAYER END
$Descr A4 11693 8268
encoding utf-8
Sheet 3 9
Title "FPC-III"
Date "2020-01-21"
Rev "1.0"
Comp "Gary Wong"
Comment1 "Power supply"
Comment2 ""
Comment3 ""
Comment4 ""
$EndDescr
Wire Wire Line
	2250 2700 2350 2700
Connection ~ 2350 2700
Wire Wire Line
	2350 2700 2450 2700
Connection ~ 2450 2700
Wire Wire Line
	2450 2700 2550 2700
Connection ~ 2550 2700
Wire Wire Line
	2550 2700 2650 2700
Connection ~ 2650 2700
Wire Wire Line
	2650 2700 2750 2700
Connection ~ 2750 2700
Wire Wire Line
	2750 2700 2850 2700
Connection ~ 2850 2700
Wire Wire Line
	2850 2700 2950 2700
Connection ~ 2950 2700
Wire Wire Line
	2950 2700 3050 2700
Connection ~ 3050 2700
Wire Wire Line
	3050 2700 3150 2700
Connection ~ 3150 2700
Wire Wire Line
	3150 2700 3250 2700
Connection ~ 3250 2700
Wire Wire Line
	3250 2700 3350 2700
Connection ~ 3350 2700
Wire Wire Line
	3350 2700 3450 2700
Connection ~ 3450 2700
Wire Wire Line
	3450 2700 3550 2700
Connection ~ 3550 2700
Wire Wire Line
	3550 2700 3650 2700
Connection ~ 3650 2700
Wire Wire Line
	3650 2700 3750 2700
Connection ~ 3750 2700
Wire Wire Line
	3750 2700 3850 2700
Connection ~ 3850 2700
Wire Wire Line
	3850 2700 3950 2700
Connection ~ 3950 2700
Wire Wire Line
	3950 2700 4050 2700
Connection ~ 4050 2700
Wire Wire Line
	4050 2700 4150 2700
Connection ~ 4150 2700
Wire Wire Line
	4150 2700 4250 2700
Connection ~ 4250 2700
Wire Wire Line
	4250 2700 4350 2700
Connection ~ 4350 2700
Wire Wire Line
	4350 2700 4450 2700
Connection ~ 4450 2700
Wire Wire Line
	4450 2700 4550 2700
Connection ~ 4550 2700
Wire Wire Line
	4550 2700 4650 2700
Connection ~ 4650 2700
Wire Wire Line
	4650 2700 4750 2700
Connection ~ 4750 2700
Wire Wire Line
	4750 2700 4850 2700
Connection ~ 4850 2700
Wire Wire Line
	4850 2700 4950 2700
Connection ~ 4950 2700
Wire Wire Line
	4950 2700 5050 2700
Connection ~ 5050 2700
Wire Wire Line
	5050 2700 5150 2700
Connection ~ 5150 2700
Wire Wire Line
	5150 2700 5250 2700
Connection ~ 5250 2700
Wire Wire Line
	5250 2700 5350 2700
Connection ~ 5350 2700
Wire Wire Line
	5350 2700 5450 2700
Connection ~ 5450 2700
Wire Wire Line
	5450 2700 5550 2700
Connection ~ 5550 2700
Wire Wire Line
	5550 2700 5650 2700
Connection ~ 5650 2700
Wire Wire Line
	5650 2700 5750 2700
Connection ~ 5750 2700
Wire Wire Line
	5750 2700 5850 2700
Connection ~ 5850 2700
Wire Wire Line
	5850 2700 5950 2700
Connection ~ 5950 2700
Wire Wire Line
	5950 2700 6050 2700
Connection ~ 6050 2700
Wire Wire Line
	6050 2700 6100 2700
Connection ~ 6150 2700
Wire Wire Line
	6150 2700 6250 2700
Connection ~ 6250 2700
Wire Wire Line
	6250 2700 6350 2700
Connection ~ 6350 2700
Wire Wire Line
	6350 2700 6450 2700
Connection ~ 6450 2700
Wire Wire Line
	6450 2700 6550 2700
Connection ~ 6550 2700
Wire Wire Line
	6550 2700 6650 2700
Connection ~ 6650 2700
Wire Wire Line
	6650 2700 6750 2700
Connection ~ 6750 2700
Wire Wire Line
	6750 2700 6850 2700
Connection ~ 6850 2700
Wire Wire Line
	6850 2700 6950 2700
Connection ~ 6950 2700
Wire Wire Line
	6950 2700 7050 2700
Connection ~ 7050 2700
Wire Wire Line
	7050 2700 7150 2700
Connection ~ 7150 2700
Wire Wire Line
	7150 2700 7250 2700
Connection ~ 7250 2700
Wire Wire Line
	7250 2700 7350 2700
Connection ~ 7350 2700
Wire Wire Line
	7350 2700 7450 2700
Connection ~ 7450 2700
Wire Wire Line
	7450 2700 7550 2700
Connection ~ 7550 2700
Wire Wire Line
	7550 2700 7650 2700
Connection ~ 7650 2700
Wire Wire Line
	7650 2700 7750 2700
Connection ~ 7750 2700
Wire Wire Line
	7750 2700 7850 2700
Connection ~ 7850 2700
Wire Wire Line
	7850 2700 7950 2700
Connection ~ 7950 2700
Wire Wire Line
	7950 2700 8050 2700
Connection ~ 8050 2700
Wire Wire Line
	8050 2700 8150 2700
Connection ~ 8150 2700
Wire Wire Line
	8150 2700 8250 2700
Connection ~ 8250 2700
Wire Wire Line
	8250 2700 8350 2700
Connection ~ 8350 2700
Wire Wire Line
	8350 2700 8450 2700
Connection ~ 8450 2700
Wire Wire Line
	8450 2700 8550 2700
Connection ~ 8550 2700
Wire Wire Line
	8550 2700 8650 2700
Connection ~ 8650 2700
Wire Wire Line
	8650 2700 8750 2700
Connection ~ 8750 2700
Wire Wire Line
	8750 2700 8850 2700
Connection ~ 8850 2700
Wire Wire Line
	8850 2700 8950 2700
Connection ~ 8950 2700
Wire Wire Line
	8950 2700 9050 2700
Connection ~ 9050 2700
Wire Wire Line
	9050 2700 9150 2700
Connection ~ 9150 2700
Wire Wire Line
	9150 2700 9250 2700
Connection ~ 9250 2700
Wire Wire Line
	9250 2700 9350 2700
Connection ~ 9350 2700
Wire Wire Line
	9350 2700 9450 2700
Connection ~ 9450 2700
Wire Wire Line
	9450 2700 9550 2700
Connection ~ 9550 2700
Wire Wire Line
	9550 2700 9650 2700
Connection ~ 9650 2700
Wire Wire Line
	9650 2700 9750 2700
Connection ~ 9750 2700
Wire Wire Line
	9750 2700 9850 2700
Connection ~ 9850 2700
Wire Wire Line
	9850 2700 9950 2700
Connection ~ 9950 2700
Wire Wire Line
	9950 2700 10050 2700
Connection ~ 10050 2700
Wire Wire Line
	10050 2700 10150 2700
Connection ~ 10150 2700
Wire Wire Line
	10150 2700 10250 2700
Connection ~ 10250 2700
Wire Wire Line
	10250 2700 10350 2700
Connection ~ 10350 2700
Wire Wire Line
	10350 2700 10450 2700
Connection ~ 10450 2700
Wire Wire Line
	10450 2700 10550 2700
Connection ~ 10550 2700
Wire Wire Line
	10550 2700 10650 2700
$Comp
L fpc-iii:GND #PWR045
U 1 1 5E1A77DD
P 6100 2850
F 0 "#PWR045" H 6100 2600 50  0001 C CNN
F 1 "GND" H 6095 2677 50  0000 C CNN
F 2 "" H 6100 2850 50  0001 C CNN
F 3 "" H 6100 2850 50  0001 C CNN
	1    6100 2850
	1    0    0    -1  
$EndComp
Wire Wire Line
	6100 2850 6100 2700
Connection ~ 6100 2700
Wire Wire Line
	6100 2700 6150 2700
Wire Wire Line
	1900 1350 2000 1350
Connection ~ 2000 1350
Wire Wire Line
	2000 1350 2100 1350
Connection ~ 2100 1350
Wire Wire Line
	2100 1350 2200 1350
Connection ~ 2200 1350
Wire Wire Line
	2200 1350 2300 1350
Connection ~ 2300 1350
Wire Wire Line
	2300 1350 2400 1350
Connection ~ 2400 1350
Wire Wire Line
	2400 1350 2500 1350
Connection ~ 2500 1350
Wire Wire Line
	2500 1350 2600 1350
Connection ~ 2600 1350
Wire Wire Line
	2600 1350 2700 1350
Connection ~ 2700 1350
Wire Wire Line
	2700 1350 2800 1350
Connection ~ 2800 1350
Wire Wire Line
	2800 1350 2900 1350
Connection ~ 2900 1350
Connection ~ 3000 1350
Wire Wire Line
	3000 1350 3100 1350
Connection ~ 3100 1350
Wire Wire Line
	3100 1350 3200 1350
Connection ~ 3200 1350
Wire Wire Line
	3200 1350 3300 1350
Connection ~ 3300 1350
Wire Wire Line
	3300 1350 3400 1350
Connection ~ 3400 1350
Wire Wire Line
	3400 1350 3500 1350
Connection ~ 3500 1350
Wire Wire Line
	3500 1350 3600 1350
Connection ~ 3600 1350
Wire Wire Line
	3600 1350 3700 1350
Connection ~ 3700 1350
Wire Wire Line
	3700 1350 3800 1350
Wire Wire Line
	4000 1350 4100 1350
Connection ~ 4100 1350
Connection ~ 4200 1350
Wire Wire Line
	4200 1350 4300 1350
Wire Wire Line
	5100 1350 5200 1350
Connection ~ 5200 1350
Wire Wire Line
	5200 1350 5300 1350
Wire Wire Line
	5500 1350 5600 1350
Connection ~ 5600 1350
Wire Wire Line
	5600 1350 5700 1350
Wire Wire Line
	6750 1350 6850 1350
Connection ~ 6850 1350
Wire Wire Line
	6850 1350 6950 1350
Wire Wire Line
	7150 1350 7250 1350
Connection ~ 7250 1350
Wire Wire Line
	7250 1350 7350 1350
Wire Wire Line
	7550 1350 7650 1350
$Comp
L power:+1V1 #PWR023
U 1 1 5E0B8161
P 2400 800
F 0 "#PWR023" H 2400 650 50  0001 C CNN
F 1 "+1V1" H 2415 973 50  0000 C CNN
F 2 "" H 2400 800 50  0001 C CNN
F 3 "" H 2400 800 50  0001 C CNN
	1    2400 800 
	1    0    0    -1  
$EndComp
$Comp
L power:+2V5 #PWR037
U 1 1 5E0BFB3D
P 4150 800
F 0 "#PWR037" H 4150 650 50  0001 C CNN
F 1 "+2V5" H 4165 973 50  0000 C CNN
F 2 "" H 4150 800 50  0001 C CNN
F 3 "" H 4150 800 50  0001 C CNN
	1    4150 800 
	1    0    0    -1  
$EndComp
Wire Wire Line
	4150 800  4150 900 
$Comp
L power:+3V3 #PWR041
U 1 1 5E0CFAC3
P 4600 800
F 0 "#PWR041" H 4600 650 50  0001 C CNN
F 1 "+3V3" H 4615 973 50  0000 C CNN
F 2 "" H 4600 800 50  0001 C CNN
F 3 "" H 4600 800 50  0001 C CNN
	1    4600 800 
	1    0    0    -1  
$EndComp
$Comp
L power:+3V3 #PWR047
U 1 1 5E0D182B
P 6950 800
F 0 "#PWR047" H 6950 650 50  0001 C CNN
F 1 "+3V3" H 6965 973 50  0000 C CNN
F 2 "" H 6950 800 50  0001 C CNN
F 3 "" H 6950 800 50  0001 C CNN
	1    6950 800 
	1    0    0    -1  
$EndComp
Connection ~ 7650 1350
NoConn ~ 7000 4050
NoConn ~ 7000 4250
NoConn ~ 7000 5500
NoConn ~ 7000 5700
NoConn ~ 5300 5700
NoConn ~ 5300 5500
NoConn ~ 5300 4250
NoConn ~ 5300 4050
Wire Wire Line
	5300 3950 5200 3950
Wire Wire Line
	5200 3950 5200 4150
Wire Wire Line
	5200 6150 6150 6150
Wire Wire Line
	7100 6150 7100 5800
Wire Wire Line
	7100 3950 7000 3950
Wire Wire Line
	7000 4150 7100 4150
Connection ~ 7100 4150
Wire Wire Line
	7100 4150 7100 3950
Wire Wire Line
	7000 4350 7100 4350
Connection ~ 7100 4350
Wire Wire Line
	7100 4350 7100 4150
Wire Wire Line
	7000 4500 7100 4500
Connection ~ 7100 4500
Wire Wire Line
	7100 4500 7100 4350
Wire Wire Line
	7000 4600 7100 4600
Connection ~ 7100 4600
Wire Wire Line
	7100 4600 7100 4500
Wire Wire Line
	7000 4700 7100 4700
Connection ~ 7100 4700
Wire Wire Line
	7100 4700 7100 4600
Wire Wire Line
	7000 4800 7100 4800
Connection ~ 7100 4800
Wire Wire Line
	7100 4800 7100 4700
Wire Wire Line
	7000 4950 7100 4950
Connection ~ 7100 4950
Wire Wire Line
	7100 4950 7100 4800
Wire Wire Line
	7000 5050 7100 5050
Connection ~ 7100 5050
Wire Wire Line
	7100 5050 7100 4950
Wire Wire Line
	7000 5150 7100 5150
Connection ~ 7100 5150
Wire Wire Line
	7100 5150 7100 5050
Wire Wire Line
	7000 5250 7100 5250
Connection ~ 7100 5250
Wire Wire Line
	7100 5250 7100 5150
Wire Wire Line
	7000 5400 7100 5400
Connection ~ 7100 5400
Wire Wire Line
	7100 5400 7100 5250
Wire Wire Line
	7000 5600 7100 5600
Connection ~ 7100 5600
Wire Wire Line
	7100 5600 7100 5400
Wire Wire Line
	7000 5800 7100 5800
Connection ~ 7100 5800
Wire Wire Line
	7100 5800 7100 5600
Wire Wire Line
	5300 4150 5200 4150
Connection ~ 5200 4150
Wire Wire Line
	5200 4150 5200 4350
Wire Wire Line
	5200 4350 5300 4350
Connection ~ 5200 4350
Wire Wire Line
	5200 4350 5200 4500
Wire Wire Line
	5300 4500 5200 4500
Connection ~ 5200 4500
Wire Wire Line
	5200 4500 5200 4600
Wire Wire Line
	5200 4600 5300 4600
Connection ~ 5200 4600
Wire Wire Line
	5200 4600 5200 4700
Wire Wire Line
	5300 4700 5200 4700
Connection ~ 5200 4700
Wire Wire Line
	5200 4700 5200 4800
Wire Wire Line
	5200 4800 5300 4800
Connection ~ 5200 4800
Wire Wire Line
	5200 4800 5200 4950
Wire Wire Line
	5300 4950 5200 4950
Connection ~ 5200 4950
Wire Wire Line
	5200 4950 5200 5050
Wire Wire Line
	5200 5050 5300 5050
Connection ~ 5200 5050
Wire Wire Line
	5200 5050 5200 5150
Wire Wire Line
	5300 5150 5200 5150
Connection ~ 5200 5150
Wire Wire Line
	5200 5150 5200 5250
Wire Wire Line
	5200 5250 5300 5250
Connection ~ 5200 5250
Wire Wire Line
	5200 5250 5200 5400
Wire Wire Line
	5300 5400 5200 5400
Connection ~ 5200 5400
Wire Wire Line
	5200 5400 5200 5600
Wire Wire Line
	5200 5600 5300 5600
Connection ~ 5200 5600
Wire Wire Line
	5200 5600 5200 5800
Wire Wire Line
	5300 5800 5200 5800
Connection ~ 5200 5800
Wire Wire Line
	5200 5800 5200 6150
$Comp
L fpc-iii:GND #PWR046
U 1 1 5E26B24E
P 6150 6250
F 0 "#PWR046" H 6150 6000 50  0001 C CNN
F 1 "GND" H 6145 6077 50  0000 C CNN
F 2 "" H 6150 6250 50  0001 C CNN
F 3 "" H 6150 6250 50  0001 C CNN
	1    6150 6250
	1    0    0    -1  
$EndComp
Wire Wire Line
	6150 6250 6150 6150
Connection ~ 6150 6150
Wire Wire Line
	6150 6150 7100 6150
$Comp
L power:+5V #PWR05
U 1 1 5E15037B
P 700 5400
F 0 "#PWR05" H 700 5250 50  0001 C CNN
F 1 "+5V" H 715 5573 50  0000 C CNN
F 2 "" H 700 5400 50  0001 C CNN
F 3 "" H 700 5400 50  0001 C CNN
	1    700  5400
	1    0    0    -1  
$EndComp
$Comp
L fpc-iii:GND #PWR020
U 1 1 5E15E6FC
P 1800 6000
F 0 "#PWR020" H 1800 5750 50  0001 C CNN
F 1 "GND" H 1795 5827 50  0000 C CNN
F 2 "" H 1800 6000 50  0001 C CNN
F 3 "" H 1800 6000 50  0001 C CNN
	1    1800 6000
	1    0    0    -1  
$EndComp
Wire Wire Line
	1800 5900 1800 6000
$Comp
L fpc-iii:GND #PWR06
U 1 1 5E16DB0B
P 700 5900
F 0 "#PWR06" H 700 5650 50  0001 C CNN
F 1 "GND" H 695 5727 50  0000 C CNN
F 2 "" H 700 5900 50  0001 C CNN
F 3 "" H 700 5900 50  0001 C CNN
	1    700  5900
	1    0    0    -1  
$EndComp
Wire Wire Line
	700  5400 700  5500
Connection ~ 700  5500
Wire Wire Line
	700  5500 700  5600
Wire Wire Line
	2300 5600 2500 5600
Wire Wire Line
	2500 5500 2500 5600
Connection ~ 2500 5600
Wire Wire Line
	2500 5600 2600 5600
Wire Wire Line
	2300 5500 2350 5500
Wire Wire Line
	2350 5500 2350 5300
Wire Wire Line
	2350 5300 2500 5300
Wire Wire Line
	2300 5700 2500 5700
Wire Wire Line
	2500 5700 2500 5900
Wire Wire Line
	3450 5600 3450 5650
$Comp
L fpc-iii:GND #PWR027
U 1 1 5E2336C3
P 3450 6250
F 0 "#PWR027" H 3450 6000 50  0001 C CNN
F 1 "GND" H 3445 6077 50  0000 C CNN
F 2 "" H 3450 6250 50  0001 C CNN
F 3 "" H 3450 6250 50  0001 C CNN
	1    3450 6250
	1    0    0    -1  
$EndComp
Wire Wire Line
	700  5900 700  5800
Wire Wire Line
	2900 5600 3000 5600
Wire Wire Line
	3450 6250 3450 6150
Wire Wire Line
	3450 5950 3450 5900
Wire Wire Line
	3000 5650 3000 5600
Connection ~ 3000 5600
Wire Wire Line
	3000 5600 3250 5600
Wire Wire Line
	2500 5900 3000 5900
Wire Wire Line
	3000 5900 3000 5850
Wire Wire Line
	3000 5900 3450 5900
Connection ~ 3000 5900
Connection ~ 3450 5900
Wire Wire Line
	3450 5900 3450 5850
Wire Wire Line
	3450 5600 3850 5600
Wire Wire Line
	3850 5600 3850 5650
Connection ~ 3450 5600
Wire Wire Line
	3850 5500 3850 5600
Connection ~ 3850 5600
$Comp
L fpc-iii:GND #PWR034
U 1 1 5E11415A
P 3850 5950
F 0 "#PWR034" H 3850 5700 50  0001 C CNN
F 1 "GND" H 3845 5777 50  0000 C CNN
F 2 "" H 3850 5950 50  0001 C CNN
F 3 "" H 3850 5950 50  0001 C CNN
	1    3850 5950
	1    0    0    -1  
$EndComp
Wire Wire Line
	3850 5850 3850 5950
Wire Wire Line
	700  5500 1300 5500
Wire Wire Line
	1100 5600 1300 5600
$Comp
L fpc-iii:GND #PWR012
U 1 1 5E169078
P 1100 5900
F 0 "#PWR012" H 1100 5650 50  0001 C CNN
F 1 "GND" H 1095 5727 50  0000 C CNN
F 2 "" H 1100 5900 50  0001 C CNN
F 3 "" H 1100 5900 50  0001 C CNN
	1    1100 5900
	1    0    0    -1  
$EndComp
Wire Wire Line
	1100 5900 1100 5800
$Comp
L power:+5V #PWR07
U 1 1 5E17ED02
P 700 6650
F 0 "#PWR07" H 700 6500 50  0001 C CNN
F 1 "+5V" H 715 6823 50  0000 C CNN
F 2 "" H 700 6650 50  0001 C CNN
F 3 "" H 700 6650 50  0001 C CNN
	1    700  6650
	1    0    0    -1  
$EndComp
$Comp
L fpc-iii:GND #PWR021
U 1 1 5E17ED08
P 1800 7250
F 0 "#PWR021" H 1800 7000 50  0001 C CNN
F 1 "GND" H 1795 7077 50  0000 C CNN
F 2 "" H 1800 7250 50  0001 C CNN
F 3 "" H 1800 7250 50  0001 C CNN
	1    1800 7250
	1    0    0    -1  
$EndComp
Wire Wire Line
	1800 7150 1800 7250
$Comp
L fpc-iii:GND #PWR08
U 1 1 5E17ED15
P 700 7150
F 0 "#PWR08" H 700 6900 50  0001 C CNN
F 1 "GND" H 695 6977 50  0000 C CNN
F 2 "" H 700 7150 50  0001 C CNN
F 3 "" H 700 7150 50  0001 C CNN
	1    700  7150
	1    0    0    -1  
$EndComp
Wire Wire Line
	700  6650 700  6750
Connection ~ 700  6750
Wire Wire Line
	700  6750 700  6850
Wire Wire Line
	2300 6850 2500 6850
Wire Wire Line
	2500 6750 2500 6850
Connection ~ 2500 6850
Wire Wire Line
	2500 6850 2600 6850
Wire Wire Line
	2300 6750 2350 6750
Wire Wire Line
	2350 6750 2350 6550
Wire Wire Line
	2350 6550 2500 6550
Wire Wire Line
	2300 6950 2500 6950
Wire Wire Line
	2500 6950 2500 7150
Wire Wire Line
	3450 6850 3450 6900
$Comp
L fpc-iii:GND #PWR028
U 1 1 5E17ED46
P 3450 7500
F 0 "#PWR028" H 3450 7250 50  0001 C CNN
F 1 "GND" H 3445 7327 50  0000 C CNN
F 2 "" H 3450 7500 50  0001 C CNN
F 3 "" H 3450 7500 50  0001 C CNN
	1    3450 7500
	1    0    0    -1  
$EndComp
Wire Wire Line
	700  7150 700  7050
Wire Wire Line
	3450 7500 3450 7400
Wire Wire Line
	3450 7200 3450 7150
Connection ~ 3450 7150
Wire Wire Line
	3450 7150 3450 7100
Wire Wire Line
	3450 6850 3850 6850
Wire Wire Line
	3850 6850 3850 6900
Connection ~ 3450 6850
Wire Wire Line
	3850 6750 3850 6850
Connection ~ 3850 6850
$Comp
L fpc-iii:GND #PWR036
U 1 1 5E17ED6A
P 3850 7200
F 0 "#PWR036" H 3850 6950 50  0001 C CNN
F 1 "GND" H 3845 7027 50  0000 C CNN
F 2 "" H 3850 7200 50  0001 C CNN
F 3 "" H 3850 7200 50  0001 C CNN
	1    3850 7200
	1    0    0    -1  
$EndComp
Wire Wire Line
	3850 7100 3850 7200
Wire Wire Line
	700  6750 1300 6750
Wire Wire Line
	1100 6850 1300 6850
$Comp
L fpc-iii:GND #PWR013
U 1 1 5E17ED79
P 1100 7150
F 0 "#PWR013" H 1100 6900 50  0001 C CNN
F 1 "GND" H 1095 6977 50  0000 C CNN
F 2 "" H 1100 7150 50  0001 C CNN
F 3 "" H 1100 7150 50  0001 C CNN
	1    1100 7150
	1    0    0    -1  
$EndComp
Wire Wire Line
	1100 7150 1100 7050
$Comp
L power:+5V #PWR03
U 1 1 5E1B0C2F
P 700 4150
F 0 "#PWR03" H 700 4000 50  0001 C CNN
F 1 "+5V" H 715 4323 50  0000 C CNN
F 2 "" H 700 4150 50  0001 C CNN
F 3 "" H 700 4150 50  0001 C CNN
	1    700  4150
	1    0    0    -1  
$EndComp
$Comp
L fpc-iii:GND #PWR019
U 1 1 5E1B0C35
P 1800 4750
F 0 "#PWR019" H 1800 4500 50  0001 C CNN
F 1 "GND" H 1795 4577 50  0000 C CNN
F 2 "" H 1800 4750 50  0001 C CNN
F 3 "" H 1800 4750 50  0001 C CNN
	1    1800 4750
	1    0    0    -1  
$EndComp
Wire Wire Line
	1800 4650 1800 4750
$Comp
L fpc-iii:GND #PWR04
U 1 1 5E1B0C42
P 700 4650
F 0 "#PWR04" H 700 4400 50  0001 C CNN
F 1 "GND" H 695 4477 50  0000 C CNN
F 2 "" H 700 4650 50  0001 C CNN
F 3 "" H 700 4650 50  0001 C CNN
	1    700  4650
	1    0    0    -1  
$EndComp
Wire Wire Line
	700  4150 700  4250
Connection ~ 700  4250
Wire Wire Line
	700  4250 700  4350
Wire Wire Line
	2300 4350 2500 4350
Wire Wire Line
	2500 4250 2500 4350
Connection ~ 2500 4350
Wire Wire Line
	2500 4350 2600 4350
Wire Wire Line
	2300 4250 2350 4250
Wire Wire Line
	2350 4250 2350 4050
Wire Wire Line
	2350 4050 2500 4050
Wire Wire Line
	2300 4450 2500 4450
Wire Wire Line
	2500 4450 2500 4650
Wire Wire Line
	3450 4350 3450 4400
$Comp
L fpc-iii:GND #PWR026
U 1 1 5E1B0C73
P 3450 5000
F 0 "#PWR026" H 3450 4750 50  0001 C CNN
F 1 "GND" H 3445 4827 50  0000 C CNN
F 2 "" H 3450 5000 50  0001 C CNN
F 3 "" H 3450 5000 50  0001 C CNN
	1    3450 5000
	1    0    0    -1  
$EndComp
Wire Wire Line
	700  4650 700  4550
Wire Wire Line
	2900 4350 3000 4350
Wire Wire Line
	3450 5000 3450 4900
Wire Wire Line
	3450 4700 3450 4650
Wire Wire Line
	3000 4400 3000 4350
Connection ~ 3000 4350
Wire Wire Line
	3000 4350 3250 4350
Wire Wire Line
	2500 4650 3000 4650
Wire Wire Line
	3000 4650 3000 4600
Wire Wire Line
	3000 4650 3450 4650
Connection ~ 3000 4650
Connection ~ 3450 4650
Wire Wire Line
	3450 4650 3450 4600
Wire Wire Line
	3450 4350 3850 4350
Wire Wire Line
	3850 4350 3850 4400
Connection ~ 3450 4350
$Comp
L power:+3V3 #PWR031
U 1 1 5E1B0C8F
P 3850 4250
F 0 "#PWR031" H 3850 4100 50  0001 C CNN
F 1 "+3V3" H 3865 4423 50  0000 C CNN
F 2 "" H 3850 4250 50  0001 C CNN
F 3 "" H 3850 4250 50  0001 C CNN
	1    3850 4250
	1    0    0    -1  
$EndComp
Wire Wire Line
	3850 4250 3850 4350
Connection ~ 3850 4350
$Comp
L fpc-iii:GND #PWR032
U 1 1 5E1B0C97
P 3850 4700
F 0 "#PWR032" H 3850 4450 50  0001 C CNN
F 1 "GND" H 3845 4527 50  0000 C CNN
F 2 "" H 3850 4700 50  0001 C CNN
F 3 "" H 3850 4700 50  0001 C CNN
	1    3850 4700
	1    0    0    -1  
$EndComp
Wire Wire Line
	3850 4600 3850 4700
Wire Wire Line
	700  4250 1300 4250
Wire Wire Line
	1100 4350 1300 4350
$Comp
L fpc-iii:GND #PWR011
U 1 1 5E1B0CA6
P 1100 4650
F 0 "#PWR011" H 1100 4400 50  0001 C CNN
F 1 "GND" H 1095 4477 50  0000 C CNN
F 2 "" H 1100 4650 50  0001 C CNN
F 3 "" H 1100 4650 50  0001 C CNN
	1    1100 4650
	1    0    0    -1  
$EndComp
Wire Wire Line
	1100 4650 1100 4550
$Comp
L power:+2V5 #PWR033
U 1 1 5E1CAEE7
P 3850 5500
F 0 "#PWR033" H 3850 5350 50  0001 C CNN
F 1 "+2V5" H 3865 5673 50  0000 C CNN
F 2 "" H 3850 5500 50  0001 C CNN
F 3 "" H 3850 5500 50  0001 C CNN
	1    3850 5500
	1    0    0    -1  
$EndComp
$Comp
L power:+1V1 #PWR035
U 1 1 5E1CBD33
P 3850 6750
F 0 "#PWR035" H 3850 6600 50  0001 C CNN
F 1 "+1V1" H 3865 6923 50  0000 C CNN
F 2 "" H 3850 6750 50  0001 C CNN
F 3 "" H 3850 6750 50  0001 C CNN
	1    3850 6750
	1    0    0    -1  
$EndComp
Wire Wire Line
	2500 7150 3450 7150
Wire Wire Line
	2900 6850 3200 6850
$Comp
L fpc-iii:GND #PWR038
U 1 1 5E1DCEC9
P 4200 4700
F 0 "#PWR038" H 4200 4450 50  0001 C CNN
F 1 "GND" H 4195 4527 50  0000 C CNN
F 2 "" H 4200 4700 50  0001 C CNN
F 3 "" H 4200 4700 50  0001 C CNN
	1    4200 4700
	1    0    0    -1  
$EndComp
Wire Wire Line
	4200 4700 4200 4600
Wire Wire Line
	4200 4400 4200 4350
Wire Wire Line
	4200 4350 3850 4350
$Comp
L fpc-iii:GND #PWR039
U 1 1 5E210B5B
P 4200 5950
F 0 "#PWR039" H 4200 5700 50  0001 C CNN
F 1 "GND" H 4195 5777 50  0000 C CNN
F 2 "" H 4200 5950 50  0001 C CNN
F 3 "" H 4200 5950 50  0001 C CNN
	1    4200 5950
	1    0    0    -1  
$EndComp
Wire Wire Line
	4200 5950 4200 5850
Wire Wire Line
	4200 5650 4200 5600
Wire Wire Line
	4200 5600 3850 5600
$Comp
L fpc-iii:GND #PWR040
U 1 1 5E22A8B9
P 4200 7200
F 0 "#PWR040" H 4200 6950 50  0001 C CNN
F 1 "GND" H 4195 7027 50  0000 C CNN
F 2 "" H 4200 7200 50  0001 C CNN
F 3 "" H 4200 7200 50  0001 C CNN
	1    4200 7200
	1    0    0    -1  
$EndComp
Wire Wire Line
	4200 7200 4200 7100
Wire Wire Line
	4200 6900 4200 6850
Wire Wire Line
	4200 6850 3850 6850
Wire Wire Line
	2900 1350 3000 1350
Wire Wire Line
	4100 1350 4150 1350
Wire Wire Line
	4800 1350 4900 1350
$Comp
L fpc-iii:GND #PWR030
U 1 1 5E2570F3
P 3850 1100
F 0 "#PWR030" H 3850 850 50  0001 C CNN
F 1 "GND" H 3845 927 50  0000 C CNN
F 2 "" H 3850 1100 50  0001 C CNN
F 3 "" H 3850 1100 50  0001 C CNN
	1    3850 1100
	1    0    0    -1  
$EndComp
$Comp
L fpc-iii:GND #PWR029
U 1 1 5E270E7E
P 3500 1100
F 0 "#PWR029" H 3500 850 50  0001 C CNN
F 1 "GND" H 3495 927 50  0000 C CNN
F 2 "" H 3500 1100 50  0001 C CNN
F 3 "" H 3500 1100 50  0001 C CNN
	1    3500 1100
	1    0    0    -1  
$EndComp
$Comp
L fpc-iii:GND #PWR025
U 1 1 5E28A5A5
P 3150 1100
F 0 "#PWR025" H 3150 850 50  0001 C CNN
F 1 "GND" H 3145 927 50  0000 C CNN
F 2 "" H 3150 1100 50  0001 C CNN
F 3 "" H 3150 1100 50  0001 C CNN
	1    3150 1100
	1    0    0    -1  
$EndComp
$Comp
L fpc-iii:GND #PWR024
U 1 1 5E2A3A72
P 2800 1100
F 0 "#PWR024" H 2800 850 50  0001 C CNN
F 1 "GND" H 2795 927 50  0000 C CNN
F 2 "" H 2800 1100 50  0001 C CNN
F 3 "" H 2800 1100 50  0001 C CNN
	1    2800 1100
	1    0    0    -1  
$EndComp
Wire Wire Line
	4150 900  4150 1350
Connection ~ 4150 900 
Connection ~ 3150 900 
Wire Wire Line
	3150 900  3500 900 
Connection ~ 3500 900 
Wire Wire Line
	3500 900  3850 900 
Connection ~ 3850 900 
Wire Wire Line
	3850 900  4150 900 
Connection ~ 4150 1350
Wire Wire Line
	4150 1350 4200 1350
Wire Wire Line
	2800 900  3150 900 
$Comp
L fpc-iii:GND #PWR022
U 1 1 5E2D79E2
P 2100 1100
F 0 "#PWR022" H 2100 850 50  0001 C CNN
F 1 "GND" H 2095 927 50  0000 C CNN
F 2 "" H 2100 1100 50  0001 C CNN
F 3 "" H 2100 1100 50  0001 C CNN
	1    2100 1100
	1    0    0    -1  
$EndComp
$Comp
L fpc-iii:GND #PWR018
U 1 1 5E2F2286
P 1700 1100
F 0 "#PWR018" H 1700 850 50  0001 C CNN
F 1 "GND" H 1695 927 50  0000 C CNN
F 2 "" H 1700 1100 50  0001 C CNN
F 3 "" H 1700 1100 50  0001 C CNN
	1    1700 1100
	1    0    0    -1  
$EndComp
$Comp
L fpc-iii:GND #PWR015
U 1 1 5E30C8B0
P 1300 1100
F 0 "#PWR015" H 1300 850 50  0001 C CNN
F 1 "GND" H 1295 927 50  0000 C CNN
F 2 "" H 1300 1100 50  0001 C CNN
F 3 "" H 1300 1100 50  0001 C CNN
	1    1300 1100
	1    0    0    -1  
$EndComp
$Comp
L fpc-iii:GND #PWR09
U 1 1 5E326FA6
P 900 1100
F 0 "#PWR09" H 900 850 50  0001 C CNN
F 1 "GND" H 895 927 50  0000 C CNN
F 2 "" H 900 1100 50  0001 C CNN
F 3 "" H 900 1100 50  0001 C CNN
	1    900  1100
	1    0    0    -1  
$EndComp
Wire Wire Line
	900  900  1200 900 
Wire Wire Line
	2400 900  2400 1350
Connection ~ 1300 900 
Wire Wire Line
	1300 900  1600 900 
Connection ~ 1700 900 
Wire Wire Line
	1700 900  2100 900 
Connection ~ 2100 900 
Wire Wire Line
	2100 900  2400 900 
Wire Wire Line
	2400 800  2400 900 
Connection ~ 2400 900 
Connection ~ 4500 1350
Wire Wire Line
	4500 1350 4600 1350
Connection ~ 4900 1350
$Comp
L fpc-iii:GND #PWR014
U 1 1 5E40570A
P 1200 1550
F 0 "#PWR014" H 1200 1300 50  0001 C CNN
F 1 "GND" H 1195 1377 50  0000 C CNN
F 2 "" H 1200 1550 50  0001 C CNN
F 3 "" H 1200 1550 50  0001 C CNN
	1    1200 1550
	1    0    0    -1  
$EndComp
$Comp
L fpc-iii:GND #PWR016
U 1 1 5E4218C0
P 1600 1550
F 0 "#PWR016" H 1600 1300 50  0001 C CNN
F 1 "GND" H 1595 1377 50  0000 C CNN
F 2 "" H 1600 1550 50  0001 C CNN
F 3 "" H 1600 1550 50  0001 C CNN
	1    1600 1550
	1    0    0    -1  
$EndComp
Wire Wire Line
	1200 1350 1200 900 
Connection ~ 1200 900 
Wire Wire Line
	1200 900  1300 900 
Wire Wire Line
	1600 1350 1600 900 
Connection ~ 1600 900 
Wire Wire Line
	1600 900  1700 900 
$Comp
L power:+1V5 #PWR043
U 1 1 5E39B356
P 5300 800
F 0 "#PWR043" H 5300 650 50  0001 C CNN
F 1 "+1V5" H 5315 973 50  0000 C CNN
F 2 "" H 5300 800 50  0001 C CNN
F 3 "" H 5300 800 50  0001 C CNN
	1    5300 800 
	1    0    0    -1  
$EndComp
Wire Wire Line
	8900 4350 9000 4350
Wire Wire Line
	9000 4450 8900 4450
Wire Wire Line
	8900 4450 8900 4350
$Comp
L fpc-iii:GND #PWR052
U 1 1 5E293984
P 9300 4850
F 0 "#PWR052" H 9300 4600 50  0001 C CNN
F 1 "GND" H 9295 4677 50  0000 C CNN
F 2 "" H 9300 4850 50  0001 C CNN
F 3 "" H 9300 4850 50  0001 C CNN
	1    9300 4850
	1    0    0    -1  
$EndComp
Wire Wire Line
	9600 4450 9700 4450
Wire Wire Line
	9700 4450 9700 4650
Wire Wire Line
	9600 4350 10050 4350
Wire Wire Line
	9600 4550 10050 4550
Connection ~ 10050 4550
Wire Wire Line
	8650 4450 8650 4350
Wire Wire Line
	8650 4350 8900 4350
Connection ~ 8900 4350
Wire Wire Line
	8650 4650 8650 4850
$Comp
L fpc-iii:GND #PWR051
U 1 1 5E34EBB6
P 8650 4850
F 0 "#PWR051" H 8650 4600 50  0001 C CNN
F 1 "GND" H 8645 4677 50  0000 C CNN
F 2 "" H 8650 4850 50  0001 C CNN
F 3 "" H 8650 4850 50  0001 C CNN
	1    8650 4850
	1    0    0    -1  
$EndComp
$Comp
L fpc-iii:GND #PWR053
U 1 1 5E34F398
P 9700 4850
F 0 "#PWR053" H 9700 4600 50  0001 C CNN
F 1 "GND" H 9695 4677 50  0000 C CNN
F 2 "" H 9700 4850 50  0001 C CNN
F 3 "" H 9700 4850 50  0001 C CNN
	1    9700 4850
	1    0    0    -1  
$EndComp
$Comp
L fpc-iii:GND #PWR054
U 1 1 5E34F6D6
P 10050 4850
F 0 "#PWR054" H 10050 4600 50  0001 C CNN
F 1 "GND" H 10045 4677 50  0000 C CNN
F 2 "" H 10050 4850 50  0001 C CNN
F 3 "" H 10050 4850 50  0001 C CNN
	1    10050 4850
	1    0    0    -1  
$EndComp
$Comp
L fpc-iii:GND #PWR056
U 1 1 5E34FA9C
P 10450 4850
F 0 "#PWR056" H 10450 4600 50  0001 C CNN
F 1 "GND" H 10445 4677 50  0000 C CNN
F 2 "" H 10450 4850 50  0001 C CNN
F 3 "" H 10450 4850 50  0001 C CNN
	1    10450 4850
	1    0    0    -1  
$EndComp
Wire Wire Line
	9300 4850 9300 4750
Wire Wire Line
	10050 4750 10050 4850
Wire Wire Line
	10450 4850 10450 4650
$Comp
L power:+2V5 #PWR050
U 1 1 5E3AD25A
P 8650 4250
F 0 "#PWR050" H 8650 4100 50  0001 C CNN
F 1 "+2V5" H 8665 4423 50  0000 C CNN
F 2 "" H 8650 4250 50  0001 C CNN
F 3 "" H 8650 4250 50  0001 C CNN
	1    8650 4250
	1    0    0    -1  
$EndComp
$Comp
L power:+1V5 #PWR055
U 1 1 5E3AE431
P 10450 4250
F 0 "#PWR055" H 10450 4100 50  0001 C CNN
F 1 "+1V5" H 10465 4423 50  0000 C CNN
F 2 "" H 10450 4250 50  0001 C CNN
F 3 "" H 10450 4250 50  0001 C CNN
	1    10450 4250
	1    0    0    -1  
$EndComp
Wire Wire Line
	8650 4250 8650 4350
Connection ~ 8650 4350
Wire Wire Line
	10050 4350 10450 4350
Wire Wire Line
	10450 4350 10450 4250
Connection ~ 10050 4350
Wire Wire Line
	10450 4350 10450 4450
Connection ~ 10450 4350
Wire Wire Line
	4500 900  4600 900 
Wire Wire Line
	4500 900  4500 1350
Wire Wire Line
	4900 900  4900 1350
Connection ~ 4600 900 
Wire Wire Line
	4600 900  4900 900 
Wire Wire Line
	5200 900  5300 900 
Wire Wire Line
	5200 900  5200 1350
Wire Wire Line
	5600 900  5600 1350
Connection ~ 5300 900 
Wire Wire Line
	5300 900  5600 900 
Wire Wire Line
	4600 800  4600 900 
Wire Wire Line
	5300 800  5300 900 
$Comp
L fpc-iii:GND #PWR042
U 1 1 5E3DEE87
P 4600 1100
F 0 "#PWR042" H 4600 850 50  0001 C CNN
F 1 "GND" H 4595 927 50  0000 C CNN
F 2 "" H 4600 1100 50  0001 C CNN
F 3 "" H 4600 1100 50  0001 C CNN
	1    4600 1100
	1    0    0    -1  
$EndComp
$Comp
L fpc-iii:GND #PWR044
U 1 1 5E3DF12A
P 5300 1100
F 0 "#PWR044" H 5300 850 50  0001 C CNN
F 1 "GND" H 5295 927 50  0000 C CNN
F 2 "" H 5300 1100 50  0001 C CNN
F 3 "" H 5300 1100 50  0001 C CNN
	1    5300 1100
	1    0    0    -1  
$EndComp
$Comp
L fpc-iii:GND #PWR048
U 1 1 5E3DF30A
P 6950 1100
F 0 "#PWR048" H 6950 850 50  0001 C CNN
F 1 "GND" H 6945 927 50  0000 C CNN
F 2 "" H 6950 1100 50  0001 C CNN
F 3 "" H 6950 1100 50  0001 C CNN
	1    6950 1100
	1    0    0    -1  
$EndComp
Wire Wire Line
	6850 900  6950 900 
Wire Wire Line
	7650 900  7650 1350
Wire Wire Line
	6850 900  6850 1350
Connection ~ 6950 900 
Wire Wire Line
	6950 900  7250 900 
Wire Wire Line
	6950 800  6950 900 
Wire Wire Line
	7250 900  7250 1350
Connection ~ 7250 900 
Wire Wire Line
	7250 900  7350 900 
Connection ~ 7350 900 
Wire Wire Line
	7350 900  7650 900 
$Comp
L fpc-iii:GND #PWR049
U 1 1 5E34822A
P 7350 1100
F 0 "#PWR049" H 7350 850 50  0001 C CNN
F 1 "GND" H 7345 927 50  0000 C CNN
F 2 "" H 7350 1100 50  0001 C CNN
F 3 "" H 7350 1100 50  0001 C CNN
	1    7350 1100
	1    0    0    -1  
$EndComp
$Comp
L power:PWR_FLAG #FLG07
U 1 1 5E381DCB
P 3250 4350
F 0 "#FLG07" H 3250 4425 50  0001 C CNN
F 1 "PWR_FLAG" H 3250 4523 50  0000 C CNN
F 2 "" H 3250 4350 50  0001 C CNN
F 3 "~" H 3250 4350 50  0001 C CNN
	1    3250 4350
	1    0    0    -1  
$EndComp
$Comp
L power:PWR_FLAG #FLG08
U 1 1 5E382538
P 3250 5600
F 0 "#FLG08" H 3250 5675 50  0001 C CNN
F 1 "PWR_FLAG" H 3250 5773 50  0000 C CNN
F 2 "" H 3250 5600 50  0001 C CNN
F 3 "~" H 3250 5600 50  0001 C CNN
	1    3250 5600
	1    0    0    -1  
$EndComp
$Comp
L power:PWR_FLAG #FLG06
U 1 1 5E3826D4
P 3200 6850
F 0 "#FLG06" H 3200 6925 50  0001 C CNN
F 1 "PWR_FLAG" H 3200 7023 50  0000 C CNN
F 2 "" H 3200 6850 50  0001 C CNN
F 3 "~" H 3200 6850 50  0001 C CNN
	1    3200 6850
	1    0    0    -1  
$EndComp
Connection ~ 3200 6850
Wire Wire Line
	3200 6850 3450 6850
Connection ~ 3250 5600
Wire Wire Line
	3250 5600 3450 5600
Connection ~ 3250 4350
Wire Wire Line
	3250 4350 3450 4350
$Comp
L power:+5V #PWR017
U 1 1 5E39D3CE
P 1600 3150
F 0 "#PWR017" H 1600 3000 50  0001 C CNN
F 1 "+5V" H 1615 3323 50  0000 C CNN
F 2 "" H 1600 3150 50  0001 C CNN
F 3 "" H 1600 3150 50  0001 C CNN
	1    1600 3150
	1    0    0    -1  
$EndComp
$Comp
L fpc-iii:GND #PWR010
U 1 1 5E39D61F
P 1000 3650
F 0 "#PWR010" H 1000 3400 50  0001 C CNN
F 1 "GND" H 995 3477 50  0000 C CNN
F 2 "" H 1000 3650 50  0001 C CNN
F 3 "" H 1000 3650 50  0001 C CNN
	1    1000 3650
	1    0    0    -1  
$EndComp
Wire Wire Line
	1000 3650 1000 3550
Wire Wire Line
	1000 3550 1200 3550
$Comp
L power:PWR_FLAG #FLG03
U 1 1 5E4D4892
P 2350 4050
F 0 "#FLG03" H 2350 4125 50  0001 C CNN
F 1 "PWR_FLAG" H 2350 4223 50  0000 C CNN
F 2 "" H 2350 4050 50  0001 C CNN
F 3 "~" H 2350 4050 50  0001 C CNN
	1    2350 4050
	1    0    0    -1  
$EndComp
Connection ~ 2350 4050
$Comp
L power:PWR_FLAG #FLG02
U 1 1 5E46CCCC
P 1300 3150
F 0 "#FLG02" H 1300 3225 50  0001 C CNN
F 1 "PWR_FLAG" H 1300 3323 50  0000 C CNN
F 2 "" H 1300 3150 50  0001 C CNN
F 3 "~" H 1300 3150 50  0001 C CNN
	1    1300 3150
	1    0    0    -1  
$EndComp
$Comp
L power:PWR_FLAG #FLG04
U 1 1 5E4D8558
P 2350 5300
F 0 "#FLG04" H 2350 5375 50  0001 C CNN
F 1 "PWR_FLAG" H 2350 5473 50  0000 C CNN
F 2 "" H 2350 5300 50  0001 C CNN
F 3 "~" H 2350 5300 50  0001 C CNN
	1    2350 5300
	1    0    0    -1  
$EndComp
Connection ~ 2350 5300
$Comp
L power:PWR_FLAG #FLG05
U 1 1 5E4D889D
P 2350 6550
F 0 "#FLG05" H 2350 6625 50  0001 C CNN
F 1 "PWR_FLAG" H 2350 6723 50  0000 C CNN
F 2 "" H 2350 6550 50  0001 C CNN
F 3 "~" H 2350 6550 50  0001 C CNN
	1    2350 6550
	1    0    0    -1  
$EndComp
Connection ~ 2350 6550
Wire Wire Line
	1300 3150 1600 3150
Connection ~ 1600 3150
Text GLabel 1800 3550 2    50   Input ~ 0
DEV0.VBUS
Wire Wire Line
	1700 3550 1800 3550
$Comp
L lfe5u-85:LFE5U-85F-6BG381C U?
U 8 1 5E19E564
P 6150 4850
AR Path="/5E19E564" Ref="U?"  Part="8" 
AR Path="/5E18E657/5E19E564" Ref="U1"  Part="8" 
F 0 "U1" H 6150 6037 60  0000 C CNN
F 1 "LFE5U-85F-6BG381C" H 6150 5931 60  0000 C CNN
F 2 "Package_BGA:Lattice_caBGA-381_17.0x17.0mm_Layout20x20_P0.8mm_Ball0.4mm_Pad0.4mm_NSMD" H 5100 5800 60  0001 C CNN
F 3 "" H 5100 5800 60  0000 C CNN
F 4 "220-2177" H 6150 4850 50  0001 C CNN "Digikey part"
F 5 "LFE5U-85F-8BG381I" H 6150 4850 50  0001 C CNN "part#"
	8    6150 4850
	1    0    0    -1  
$EndComp
$Comp
L fpc-iii:AP63301 U3
U 1 1 5E14F84F
P 1800 5500
F 0 "U3" H 1800 5765 50  0000 C CNN
F 1 "AP63301" H 1800 5674 50  0000 C CNN
F 2 "Package_TO_SOT_SMD:SOT-23-6" H 1800 5200 50  0001 C CNN
F 3 "https://www.diodes.com/assets/Datasheets/AP63300-AP63301.pdf" H 1800 5200 50  0001 C CNN
F 4 "31-AP63301WU-7CT" H 1800 5500 50  0001 C CNN "Digikey part"
F 5 "AP63301WU-7" H 1800 5500 50  0001 C CNN "part#"
	1    1800 5500
	1    0    0    -1  
$EndComp
$Comp
L Device:C_Small C10
U 1 1 5E16CB48
P 700 5700
F 0 "C10" H 788 5746 50  0000 L CNN
F 1 "10u" H 788 5655 50  0000 L CNN
F 2 "Capacitor_SMD:C_0805_2012Metric" H 738 5550 50  0001 C CNN
F 3 "~" H 700 5700 50  0001 C CNN
F 4 "1276-6455-1" H 700 5700 50  0001 C CNN "Digikey part"
F 5 "CL21A106KOQNNNG" H 700 5700 50  0001 C CNN "part#"
	1    700  5700
	1    0    0    -1  
$EndComp
$Comp
L Device:C_Small C26
U 1 1 5E1A47FF
P 3000 5750
F 0 "C26" H 3092 5796 50  0000 L CNN
F 1 "56p" H 3092 5705 50  0000 L CNN
F 2 "Capacitor_SMD:C_0402_1005Metric" H 3038 5600 50  0001 C CNN
F 3 "~" H 3000 5750 50  0001 C CNN
F 4 "1276-1707-1" H 3000 5750 50  0001 C CNN "Digikey part"
F 5 "CL05C560JB5NNNC" H 3000 5750 50  0001 C CNN "part#"
	1    3000 5750
	1    0    0    -1  
$EndComp
$Comp
L Device:C_Small C22
U 1 1 5E1A5624
P 2500 5400
F 0 "C22" H 2600 5600 50  0000 L CNN
F 1 "100n" H 2550 5500 50  0000 L CNN
F 2 "Capacitor_SMD:C_0402_1005Metric" H 2538 5250 50  0001 C CNN
F 3 "~" H 2500 5400 50  0001 C CNN
F 4 "1276-1004-1" H 2500 5400 50  0001 C CNN "Digikey part"
F 5 "*" H 2500 5400 50  0001 C CNN "Tolerance"
F 6 "CL05F104ZO5NNNC" H 2500 5400 50  0001 C CNN "part#"
	1    2500 5400
	1    0    0    -1  
$EndComp
$Comp
L Device:L L2
U 1 1 5E1A630F
P 2750 5600
F 0 "L2" V 2940 5600 50  0000 C CNN
F 1 "4u7" V 2849 5600 50  0000 C CNN
F 2 "Inductor_SMD:L_Taiyo-Yuden_NR-80xx" H 2750 5600 50  0001 C CNN
F 3 "https://ds.yuden.co.jp/TYCOMPAS/ut/specSheet?pn=NRS8040T4R7NJGJ++" H 2750 5600 50  0001 C CNN
F 4 "587-2978-1" H 2750 5600 50  0001 C CNN "Digikey part"
F 5 "*" H 2750 5600 50  0001 C CNN "Tolerance"
F 6 "NRS8040T4R7NJGJ" H 2750 5600 50  0001 C CNN "part#"
	1    2750 5600
	0    -1   -1   0   
$EndComp
$Comp
L Device:R_Small_US R3
U 1 1 5E200834
P 3450 5750
F 0 "R3" H 3518 5796 50  0000 L CNN
F 1 "47K" H 3518 5705 50  0000 L CNN
F 2 "Resistor_SMD:R_0402_1005Metric" V 3380 5750 50  0001 C CNN
F 3 "~" H 3450 5750 50  0001 C CNN
F 4 "RMCF0402FT47K0CT" H 3450 5750 50  0001 C CNN "Digikey part"
F 5 "1%" H 3450 5750 50  0001 C CNN "Tolerance"
F 6 "RMCF0402FT47K0" H 3450 5750 50  0001 C CNN "part#"
	1    3450 5750
	1    0    0    -1  
$EndComp
$Comp
L Device:R_Small_US R4
U 1 1 5E20140E
P 3450 6050
F 0 "R4" H 3518 6096 50  0000 L CNN
F 1 "22K" H 3518 6005 50  0000 L CNN
F 2 "Resistor_SMD:R_0402_1005Metric" V 3380 6050 50  0001 C CNN
F 3 "~" H 3450 6050 50  0001 C CNN
F 4 "RMCF0402FT22K0CT" H 3450 6050 50  0001 C CNN "Digikey part"
F 5 "1%" H 3450 6050 50  0001 C CNN "Tolerance"
F 6 "RMCF0402FT22K0" H 3450 6050 50  0001 C CNN "part#"
	1    3450 6050
	1    0    0    -1  
$EndComp
$Comp
L Device:C_Small C31
U 1 1 5E2D571C
P 3850 5750
F 0 "C31" H 3938 5796 50  0000 L CNN
F 1 "22u" H 3938 5705 50  0000 L CNN
F 2 "Capacitor_SMD:C_0805_2012Metric" H 3850 5750 50  0001 C CNN
F 3 "~" H 3850 5750 50  0001 C CNN
F 4 "1276-6780-1" H 3850 5750 50  0001 C CNN "Digikey part"
F 5 "*" H 3850 5750 50  0001 C CNN "Tolerance"
F 6 "CL21A226MOCLRNC" H 3850 5750 50  0001 C CNN "part#"
	1    3850 5750
	1    0    0    -1  
$EndComp
$Comp
L Device:C_Small C14
U 1 1 5E157572
P 1100 5700
F 0 "C14" H 1192 5746 50  0000 L CNN
F 1 "2n2" H 1192 5655 50  0000 L CNN
F 2 "Capacitor_SMD:C_0402_1005Metric" H 1100 5700 50  0001 C CNN
F 3 "~" H 1100 5700 50  0001 C CNN
F 4 "1276-1532-1" H 1100 5700 50  0001 C CNN "Digikey part"
F 5 "CL05B222JB5NNNC" H 1100 5700 50  0001 C CNN "part#"
	1    1100 5700
	1    0    0    -1  
$EndComp
$Comp
L fpc-iii:AP63301 U4
U 1 1 5E17ECFC
P 1800 6750
F 0 "U4" H 1800 7015 50  0000 C CNN
F 1 "AP63301" H 1800 6924 50  0000 C CNN
F 2 "Package_TO_SOT_SMD:SOT-23-6" H 1800 6450 50  0001 C CNN
F 3 "https://www.diodes.com/assets/Datasheets/AP63300-AP63301.pdf" H 1800 6450 50  0001 C CNN
F 4 "31-AP63301WU-7CT" H 1800 6750 50  0001 C CNN "Digikey part"
F 5 "AP63301WU-7" H 1800 6750 50  0001 C CNN "part#"
	1    1800 6750
	1    0    0    -1  
$EndComp
$Comp
L Device:C_Small C11
U 1 1 5E17ED0F
P 700 6950
F 0 "C11" H 792 6996 50  0000 L CNN
F 1 "10u" H 792 6905 50  0000 L CNN
F 2 "Capacitor_SMD:C_0805_2012Metric" H 738 6800 50  0001 C CNN
F 3 "~" H 700 6950 50  0001 C CNN
F 4 "1276-6455-1" H 700 6950 50  0001 C CNN "Digikey part"
F 5 "CL21A106KOQNNNG" H 700 6950 50  0001 C CNN "part#"
	1    700  6950
	1    0    0    -1  
$EndComp
$Comp
L Device:C_Small C23
U 1 1 5E17ED24
P 2500 6650
F 0 "C23" H 2600 6850 50  0000 L CNN
F 1 "100n" H 2550 6750 50  0000 L CNN
F 2 "Capacitor_SMD:C_0402_1005Metric" H 2538 6500 50  0001 C CNN
F 3 "~" H 2500 6650 50  0001 C CNN
F 4 "1276-1004-1" H 2500 6650 50  0001 C CNN "Digikey part"
F 5 "*" H 2500 6650 50  0001 C CNN "Tolerance"
F 6 "CL05F104ZO5NNNC" H 2500 6650 50  0001 C CNN "part#"
	1    2500 6650
	1    0    0    -1  
$EndComp
$Comp
L Device:L L3
U 1 1 5E17ED2A
P 2750 6850
F 0 "L3" V 2940 6850 50  0000 C CNN
F 1 "4u7" V 2849 6850 50  0000 C CNN
F 2 "Inductor_SMD:L_Taiyo-Yuden_NR-80xx" H 2750 6850 50  0001 C CNN
F 3 "https://ds.yuden.co.jp/TYCOMPAS/ut/specSheet?pn=NRS8040T4R7NJGJ++" H 2750 6850 50  0001 C CNN
F 4 "587-2978-1" H 2750 6850 50  0001 C CNN "Digikey part"
F 5 "*" H 2750 6850 50  0001 C CNN "Tolerance"
F 6 "NRS8040T4R7NJGJ" H 2750 6850 50  0001 C CNN "part#"
	1    2750 6850
	0    -1   -1   0   
$EndComp
$Comp
L Device:R_Small_US R5
U 1 1 5E17ED39
P 3450 7000
F 0 "R5" H 3518 7046 50  0000 L CNN
F 1 "18K" H 3518 6955 50  0000 L CNN
F 2 "Resistor_SMD:R_0402_1005Metric" V 3380 7000 50  0001 C CNN
F 3 "~" H 3450 7000 50  0001 C CNN
F 4 "RMCF0402FT18K0CT" H 3450 7000 50  0001 C CNN "Digikey part"
F 5 "1%" H 3450 7000 50  0001 C CNN "Tolerance"
F 6 "RMCF0402FT18K0" H 3450 7000 50  0001 C CNN "part#"
	1    3450 7000
	1    0    0    -1  
$EndComp
$Comp
L Device:R_Small_US R6
U 1 1 5E17ED3F
P 3450 7300
F 0 "R6" H 3518 7346 50  0000 L CNN
F 1 "47K" H 3518 7255 50  0000 L CNN
F 2 "Resistor_SMD:R_0402_1005Metric" V 3380 7300 50  0001 C CNN
F 3 "~" H 3450 7300 50  0001 C CNN
F 4 "RMCF0402FT47K0CT" H 3450 7300 50  0001 C CNN "Digikey part"
F 5 "1%" H 3450 7300 50  0001 C CNN "Tolerance"
F 6 "RMCF0402FT47K0" H 3450 7300 50  0001 C CNN "part#"
	1    3450 7300
	1    0    0    -1  
$EndComp
$Comp
L Device:C_Small C32
U 1 1 5E17ED59
P 3850 7000
F 0 "C32" H 3938 7046 50  0000 L CNN
F 1 "22u" H 3938 6955 50  0000 L CNN
F 2 "Capacitor_SMD:C_0805_2012Metric" H 3850 7000 50  0001 C CNN
F 3 "~" H 3850 7000 50  0001 C CNN
F 4 "1276-6780-1" H 3850 7000 50  0001 C CNN "Digikey part"
F 5 "*" H 3850 7000 50  0001 C CNN "Tolerance"
F 6 "CL21A226MOCLRNC" H 3850 7000 50  0001 C CNN "part#"
	1    3850 7000
	1    0    0    -1  
$EndComp
$Comp
L Device:C_Small C15
U 1 1 5E17ED72
P 1100 6950
F 0 "C15" H 1192 6996 50  0000 L CNN
F 1 "2n2" H 1192 6905 50  0000 L CNN
F 2 "Capacitor_SMD:C_0402_1005Metric" H 1100 6950 50  0001 C CNN
F 3 "~" H 1100 6950 50  0001 C CNN
F 4 "1276-1532-1" H 1100 6950 50  0001 C CNN "Digikey part"
F 5 "CL05B222JB5NNNC" H 1100 6950 50  0001 C CNN "part#"
	1    1100 6950
	1    0    0    -1  
$EndComp
$Comp
L fpc-iii:AP63301 U2
U 1 1 5E1B0C29
P 1800 4250
F 0 "U2" H 1800 4515 50  0000 C CNN
F 1 "AP63301" H 1800 4424 50  0000 C CNN
F 2 "Package_TO_SOT_SMD:SOT-23-6" H 1800 3950 50  0001 C CNN
F 3 "https://www.diodes.com/assets/Datasheets/AP63300-AP63301.pdf" H 1800 3950 50  0001 C CNN
F 4 "31-AP63301WU-7CT" H 1800 4250 50  0001 C CNN "Digikey part"
F 5 "AP63301WU-7" H 1800 4250 50  0001 C CNN "part#"
	1    1800 4250
	1    0    0    -1  
$EndComp
$Comp
L Device:C_Small C9
U 1 1 5E1B0C3C
P 700 4450
F 0 "C9" H 788 4496 50  0000 L CNN
F 1 "10u" H 788 4405 50  0000 L CNN
F 2 "Capacitor_SMD:C_0805_2012Metric" H 738 4300 50  0001 C CNN
F 3 "~" H 700 4450 50  0001 C CNN
F 4 "1276-6455-1" H 700 4450 50  0001 C CNN "Digikey part"
F 5 "CL21A106KOQNNNG" H 700 4450 50  0001 C CNN "part#"
	1    700  4450
	1    0    0    -1  
$EndComp
$Comp
L Device:C_Small C25
U 1 1 5E1B0C4B
P 3000 4500
F 0 "C25" H 3092 4546 50  0000 L CNN
F 1 "56p" H 3092 4455 50  0000 L CNN
F 2 "Capacitor_SMD:C_0402_1005Metric" H 3038 4350 50  0001 C CNN
F 3 "~" H 3000 4500 50  0001 C CNN
F 4 "1276-1707-1" H 3000 4500 50  0001 C CNN "Digikey part"
F 5 "CL05C560JB5NNNC" H 3000 4500 50  0001 C CNN "part#"
	1    3000 4500
	1    0    0    -1  
$EndComp
$Comp
L Device:C_Small C21
U 1 1 5E1B0C51
P 2500 4150
F 0 "C21" H 2600 4350 50  0000 L CNN
F 1 "100n" H 2550 4250 50  0000 L CNN
F 2 "Capacitor_SMD:C_0402_1005Metric" H 2538 4000 50  0001 C CNN
F 3 "~" H 2500 4150 50  0001 C CNN
F 4 "1276-1004-1" H 2500 4150 50  0001 C CNN "Digikey part"
F 5 "*" H 2500 4150 50  0001 C CNN "Tolerance"
F 6 "CL05F104ZO5NNNC" H 2500 4150 50  0001 C CNN "part#"
	1    2500 4150
	1    0    0    -1  
$EndComp
$Comp
L Device:L L1
U 1 1 5E1B0C57
P 2750 4350
F 0 "L1" V 2940 4350 50  0000 C CNN
F 1 "4u7" V 2849 4350 50  0000 C CNN
F 2 "Inductor_SMD:L_Taiyo-Yuden_NR-80xx" H 2750 4350 50  0001 C CNN
F 3 "https://ds.yuden.co.jp/TYCOMPAS/ut/specSheet?pn=NRS8040T4R7NJGJ++" H 2750 4350 50  0001 C CNN
F 4 "587-2978-1" H 2750 4350 50  0001 C CNN "Digikey part"
F 5 "*" H 2750 4350 50  0001 C CNN "Tolerance"
F 6 "NRS8040T4R7NJGJ" H 2750 4350 50  0001 C CNN "part#"
	1    2750 4350
	0    -1   -1   0   
$EndComp
$Comp
L Device:R_Small_US R1
U 1 1 5E1B0C66
P 3450 4500
F 0 "R1" H 3518 4546 50  0000 L CNN
F 1 "47K" H 3518 4455 50  0000 L CNN
F 2 "Resistor_SMD:R_0402_1005Metric" V 3380 4500 50  0001 C CNN
F 3 "~" H 3450 4500 50  0001 C CNN
F 4 "RMCF0402FT47K0CT" H 3450 4500 50  0001 C CNN "Digikey part"
F 5 "1%" H 3450 4500 50  0001 C CNN "Tolerance"
F 6 "RMCF0402FT47K0" H 3450 4500 50  0001 C CNN "part#"
	1    3450 4500
	1    0    0    -1  
$EndComp
$Comp
L Device:R_Small_US R2
U 1 1 5E1B0C6C
P 3450 4800
F 0 "R2" H 3518 4846 50  0000 L CNN
F 1 "15K" H 3518 4755 50  0000 L CNN
F 2 "Resistor_SMD:R_0402_1005Metric" V 3380 4800 50  0001 C CNN
F 3 "~" H 3450 4800 50  0001 C CNN
F 4 "RMCF0402FT15K0CT" H 3450 4800 50  0001 C CNN "Digikey part"
F 5 "1%" H 3450 4800 50  0001 C CNN "Tolerance"
F 6 "RMCF0402FT15K0" H 3450 4800 50  0001 C CNN "part#"
	1    3450 4800
	1    0    0    -1  
$EndComp
$Comp
L Device:C_Small C30
U 1 1 5E1B0C86
P 3850 4500
F 0 "C30" H 3938 4546 50  0000 L CNN
F 1 "22u" H 3938 4455 50  0000 L CNN
F 2 "Capacitor_SMD:C_0805_2012Metric" H 3850 4500 50  0001 C CNN
F 3 "~" H 3850 4500 50  0001 C CNN
F 4 "1276-6780-1" H 3850 4500 50  0001 C CNN "Digikey part"
F 5 "*" H 3850 4500 50  0001 C CNN "Tolerance"
F 6 "CL21A226MOCLRNC" H 3850 4500 50  0001 C CNN "part#"
	1    3850 4500
	1    0    0    -1  
$EndComp
$Comp
L Device:C_Small C13
U 1 1 5E1B0C9F
P 1100 4450
F 0 "C13" H 1192 4496 50  0000 L CNN
F 1 "1n" H 1192 4405 50  0000 L CNN
F 2 "Capacitor_SMD:C_0402_1005Metric" H 1100 4450 50  0001 C CNN
F 3 "~" H 1100 4450 50  0001 C CNN
F 4 "1276-1032-1" H 1100 4450 50  0001 C CNN "Digikey part"
F 5 "5%" H 1100 4450 50  0001 C CNN "Tolerance"
F 6 "CL05B102KB5NNNC" H 1100 4450 50  0001 C CNN "part#"
	1    1100 4450
	1    0    0    -1  
$EndComp
$Comp
L Device:CP1_Small C33
U 1 1 5E1DC09A
P 4200 4500
F 0 "C33" H 4291 4546 50  0000 L CNN
F 1 "100u" H 4291 4455 50  0000 L CNN
F 2 "Capacitor_SMD:CP_Elec_6.3x7.7" H 4200 4500 50  0001 C CNN
F 3 "https://industrial.panasonic.com/cdbs/www-data/pdf/RDE0000/ABA0000C1160.pdf" H 4200 4500 50  0001 C CNN
F 4 "PCE3750CT" H 4200 4500 50  0001 C CNN "Digikey part"
F 5 "*" H 4200 4500 50  0001 C CNN "Tolerance"
F 6 "EEE-HC1C101XP" H 4200 4500 50  0001 C CNN "part#"
	1    4200 4500
	1    0    0    -1  
$EndComp
$Comp
L Device:CP1_Small C34
U 1 1 5E210B55
P 4200 5750
F 0 "C34" H 4291 5796 50  0000 L CNN
F 1 "100u" H 4291 5705 50  0000 L CNN
F 2 "Capacitor_SMD:CP_Elec_6.3x7.7" H 4200 5750 50  0001 C CNN
F 3 "https://industrial.panasonic.com/cdbs/www-data/pdf/RDE0000/ABA0000C1160.pdf" H 4200 5750 50  0001 C CNN
F 4 "PCE3750CT" H 4200 5750 50  0001 C CNN "Digikey part"
F 5 "*" H 4200 5750 50  0001 C CNN "Tolerance"
F 6 "EEE-HC1C101XP" H 4200 5750 50  0001 C CNN "part#"
	1    4200 5750
	1    0    0    -1  
$EndComp
$Comp
L Device:CP1_Small C35
U 1 1 5E22A8B3
P 4200 7000
F 0 "C35" H 4291 7046 50  0000 L CNN
F 1 "100u" H 4291 6955 50  0000 L CNN
F 2 "Capacitor_SMD:CP_Elec_6.3x7.7" H 4200 7000 50  0001 C CNN
F 3 "https://industrial.panasonic.com/cdbs/www-data/pdf/RDE0000/ABA0000C1160.pdf" H 4200 7000 50  0001 C CNN
F 4 "PCE3750CT" H 4200 7000 50  0001 C CNN "Digikey part"
F 5 "*" H 4200 7000 50  0001 C CNN "Tolerance"
F 6 "EEE-HC1C101XP" H 4200 7000 50  0001 C CNN "part#"
	1    4200 7000
	1    0    0    -1  
$EndComp
$Comp
L Device:C_Small C29
U 1 1 5E23C6FC
P 3850 1000
F 0 "C29" H 3942 1046 50  0000 L CNN
F 1 "100n" H 3942 955 50  0000 L CNN
F 2 "Capacitor_SMD:C_0402_1005Metric" H 3850 1000 50  0001 C CNN
F 3 "~" H 3850 1000 50  0001 C CNN
F 4 "*" H 3850 1000 50  0001 C CNN "Tolerance"
F 5 "1276-1004-1" H 3850 1000 50  0001 C CNN "Digikey part"
F 6 "CL05F104ZO5NNNC" H 3850 1000 50  0001 C CNN "part#"
	1    3850 1000
	1    0    0    -1  
$EndComp
$Comp
L Device:C_Small C28
U 1 1 5E270E78
P 3500 1000
F 0 "C28" H 3592 1046 50  0000 L CNN
F 1 "100n" H 3592 955 50  0000 L CNN
F 2 "Capacitor_SMD:C_0402_1005Metric" H 3500 1000 50  0001 C CNN
F 3 "~" H 3500 1000 50  0001 C CNN
F 4 "*" H 3500 1000 50  0001 C CNN "Tolerance"
F 5 "1276-1004-1" H 3500 1000 50  0001 C CNN "Digikey part"
F 6 "CL05F104ZO5NNNC" H 3500 1000 50  0001 C CNN "part#"
	1    3500 1000
	1    0    0    -1  
$EndComp
$Comp
L Device:C_Small C27
U 1 1 5E28A59F
P 3150 1000
F 0 "C27" H 3242 1046 50  0000 L CNN
F 1 "100n" H 3242 955 50  0000 L CNN
F 2 "Capacitor_SMD:C_0402_1005Metric" H 3150 1000 50  0001 C CNN
F 3 "~" H 3150 1000 50  0001 C CNN
F 4 "*" H 3150 1000 50  0001 C CNN "Tolerance"
F 5 "1276-1004-1" H 3150 1000 50  0001 C CNN "Digikey part"
F 6 "CL05F104ZO5NNNC" H 3150 1000 50  0001 C CNN "part#"
	1    3150 1000
	1    0    0    -1  
$EndComp
$Comp
L Device:C_Small C24
U 1 1 5E2A3A6C
P 2800 1000
F 0 "C24" H 2892 1046 50  0000 L CNN
F 1 "100n" H 2892 955 50  0000 L CNN
F 2 "Capacitor_SMD:C_0402_1005Metric" H 2800 1000 50  0001 C CNN
F 3 "~" H 2800 1000 50  0001 C CNN
F 4 "*" H 2800 1000 50  0001 C CNN "Tolerance"
F 5 "1276-1004-1" H 2800 1000 50  0001 C CNN "Digikey part"
F 6 "CL05F104ZO5NNNC" H 2800 1000 50  0001 C CNN "part#"
	1    2800 1000
	1    0    0    -1  
$EndComp
$Comp
L Device:C_Small C20
U 1 1 5E2D79DC
P 2100 1000
F 0 "C20" H 2192 1046 50  0000 L CNN
F 1 "100n" H 2192 955 50  0000 L CNN
F 2 "Capacitor_SMD:C_0402_1005Metric" H 2100 1000 50  0001 C CNN
F 3 "~" H 2100 1000 50  0001 C CNN
F 4 "*" H 2100 1000 50  0001 C CNN "Tolerance"
F 5 "1276-1004-1" H 2100 1000 50  0001 C CNN "Digikey part"
F 6 "CL05F104ZO5NNNC" H 2100 1000 50  0001 C CNN "part#"
	1    2100 1000
	1    0    0    -1  
$EndComp
$Comp
L Device:C_Small C19
U 1 1 5E2F2280
P 1700 1000
F 0 "C19" H 1792 1046 50  0000 L CNN
F 1 "100n" H 1792 955 50  0000 L CNN
F 2 "Capacitor_SMD:C_0402_1005Metric" H 1700 1000 50  0001 C CNN
F 3 "~" H 1700 1000 50  0001 C CNN
F 4 "*" H 1700 1000 50  0001 C CNN "Tolerance"
F 5 "1276-1004-1" H 1700 1000 50  0001 C CNN "Digikey part"
F 6 "CL05F104ZO5NNNC" H 1700 1000 50  0001 C CNN "part#"
	1    1700 1000
	1    0    0    -1  
$EndComp
$Comp
L Device:C_Small C17
U 1 1 5E30C8AA
P 1300 1000
F 0 "C17" H 1392 1046 50  0000 L CNN
F 1 "100n" H 1392 955 50  0000 L CNN
F 2 "Capacitor_SMD:C_0402_1005Metric" H 1300 1000 50  0001 C CNN
F 3 "~" H 1300 1000 50  0001 C CNN
F 4 "*" H 1300 1000 50  0001 C CNN "Tolerance"
F 5 "1276-1004-1" H 1300 1000 50  0001 C CNN "Digikey part"
F 6 "CL05F104ZO5NNNC" H 1300 1000 50  0001 C CNN "part#"
	1    1300 1000
	1    0    0    -1  
$EndComp
$Comp
L Device:C_Small C12
U 1 1 5E326FA0
P 900 1000
F 0 "C12" H 992 1046 50  0000 L CNN
F 1 "100n" H 992 955 50  0000 L CNN
F 2 "Capacitor_SMD:C_0402_1005Metric" H 900 1000 50  0001 C CNN
F 3 "~" H 900 1000 50  0001 C CNN
F 4 "*" H 900 1000 50  0001 C CNN "Tolerance"
F 5 "1276-1004-1" H 900 1000 50  0001 C CNN "Digikey part"
F 6 "CL05F104ZO5NNNC" H 900 1000 50  0001 C CNN "part#"
	1    900  1000
	1    0    0    -1  
$EndComp
$Comp
L Device:C_Small C16
U 1 1 5E405704
P 1200 1450
F 0 "C16" H 1000 1500 50  0000 L CNN
F 1 "100n" H 950 1400 50  0000 L CNN
F 2 "Capacitor_SMD:C_0402_1005Metric" H 1200 1450 50  0001 C CNN
F 3 "~" H 1200 1450 50  0001 C CNN
F 4 "*" H 1200 1450 50  0001 C CNN "Tolerance"
F 5 "1276-1004-1" H 1200 1450 50  0001 C CNN "Digikey part"
F 6 "CL05F104ZO5NNNC" H 1200 1450 50  0001 C CNN "part#"
	1    1200 1450
	1    0    0    -1  
$EndComp
$Comp
L Device:C_Small C18
U 1 1 5E4218BA
P 1600 1450
F 0 "C18" H 1400 1500 50  0000 L CNN
F 1 "100n" H 1350 1400 50  0000 L CNN
F 2 "Capacitor_SMD:C_0402_1005Metric" H 1600 1450 50  0001 C CNN
F 3 "~" H 1600 1450 50  0001 C CNN
F 4 "*" H 1600 1450 50  0001 C CNN "Tolerance"
F 5 "1276-1004-1" H 1600 1450 50  0001 C CNN "Digikey part"
F 6 "CL05F104ZO5NNNC" H 1600 1450 50  0001 C CNN "part#"
	1    1600 1450
	1    0    0    -1  
$EndComp
$Comp
L Regulator_Linear:MIC5353YMT U5
U 1 1 5E257403
P 9300 4450
F 0 "U5" H 9300 4817 50  0000 C CNN
F 1 "MIC5353YMT" H 9300 4726 50  0000 C CNN
F 2 "Package_DFN_QFN:MLF-6-1EP_1.6x1.6mm_P0.5mm_EP0.5x1.26mm" H 9450 4100 50  0001 C CNN
F 3 "http://ww1.microchip.com/downloads/en/DeviceDoc/mic5353.pdf" H 9550 4550 50  0001 C CNN
F 4 "576-3681-1" H 9300 4450 50  0001 C CNN "Digikey part"
F 5 "MIC5353YMT-TR" H 9300 4450 50  0001 C CNN "part#"
	1    9300 4450
	1    0    0    -1  
$EndComp
$Comp
L Device:C_Small C40
U 1 1 5E294CF6
P 8650 4550
F 0 "C40" H 8742 4596 50  0000 L CNN
F 1 "1u" H 8742 4505 50  0000 L CNN
F 2 "Capacitor_SMD:C_0402_1005Metric" H 8650 4550 50  0001 C CNN
F 3 "~" H 8650 4550 50  0001 C CNN
F 4 "*" H 8650 4550 50  0001 C CNN "Tolerance"
F 5 "1276-1235-1" H 8650 4550 50  0001 C CNN "Digikey part"
F 6 "CL05A105MQ5NNNC" H 8650 4550 50  0001 C CNN "part#"
	1    8650 4550
	1    0    0    -1  
$EndComp
$Comp
L Device:C_Small C41
U 1 1 5E29530F
P 9700 4750
F 0 "C41" H 9792 4796 50  0000 L CNN
F 1 "100n" H 9792 4705 50  0000 L CNN
F 2 "Capacitor_SMD:C_0402_1005Metric" H 9700 4750 50  0001 C CNN
F 3 "~" H 9700 4750 50  0001 C CNN
F 4 "*" H 9700 4750 50  0001 C CNN "Tolerance"
F 5 "1276-1004-1" H 9700 4750 50  0001 C CNN "Digikey part"
F 6 "CL05F104ZO5NNNC" H 9700 4750 50  0001 C CNN "part#"
	1    9700 4750
	1    0    0    -1  
$EndComp
$Comp
L Device:C_Small C42
U 1 1 5E29675E
P 10450 4550
F 0 "C42" H 10542 4596 50  0000 L CNN
F 1 "1u" H 10542 4505 50  0000 L CNN
F 2 "Capacitor_SMD:C_0402_1005Metric" H 10450 4550 50  0001 C CNN
F 3 "~" H 10450 4550 50  0001 C CNN
F 4 "*" H 10450 4550 50  0001 C CNN "Tolerance"
F 5 "1276-1235-1" H 10450 4550 50  0001 C CNN "Digikey part"
F 6 "CL05A105MQ5NNNC" H 10450 4550 50  0001 C CNN "part#"
	1    10450 4550
	1    0    0    -1  
$EndComp
$Comp
L Device:R_Small_US R7
U 1 1 5E2B5D50
P 10050 4450
F 0 "R7" H 10118 4496 50  0000 L CNN
F 1 "10K" H 10118 4405 50  0000 L CNN
F 2 "Resistor_SMD:R_0402_1005Metric" H 10050 4450 50  0001 C CNN
F 3 "~" H 10050 4450 50  0001 C CNN
F 4 "RMCF0402JT10K0CT" H 10050 4450 50  0001 C CNN "Digikey part"
F 5 "RMCF0402JT10K0" H 10050 4450 50  0001 C CNN "part#"
	1    10050 4450
	1    0    0    -1  
$EndComp
$Comp
L Device:R_Small_US R8
U 1 1 5E2B6234
P 10050 4650
F 0 "R8" H 10118 4696 50  0000 L CNN
F 1 "47K" H 10118 4605 50  0000 L CNN
F 2 "Resistor_SMD:R_0402_1005Metric" H 10050 4650 50  0001 C CNN
F 3 "~" H 10050 4650 50  0001 C CNN
F 4 "RMCF0402FT47K0CT" H 10050 4650 50  0001 C CNN "Digikey part"
F 5 "1%" H 10050 4650 50  0001 C CNN "Tolerance"
F 6 "RMCF0402FT47K0" H 10050 4650 50  0001 C CNN "part#"
	1    10050 4650
	1    0    0    -1  
$EndComp
$Comp
L Device:C_Small C36
U 1 1 5E2FF251
P 4600 1000
F 0 "C36" H 4692 1046 50  0000 L CNN
F 1 "100n" H 4692 955 50  0000 L CNN
F 2 "Capacitor_SMD:C_0402_1005Metric" H 4600 1000 50  0001 C CNN
F 3 "~" H 4600 1000 50  0001 C CNN
F 4 "*" H 4600 1000 50  0001 C CNN "Tolerance"
F 5 "1276-1004-1" H 4600 1000 50  0001 C CNN "Digikey part"
F 6 "CL05F104ZO5NNNC" H 4600 1000 50  0001 C CNN "part#"
	1    4600 1000
	1    0    0    -1  
$EndComp
$Comp
L Device:C_Small C37
U 1 1 5E31E0B4
P 5300 1000
F 0 "C37" H 5392 1046 50  0000 L CNN
F 1 "100n" H 5392 955 50  0000 L CNN
F 2 "Capacitor_SMD:C_0402_1005Metric" H 5300 1000 50  0001 C CNN
F 3 "~" H 5300 1000 50  0001 C CNN
F 4 "*" H 5300 1000 50  0001 C CNN "Tolerance"
F 5 "1276-1004-1" H 5300 1000 50  0001 C CNN "Digikey part"
F 6 "CL05F104ZO5NNNC" H 5300 1000 50  0001 C CNN "part#"
	1    5300 1000
	1    0    0    -1  
$EndComp
$Comp
L Device:C_Small C38
U 1 1 5E31E301
P 6950 1000
F 0 "C38" H 7042 1046 50  0000 L CNN
F 1 "100n" H 7042 955 50  0000 L CNN
F 2 "Capacitor_SMD:C_0402_1005Metric" H 6950 1000 50  0001 C CNN
F 3 "~" H 6950 1000 50  0001 C CNN
F 4 "*" H 6950 1000 50  0001 C CNN "Tolerance"
F 5 "1276-1004-1" H 6950 1000 50  0001 C CNN "Digikey part"
F 6 "CL05F104ZO5NNNC" H 6950 1000 50  0001 C CNN "part#"
	1    6950 1000
	1    0    0    -1  
$EndComp
$Comp
L Device:C_Small C39
U 1 1 5E348090
P 7350 1000
F 0 "C39" H 7442 1046 50  0000 L CNN
F 1 "100n" H 7442 955 50  0000 L CNN
F 2 "Capacitor_SMD:C_0402_1005Metric" H 7350 1000 50  0001 C CNN
F 3 "~" H 7350 1000 50  0001 C CNN
F 4 "*" H 7350 1000 50  0001 C CNN "Tolerance"
F 5 "1276-1004-1" H 7350 1000 50  0001 C CNN "Digikey part"
F 6 "CL05F104ZO5NNNC" H 7350 1000 50  0001 C CNN "part#"
	1    7350 1000
	1    0    0    -1  
$EndComp
$Comp
L Switch:SW_SPDT SW1
U 1 1 5E38734A
P 1600 3350
F 0 "SW1" V 1600 3162 50  0000 R CNN
F 1 "SW_SPDT" V 1645 3162 50  0001 R CNN
F 2 "fpc-iii:SxxxxxxMS02x" H 1600 3350 50  0001 C CNN
F 3 "https://dznh3ojzb2azq.cloudfront.net/products/Slide/S/documents/datasheet.pdf" H 1600 3350 50  0001 C CNN
F 4 "CKC5113" H 1600 3350 50  0001 C CNN "Digikey part"
F 5 "S102031MS02Q" H 1600 3350 50  0001 C CNN "part#"
	1    1600 3350
	0    -1   1    0   
$EndComp
$Comp
L power:PWR_FLAG #FLG01
U 1 1 5E6BF5C6
P 1000 3550
F 0 "#FLG01" H 1000 3625 50  0001 C CNN
F 1 "PWR_FLAG" H 1000 3723 50  0000 C CNN
F 2 "" H 1000 3550 50  0001 C CNN
F 3 "~" H 1000 3550 50  0001 C CNN
	1    1000 3550
	1    0    0    -1  
$EndComp
Connection ~ 1000 3550
$Comp
L lfe5u-85:LFE5U-85F-6BG381C U?
U 9 1 5E33046F
P 6100 2000
AR Path="/5E33046F" Ref="U?"  Part="9" 
AR Path="/5E18E657/5E33046F" Ref="U1"  Part="9" 
F 0 "U1" H 1772 2028 60  0000 R CNN
F 1 "LFE5U-85F-6BG381C" H 1772 1922 60  0000 R CNN
F 2 "Package_BGA:Lattice_caBGA-381_17.0x17.0mm_Layout20x20_P0.8mm_Ball0.4mm_Pad0.4mm_NSMD" H 5050 2950 60  0001 C CNN
F 3 "" H 5050 2950 60  0000 C CNN
F 4 "220-2177" H 6100 2000 50  0001 C CNN "Digikey part"
F 5 "LFE5U-85F-8BG381I" H 6100 2000 50  0001 C CNN "part#"
	9    6100 2000
	1    0    0    -1  
$EndComp
$Comp
L Connector:Conn_Coaxial_Power J1
U 1 1 5E39C8F0
P 1400 3550
F 0 "J1" V 1183 3500 50  0000 C CNN
F 1 "5VDC" V 1274 3500 50  0000 C CNN
F 2 "Connector_BarrelJack:BarrelJack_CUI_PJ-063AH_Horizontal" H 1400 3500 50  0001 C CNN
F 3 "~" H 1400 3500 50  0001 C CNN
F 4 "CP-063AH" H 1400 3550 50  0001 C CNN "Digikey part"
F 5 "PJ-063AH" H 1400 3550 50  0001 C CNN "part#"
	1    1400 3550
	0    1    1    0   
$EndComp
$EndSCHEMATC
