EESchema Schematic File Version 4
EELAYER 30 0
EELAYER END
$Descr A4 11693 8268
encoding utf-8
Sheet 8 9
Title "FPC-III"
Date "2020-01-21"
Rev "1.0"
Comp "Gary Wong"
Comment1 "SRAM and SD card"
Comment2 ""
Comment3 ""
Comment4 ""
$EndDescr
$Comp
L fpc-iii:CY7C1041 U14
U 1 1 5E21642C
P 5900 5150
F 0 "U14" H 5500 6550 50  0000 C CNN
F 1 "CY7C1041" H 5900 5200 50  0000 C CNN
F 2 "Package_SO:TSOP-II-44_10.16x18.41mm_P0.8mm" H 5900 5450 50  0001 C CNN
F 3 "https://www.cypress.com/file/221596/download" H 5900 5450 50  0001 C CNN
F 4 "CY7C1041GE30-10ZSXI" H 5900 5150 50  0001 C CNN "Digikey part"
F 5 "CY7C1041GN30-10ZSXI" H 5900 5150 50  0001 C CNN "part#"
	1    5900 5150
	1    0    0    -1  
$EndComp
Wire Wire Line
	5850 6650 5900 6650
$Comp
L fpc-iii:GND #PWR0185
U 1 1 5E217136
P 5900 6650
F 0 "#PWR0185" H 5900 6400 50  0001 C CNN
F 1 "GND" H 5895 6477 50  0000 C CNN
F 2 "" H 5900 6650 50  0001 C CNN
F 3 "" H 5900 6650 50  0001 C CNN
	1    5900 6650
	1    0    0    -1  
$EndComp
Connection ~ 5900 6650
Wire Wire Line
	5900 6650 5950 6650
$Comp
L power:+3V3 #PWR0184
U 1 1 5E214127
P 5900 3250
F 0 "#PWR0184" H 5900 3100 50  0001 C CNN
F 1 "+3V3" H 5915 3423 50  0000 C CNN
F 2 "" H 5900 3250 50  0001 C CNN
F 3 "" H 5900 3250 50  0001 C CNN
	1    5900 3250
	1    0    0    -1  
$EndComp
$Comp
L Device:C_Small C98
U 1 1 5E21488C
P 6150 3350
F 0 "C98" H 6242 3396 50  0000 L CNN
F 1 "100n" H 6242 3305 50  0000 L CNN
F 2 "Capacitor_SMD:C_0402_1005Metric" H 6150 3350 50  0001 C CNN
F 3 "~" H 6150 3350 50  0001 C CNN
F 4 "*" H 6150 3350 50  0001 C CNN "Tolerance"
F 5 "1276-1004-1" H 6150 3350 50  0001 C CNN "Digikey part"
F 6 "CL05F104ZO5NNNC" H 6150 3350 50  0001 C CNN "part#"
	1    6150 3350
	1    0    0    -1  
$EndComp
$Comp
L fpc-iii:GND #PWR0186
U 1 1 5E214CFC
P 6150 3450
F 0 "#PWR0186" H 6150 3200 50  0001 C CNN
F 1 "GND" H 6145 3277 50  0000 C CNN
F 2 "" H 6150 3450 50  0001 C CNN
F 3 "" H 6150 3450 50  0001 C CNN
	1    6150 3450
	1    0    0    -1  
$EndComp
$Comp
L Device:C_Small C97
U 1 1 5E215FDE
P 5650 3350
F 0 "C97" H 5742 3396 50  0000 L CNN
F 1 "100n" H 5742 3305 50  0000 L CNN
F 2 "Capacitor_SMD:C_0402_1005Metric" H 5650 3350 50  0001 C CNN
F 3 "~" H 5650 3350 50  0001 C CNN
F 4 "*" H 5650 3350 50  0001 C CNN "Tolerance"
F 5 "1276-1004-1" H 5650 3350 50  0001 C CNN "Digikey part"
F 6 "CL05F104ZO5NNNC" H 5650 3350 50  0001 C CNN "part#"
	1    5650 3350
	1    0    0    -1  
$EndComp
$Comp
L fpc-iii:GND #PWR0183
U 1 1 5E215FE4
P 5650 3450
F 0 "#PWR0183" H 5650 3200 50  0001 C CNN
F 1 "GND" H 5645 3277 50  0000 C CNN
F 2 "" H 5650 3450 50  0001 C CNN
F 3 "" H 5650 3450 50  0001 C CNN
	1    5650 3450
	1    0    0    -1  
$EndComp
Wire Wire Line
	5650 3250 5900 3250
Connection ~ 5900 3250
Wire Wire Line
	5900 3250 6150 3250
Wire Wire Line
	5900 3250 5900 3650
Wire Wire Line
	5900 3650 5850 3650
Wire Wire Line
	5950 3650 5900 3650
Connection ~ 5900 3650
Wire Bus Line
	1350 7350 3350 7350
Connection ~ 3350 7350
Wire Bus Line
	3350 7350 5050 7350
Connection ~ 5050 7350
Wire Bus Line
	5050 7350 6750 7350
Entry Wire Line
	3250 3600 3350 3700
Entry Wire Line
	3250 3700 3350 3800
Entry Wire Line
	3250 3800 3350 3900
Entry Wire Line
	3250 3900 3350 4000
Entry Wire Line
	3250 4800 3350 4900
Entry Wire Line
	3250 5450 3350 5550
Entry Wire Line
	3250 5550 3350 5650
Entry Wire Line
	3250 5650 3350 5750
Entry Wire Line
	3250 5750 3350 5850
Entry Wire Line
	3250 5850 3350 5950
Entry Wire Line
	3250 5950 3350 6050
Entry Wire Line
	3250 6050 3350 6150
Entry Wire Line
	3250 6150 3350 6250
Entry Wire Line
	3250 6250 3350 6350
Entry Wire Line
	3250 6450 3350 6550
Entry Wire Line
	3250 6550 3350 6650
Entry Wire Line
	3250 6650 3350 6750
Entry Wire Line
	3250 6750 3350 6850
Entry Wire Line
	3250 6850 3350 6950
Entry Wire Line
	3250 6950 3350 7050
Entry Wire Line
	6650 3950 6750 4050
Entry Wire Line
	6650 4050 6750 4150
Entry Wire Line
	6650 4150 6750 4250
Entry Wire Line
	6650 4250 6750 4350
Entry Wire Line
	6650 4350 6750 4450
Entry Wire Line
	6650 4450 6750 4550
Entry Wire Line
	6650 4550 6750 4650
Entry Wire Line
	6650 4650 6750 4750
Entry Wire Line
	6650 4750 6750 4850
Entry Wire Line
	6650 4850 6750 4950
Entry Wire Line
	6650 4950 6750 5050
Entry Wire Line
	6650 5050 6750 5150
Entry Wire Line
	6650 5150 6750 5250
Entry Wire Line
	6650 5250 6750 5350
Entry Wire Line
	6650 5350 6750 5450
Entry Wire Line
	6650 5450 6750 5550
Entry Wire Line
	5050 4050 5150 3950
Entry Wire Line
	5050 4150 5150 4050
Entry Wire Line
	5050 4250 5150 4150
Entry Wire Line
	5050 4350 5150 4250
Entry Wire Line
	5050 4450 5150 4350
Entry Wire Line
	5050 4550 5150 4450
Entry Wire Line
	5050 4650 5150 4550
Entry Wire Line
	5050 4750 5150 4650
Entry Wire Line
	5050 4850 5150 4750
Entry Wire Line
	5050 4950 5150 4850
Entry Wire Line
	5050 5050 5150 4950
Entry Wire Line
	5050 5150 5150 5050
Entry Wire Line
	5050 5250 5150 5150
Entry Wire Line
	5050 5350 5150 5250
Entry Wire Line
	5050 5450 5150 5350
Entry Wire Line
	5050 5550 5150 5450
Entry Wire Line
	5050 5650 5150 5550
Entry Wire Line
	5050 5950 5150 5850
Entry Wire Line
	5050 5750 5150 5650
Entry Wire Line
	5050 6050 5150 5950
Entry Wire Line
	5050 6150 5150 6050
Entry Wire Line
	5050 6350 5150 6250
Entry Wire Line
	5050 6450 5150 6350
Entry Wire Line
	1350 3700 1450 3600
Entry Wire Line
	1350 3800 1450 3700
Entry Wire Line
	1350 4900 1450 4800
Entry Wire Line
	1350 5550 1450 5450
Entry Wire Line
	1350 5650 1450 5550
Entry Wire Line
	1350 5750 1450 5650
Entry Wire Line
	1350 5850 1450 5750
Entry Wire Line
	1350 6050 1450 5950
Entry Wire Line
	1350 6150 1450 6050
Entry Wire Line
	1350 6250 1450 6150
Entry Wire Line
	1350 6350 1450 6250
Entry Wire Line
	1350 6450 1450 6350
Entry Wire Line
	1350 6550 1450 6450
Entry Wire Line
	1350 6650 1450 6550
Entry Wire Line
	1350 6750 1450 6650
Entry Wire Line
	1350 6850 1450 6750
Entry Wire Line
	1350 6950 1450 6850
Entry Wire Line
	1350 7050 1450 6950
Entry Wire Line
	1350 7150 1450 7050
Wire Wire Line
	5150 3950 5300 3950
Wire Wire Line
	5300 4050 5150 4050
Wire Wire Line
	5150 4150 5300 4150
Wire Wire Line
	5300 4250 5150 4250
Wire Wire Line
	5150 4350 5300 4350
Wire Wire Line
	5300 4450 5150 4450
Wire Wire Line
	5150 4550 5300 4550
Wire Wire Line
	5150 4650 5300 4650
Wire Wire Line
	5150 4750 5300 4750
Wire Wire Line
	5150 4850 5300 4850
Wire Wire Line
	5300 4950 5150 4950
Wire Wire Line
	5150 5050 5300 5050
Wire Wire Line
	5300 5150 5150 5150
Wire Wire Line
	5150 5250 5300 5250
Wire Wire Line
	5300 5350 5150 5350
Wire Wire Line
	5150 5450 5300 5450
Wire Wire Line
	5300 5550 5150 5550
Wire Wire Line
	5150 5650 5300 5650
Wire Wire Line
	5300 5850 5150 5850
Wire Wire Line
	5150 5950 5300 5950
Wire Wire Line
	5300 6050 5150 6050
Wire Wire Line
	5150 6250 5300 6250
Wire Wire Line
	5300 6350 5150 6350
Wire Wire Line
	6500 5450 6650 5450
Wire Wire Line
	6650 5350 6500 5350
Wire Wire Line
	6500 5250 6650 5250
Wire Wire Line
	6650 5150 6500 5150
Wire Wire Line
	6500 5050 6650 5050
Wire Wire Line
	6650 4950 6500 4950
Wire Wire Line
	6500 4850 6650 4850
Wire Wire Line
	6650 4750 6500 4750
Wire Wire Line
	6500 4650 6650 4650
Wire Wire Line
	6650 4550 6500 4550
Wire Wire Line
	6500 4450 6650 4450
Wire Wire Line
	6650 4350 6500 4350
Wire Wire Line
	6500 4250 6650 4250
Wire Wire Line
	6650 4150 6500 4150
Wire Wire Line
	6500 4050 6650 4050
Wire Wire Line
	6650 3950 6500 3950
Text Label 6500 3950 0    50   ~ 0
D0
Text Label 6500 4050 0    50   ~ 0
D1
Text Label 6500 4150 0    50   ~ 0
D2
Text Label 6500 4250 0    50   ~ 0
D3
Text Label 6500 4350 0    50   ~ 0
D4
Text Label 6500 4450 0    50   ~ 0
D5
Text Label 6500 4550 0    50   ~ 0
D6
Text Label 6500 4650 0    50   ~ 0
D7
Text Label 6500 4750 0    50   ~ 0
D8
Text Label 6500 4850 0    50   ~ 0
D9
Text Label 6500 4950 0    50   ~ 0
D10
Text Label 6500 5050 0    50   ~ 0
D11
Text Label 6500 5150 0    50   ~ 0
D12
Text Label 6500 5250 0    50   ~ 0
D13
Text Label 6500 5350 0    50   ~ 0
D14
Text Label 6500 5450 0    50   ~ 0
D15
Text Label 5300 3950 2    50   ~ 0
A0
Text Label 5300 4050 2    50   ~ 0
A1
Text Label 5300 4150 2    50   ~ 0
A2
Text Label 5300 4250 2    50   ~ 0
A3
Text Label 5300 4350 2    50   ~ 0
A4
Text Label 5300 4450 2    50   ~ 0
A5
Text Label 5300 4550 2    50   ~ 0
A6
Text Label 5300 4650 2    50   ~ 0
A7
Text Label 5300 4750 2    50   ~ 0
A8
Text Label 5300 4850 2    50   ~ 0
A9
Text Label 5300 4950 2    50   ~ 0
A10
Text Label 5300 5050 2    50   ~ 0
A11
Text Label 5300 5150 2    50   ~ 0
A12
Text Label 5300 5250 2    50   ~ 0
A13
Text Label 5300 5350 2    50   ~ 0
A14
Text Label 5300 5450 2    50   ~ 0
A15
Text Label 5300 5550 2    50   ~ 0
A16
Text Label 5300 5650 2    50   ~ 0
A17
Text Label 5300 5850 2    50   ~ 0
~CE
Text Label 5300 5950 2    50   ~ 0
~OE
Text Label 5300 6050 2    50   ~ 0
~WE
Text Label 5300 6250 2    50   ~ 0
~BLE
Text Label 5300 6350 2    50   ~ 0
~BHE
Text Label 3100 5450 0    50   ~ 0
A9
Text Label 3100 5550 0    50   ~ 0
A8
Text Label 1600 5450 2    50   ~ 0
A7
Text Label 3100 5650 0    50   ~ 0
A6
Text Label 1600 5550 2    50   ~ 0
A5
Text Label 1600 5750 2    50   ~ 0
~WE
Text Label 3100 5950 0    50   ~ 0
D6
Text Label 1600 5950 2    50   ~ 0
D5
Text Label 1600 5650 2    50   ~ 0
D7
Text Label 1600 6150 2    50   ~ 0
D4
Text Label 1600 7050 2    50   ~ 0
D3
Text Label 1600 6350 2    50   ~ 0
D2
Text Label 1600 6550 2    50   ~ 0
D1
Text Label 3100 6650 0    50   ~ 0
D0
Text Label 1600 6850 2    50   ~ 0
~CE
Text Label 1600 3600 2    50   ~ 0
A3
Text Label 1600 6650 2    50   ~ 0
A4
Text Label 3100 3700 0    50   ~ 0
A2
Text Label 3100 3800 0    50   ~ 0
A1
Text Label 1600 3700 2    50   ~ 0
A0
Text Label 3100 5850 0    50   ~ 0
A10
Text Label 3100 5750 0    50   ~ 0
A11
Text Label 3100 6050 0    50   ~ 0
A12
Text Label 3100 6150 0    50   ~ 0
A13
Text Label 1600 6050 2    50   ~ 0
A14
Text Label 3100 6250 0    50   ~ 0
D8
Text Label 1600 6250 2    50   ~ 0
D9
Text Label 3100 6450 0    50   ~ 0
D10
Text Label 3100 6550 0    50   ~ 0
D11
Text Label 1600 6450 2    50   ~ 0
D12
Text Label 1600 6750 2    50   ~ 0
D14
Text Label 1600 6950 2    50   ~ 0
D15
Text Label 3100 6750 0    50   ~ 0
~BLE
Text Label 3100 6850 0    50   ~ 0
D13
Text Label 3100 6950 0    50   ~ 0
~OE
Text Label 3100 3900 0    50   ~ 0
A15
Text Label 3100 4800 0    50   ~ 0
A17
Text Label 1600 4800 2    50   ~ 0
A16
Text Label 3100 3600 0    50   ~ 0
~BHE
Wire Wire Line
	1450 3600 1600 3600
Wire Wire Line
	1600 3700 1450 3700
Wire Wire Line
	3100 3600 3250 3600
Wire Wire Line
	3250 3700 3100 3700
Wire Wire Line
	3100 3800 3250 3800
Wire Wire Line
	3250 3900 3100 3900
Wire Wire Line
	3100 4800 3250 4800
Wire Wire Line
	1450 4800 1600 4800
NoConn ~ 3100 6350
NoConn ~ 1600 5850
Wire Wire Line
	3100 5450 3250 5450
Wire Wire Line
	3250 5550 3100 5550
Wire Wire Line
	3100 5650 3250 5650
Wire Wire Line
	3250 5750 3100 5750
Wire Wire Line
	3100 5850 3250 5850
Wire Wire Line
	3250 5950 3100 5950
Wire Wire Line
	3100 6050 3250 6050
Wire Wire Line
	3250 6150 3100 6150
Wire Wire Line
	3100 6250 3250 6250
Wire Wire Line
	3250 6450 3100 6450
Wire Wire Line
	3100 6550 3250 6550
Wire Wire Line
	3250 6650 3100 6650
Wire Wire Line
	3100 6750 3250 6750
Wire Wire Line
	3250 6850 3100 6850
Wire Wire Line
	3100 6950 3250 6950
Wire Wire Line
	1450 7050 1600 7050
Wire Wire Line
	1600 6950 1450 6950
Wire Wire Line
	1450 6850 1600 6850
Wire Wire Line
	1600 6750 1450 6750
Wire Wire Line
	1450 6650 1600 6650
Wire Wire Line
	1600 6550 1450 6550
Wire Wire Line
	1450 6450 1600 6450
Wire Wire Line
	1600 6350 1450 6350
Wire Wire Line
	1450 6250 1600 6250
Wire Wire Line
	1600 6150 1450 6150
Wire Wire Line
	1450 6050 1600 6050
Wire Wire Line
	1600 5950 1450 5950
Wire Wire Line
	1450 5750 1600 5750
Wire Wire Line
	1600 5650 1450 5650
Wire Wire Line
	1450 5550 1600 5550
Wire Wire Line
	1600 5450 1450 5450
Text GLabel 1150 4700 0    50   BiDi ~ 0
HOST1.D-
Text GLabel 3600 4700 2    50   BiDi ~ 0
HOST1.D+
Wire Wire Line
	3100 4700 3600 4700
Wire Wire Line
	1600 4700 1150 4700
NoConn ~ 1600 4900
NoConn ~ 1600 4600
Text GLabel 3600 4300 2    50   Output ~ 0
HOST0.RESET
Text GLabel 3600 4400 2    50   Input ~ 0
HOST0.NXT
Text GLabel 1150 4100 0    50   Input ~ 0
HOST0.DIR
Text GLabel 3600 4500 2    50   Output ~ 0
HOST0.STP
Text GLabel 1150 4400 0    50   Input ~ 0
HOST0.CLK
Wire Wire Line
	1150 4400 1600 4400
Wire Wire Line
	3100 4500 3600 4500
Wire Wire Line
	3100 4400 3600 4400
Wire Wire Line
	3600 4300 3100 4300
$Comp
L lfe5u-85:LFE5U-85F-6BG381C U?
U 1 1 5E384B1A
P 2350 4300
AR Path="/5E384B1A" Ref="U?"  Part="1" 
AR Path="/5E215A8D/5E384B1A" Ref="U1"  Part="1" 
F 0 "U1" H 2350 5287 60  0000 C CNN
F 1 "LFE5U-85F-6BG381C" H 2350 5181 60  0000 C CNN
F 2 "Package_BGA:Lattice_caBGA-381_17.0x17.0mm_Layout20x20_P0.8mm_Ball0.4mm_Pad0.4mm_NSMD" H 1300 5250 60  0001 C CNN
F 3 "" H 1300 5250 60  0001 C CNN
F 4 "220-2177" H 2350 4300 50  0001 C CNN "Digikey part"
F 5 "LFE5U-85F-8BG381I" H 2350 4300 50  0001 C CNN "part#"
	1    2350 4300
	1    0    0    -1  
$EndComp
$Comp
L lfe5u-85:LFE5U-85F-6BG381C U?
U 2 1 5E38A735
P 2350 6150
AR Path="/5E38A735" Ref="U?"  Part="2" 
AR Path="/5E215A8D/5E38A735" Ref="U1"  Part="2" 
F 0 "U1" H 2350 7137 60  0000 C CNN
F 1 "LFE5U-85F-6BG381C" H 2350 7031 60  0000 C CNN
F 2 "Package_BGA:Lattice_caBGA-381_17.0x17.0mm_Layout20x20_P0.8mm_Ball0.4mm_Pad0.4mm_NSMD" H 1300 7100 60  0001 C CNN
F 3 "" H 1300 7100 60  0001 C CNN
F 4 "220-2177" H 2350 6150 50  0001 C CNN "Digikey part"
F 5 "LFE5U-85F-8BG381I" H 2350 6150 50  0001 C CNN "part#"
	2    2350 6150
	1    0    0    -1  
$EndComp
NoConn ~ 1600 4300
NoConn ~ 1600 4500
$Comp
L power:+3V3 #PWR0182
U 1 1 5E487E9E
P 4300 3900
F 0 "#PWR0182" H 4300 3750 50  0001 C CNN
F 1 "+3V3" H 4315 4073 50  0000 C CNN
F 2 "" H 4300 3900 50  0001 C CNN
F 3 "" H 4300 3900 50  0001 C CNN
	1    4300 3900
	1    0    0    -1  
$EndComp
$Comp
L Device:R_Small_US R77
U 1 1 5E4889B0
P 4300 4100
F 0 "R77" H 4368 4146 50  0000 L CNN
F 1 "150" H 4368 4055 50  0000 L CNN
F 2 "Resistor_SMD:R_0402_1005Metric" H 4300 4100 50  0001 C CNN
F 3 "~" H 4300 4100 50  0001 C CNN
F 4 "RMCF0402JT150RCT" H 4300 4100 50  0001 C CNN "Digikey part"
F 5 "RMCF0402JT150R" H 4300 4100 50  0001 C CNN "part#"
	1    4300 4100
	1    0    0    -1  
$EndComp
$Comp
L Device:LED_Small D11
U 1 1 5E49038D
P 4300 4400
F 0 "D11" V 4300 4332 50  0000 R CNN
F 1 "LED_Small" V 4255 4332 50  0001 R CNN
F 2 "LED_SMD:LED_0603_1608Metric" V 4300 4400 50  0001 C CNN
F 3 "~" V 4300 4400 50  0001 C CNN
F 4 "150060RS75000" H 4300 4400 50  0001 C CNN "part#"
F 5 "732-4978-1" H 4300 4400 50  0001 C CNN "Digikey part"
	1    4300 4400
	0    -1   -1   0   
$EndComp
Wire Wire Line
	4300 3900 4300 4000
Wire Wire Line
	4300 4200 4300 4300
Wire Wire Line
	4300 4500 4300 4600
Wire Wire Line
	4300 4600 3100 4600
$Comp
L Connector:Micro_SD_Card_Det J?
U 1 1 5E3B7CDE
P 3400 1950
AR Path="/5E11FD2E/5E3B7CDE" Ref="J?"  Part="1" 
AR Path="/5E215A8D/5E3B7CDE" Ref="J6"  Part="1" 
F 0 "J6" H 3350 2767 50  0000 C CNN
F 1 "Micro_SD_Card_Det" H 3350 2676 50  0000 C CNN
F 2 "Connector_Card:microSD_HC_Hirose_DM3D-SF" H 5450 2650 50  0001 C CNN
F 3 "https://www.hirose.com/product/en/download_file/key_name/DM3/category/Catalog/doc_file_id/49662/?file_category_id=4&item_id=195&is_series=1" H 3400 2050 50  0001 C CNN
F 4 "HR1941CT" H 3400 1950 50  0001 C CNN "Digikey part"
F 5 "DM3D-SF" H 3400 1950 50  0001 C CNN "part#"
	1    3400 1950
	1    0    0    -1  
$EndComp
$Comp
L fpc-iii:GND #PWR?
U 1 1 5E3B7CE4
P 4300 2550
AR Path="/5E11FD2E/5E3B7CE4" Ref="#PWR?"  Part="1" 
AR Path="/5E215A8D/5E3B7CE4" Ref="#PWR0181"  Part="1" 
F 0 "#PWR0181" H 4300 2300 50  0001 C CNN
F 1 "GND" H 4295 2377 50  0000 C CNN
F 2 "" H 4300 2550 50  0001 C CNN
F 3 "" H 4300 2550 50  0001 C CNN
	1    4300 2550
	1    0    0    -1  
$EndComp
$Comp
L fpc-iii:GND #PWR?
U 1 1 5E3B7CEA
P 2000 2100
AR Path="/5E11FD2E/5E3B7CEA" Ref="#PWR?"  Part="1" 
AR Path="/5E215A8D/5E3B7CEA" Ref="#PWR0179"  Part="1" 
F 0 "#PWR0179" H 2000 1850 50  0001 C CNN
F 1 "GND" H 1995 1927 50  0000 C CNN
F 2 "" H 2000 2100 50  0001 C CNN
F 3 "" H 2000 2100 50  0001 C CNN
	1    2000 2100
	1    0    0    -1  
$EndComp
Wire Wire Line
	4200 2450 4300 2450
Wire Wire Line
	4300 2450 4300 2550
$Comp
L power:+3V3 #PWR?
U 1 1 5E3B7CF2
P 2000 1450
AR Path="/5E11FD2E/5E3B7CF2" Ref="#PWR?"  Part="1" 
AR Path="/5E215A8D/5E3B7CF2" Ref="#PWR0178"  Part="1" 
F 0 "#PWR0178" H 2000 1300 50  0001 C CNN
F 1 "+3V3" H 2015 1623 50  0000 C CNN
F 2 "" H 2000 1450 50  0001 C CNN
F 3 "" H 2000 1450 50  0001 C CNN
	1    2000 1450
	1    0    0    -1  
$EndComp
Wire Wire Line
	2000 1450 2000 1850
$Comp
L Device:C_Small C?
U 1 1 5E3B7CFB
P 2000 1950
AR Path="/5E11FD2E/5E3B7CFB" Ref="C?"  Part="1" 
AR Path="/5E215A8D/5E3B7CFB" Ref="C96"  Part="1" 
F 0 "C96" H 1800 2000 50  0000 L CNN
F 1 "100n" H 1700 1900 50  0000 L CNN
F 2 "Capacitor_SMD:C_0402_1005Metric" H 2000 1950 50  0001 C CNN
F 3 "~" H 2000 1950 50  0001 C CNN
F 4 "*" H 2000 1950 50  0001 C CNN "Tolerance"
F 5 "1276-1004-1" H 2000 1950 50  0001 C CNN "Digikey part"
F 6 "CL05F104ZO5NNNC" H 2000 1950 50  0001 C CNN "part#"
	1    2000 1950
	1    0    0    -1  
$EndComp
Connection ~ 2000 1850
Connection ~ 2000 2050
$Comp
L Device:C_Small C?
U 1 1 5E3B7D04
P 1600 1950
AR Path="/5E11FD2E/5E3B7D04" Ref="C?"  Part="1" 
AR Path="/5E215A8D/5E3B7D04" Ref="C95"  Part="1" 
F 0 "C95" H 1400 2000 50  0000 L CNN
F 1 "10u" H 1350 1900 50  0000 L CNN
F 2 "Capacitor_SMD:C_0805_2012Metric" H 1600 1950 50  0001 C CNN
F 3 "~" H 1600 1950 50  0001 C CNN
F 4 "1276-6455-1" H 1600 1950 50  0001 C CNN "Digikey part"
F 5 "CL21A106KOQNNNG" H 1600 1950 50  0001 C CNN "part#"
	1    1600 1950
	1    0    0    -1  
$EndComp
Wire Wire Line
	1600 1850 2000 1850
Wire Wire Line
	2000 2050 1600 2050
$Comp
L fpc-iii:GND #PWR?
U 1 1 5E3B7D13
P 2400 2550
AR Path="/5E11FD2E/5E3B7D13" Ref="#PWR?"  Part="1" 
AR Path="/5E215A8D/5E3B7D13" Ref="#PWR0180"  Part="1" 
F 0 "#PWR0180" H 2400 2300 50  0001 C CNN
F 1 "GND" H 2395 2377 50  0000 C CNN
F 2 "" H 2400 2550 50  0001 C CNN
F 3 "" H 2400 2550 50  0001 C CNN
	1    2400 2550
	1    0    0    -1  
$EndComp
Wire Wire Line
	2500 2450 2400 2450
Wire Wire Line
	2400 2450 2400 2550
$Comp
L Device:R_Small_US R?
U 1 1 5E3B7D1B
P 1150 2200
AR Path="/5E11FD2E/5E3B7D1B" Ref="R?"  Part="1" 
AR Path="/5E215A8D/5E3B7D1B" Ref="R76"  Part="1" 
F 0 "R76" H 1218 2246 50  0000 L CNN
F 1 "10K" H 1218 2155 50  0000 L CNN
F 2 "Resistor_SMD:R_0402_1005Metric" H 1150 2200 50  0001 C CNN
F 3 "~" H 1150 2200 50  0001 C CNN
F 4 "RMCF0402JT10K0CT" H 1150 2200 50  0001 C CNN "Digikey part"
F 5 "RMCF0402JT10K0" H 1150 2200 50  0001 C CNN "part#"
	1    1150 2200
	1    0    0    -1  
$EndComp
$Comp
L power:+3V3 #PWR?
U 1 1 5E3B7D22
P 1150 2100
AR Path="/5E11FD2E/5E3B7D22" Ref="#PWR?"  Part="1" 
AR Path="/5E215A8D/5E3B7D22" Ref="#PWR0177"  Part="1" 
F 0 "#PWR0177" H 1150 1950 50  0001 C CNN
F 1 "+3V3" H 1000 2150 50  0000 C CNN
F 2 "" H 1150 2100 50  0001 C CNN
F 3 "" H 1150 2100 50  0001 C CNN
	1    1150 2100
	1    0    0    -1  
$EndComp
Wire Wire Line
	1150 2300 1150 2350
Wire Wire Line
	2000 2100 2000 2050
Text Label 2500 1550 2    50   ~ 0
DAT2
Text Label 2500 1650 2    50   ~ 0
DAT3
Text Label 2500 1750 2    50   ~ 0
CMD
Text Label 2500 1950 2    50   ~ 0
CLK
Text Label 2500 2150 2    50   ~ 0
DAT0
Text Label 2500 2250 2    50   ~ 0
DAT1
Text Label 2500 2350 2    50   ~ 0
DET
Entry Wire Line
	2150 1650 2250 1550
Entry Wire Line
	2150 1750 2250 1650
Entry Wire Line
	2150 2250 2250 2150
Entry Wire Line
	2150 2450 2250 2350
Wire Wire Line
	2250 1550 2500 1550
Wire Wire Line
	2500 1650 2250 1650
Wire Wire Line
	2250 1750 2500 1750
Wire Wire Line
	2500 1950 2250 1950
Wire Wire Line
	2250 2150 2500 2150
Wire Wire Line
	2250 2250 2500 2250
Entry Wire Line
	2150 1850 2250 1750
Entry Wire Line
	2150 2050 2250 1950
Entry Wire Line
	2150 2350 2250 2250
Wire Bus Line
	2150 3150 1200 3150
Wire Bus Line
	2150 3150 3500 3150
Connection ~ 2150 3150
Text Label 1600 3800 2    50   ~ 0
CLK
Text Label 1600 3900 2    50   ~ 0
DAT1
Text Label 1600 4000 2    50   ~ 0
DAT0
Text Label 1600 4200 2    50   ~ 0
DAT2
Text Label 3100 4000 0    50   ~ 0
CMD
Text Label 3100 4100 0    50   ~ 0
DET
Text Label 3100 4200 0    50   ~ 0
DAT3
Entry Wire Line
	1200 3700 1300 3800
Entry Wire Line
	1200 3800 1300 3900
Entry Wire Line
	1200 3900 1300 4000
Entry Wire Line
	1200 4100 1300 4200
Wire Wire Line
	1600 3900 1300 3900
Wire Wire Line
	1300 4000 1600 4000
Wire Wire Line
	1600 4200 1300 4200
Entry Wire Line
	3400 4000 3500 3900
Entry Wire Line
	3400 4100 3500 4000
Entry Wire Line
	3400 4200 3500 4100
Wire Wire Line
	3400 4100 3100 4100
Wire Wire Line
	3100 4200 3400 4200
Wire Wire Line
	1150 4100 1600 4100
Wire Wire Line
	2000 2050 2500 2050
Wire Wire Line
	2000 1850 2500 1850
Wire Wire Line
	1300 3800 1600 3800
Wire Wire Line
	3100 4000 3400 4000
Wire Bus Line
	3500 3150 3500 4100
Wire Wire Line
	1150 2350 2500 2350
Wire Bus Line
	1200 3150 1200 4100
Wire Bus Line
	2150 1650 2150 3150
Wire Bus Line
	5050 4050 5050 7350
Wire Bus Line
	6750 4050 6750 7350
Wire Bus Line
	3350 3700 3350 7350
Wire Bus Line
	1350 3700 1350 7350
$EndSCHEMATC
