EESchema Schematic File Version 4
EELAYER 30 0
EELAYER END
$Descr A4 11693 8268
encoding utf-8
Sheet 7 9
Title "FPC-III"
Date "2020-01-21"
Rev "1.0"
Comp "Gary Wong"
Comment1 "USB"
Comment2 ""
Comment3 ""
Comment4 ""
$EndDescr
$Comp
L Connector:USB_A J?
U 1 1 5E2D9365
P 2650 6400
AR Path="/5E11FD2E/5E2D9365" Ref="J?"  Part="1" 
AR Path="/5E2D6BE4/5E2D9365" Ref="J4"  Part="1" 
F 0 "J4" H 2707 6867 50  0000 C CNN
F 1 "USB_A" H 2707 6776 50  0000 C CNN
F 2 "Connector_USB:USB_A_Stewart_SS-52100-001_Horizontal" H 2800 6350 50  0001 C CNN
F 3 " ~" H 2800 6350 50  0001 C CNN
F 4 "ED2989" H 2650 6400 50  0001 C CNN "Digikey part"
F 5 "USB-A1HSW6" H 2650 6400 50  0001 C CNN "part#"
	1    2650 6400
	1    0    0    -1  
$EndComp
$Comp
L fpc-iii:GND #PWR0136
U 1 1 5E2D9372
P 2600 6900
F 0 "#PWR0136" H 2600 6650 50  0001 C CNN
F 1 "GND" H 2595 6727 50  0000 C CNN
F 2 "" H 2600 6900 50  0001 C CNN
F 3 "" H 2600 6900 50  0001 C CNN
	1    2600 6900
	1    0    0    -1  
$EndComp
Wire Wire Line
	2950 6200 3050 6200
Wire Wire Line
	2550 6800 2600 6800
Wire Wire Line
	2600 6900 2600 6800
Connection ~ 2600 6800
Wire Wire Line
	2600 6800 2650 6800
$Comp
L fpc-iii:USB_B J?
U 1 1 5E2D9395
P 5600 3000
AR Path="/5E11FD2E/5E2D9395" Ref="J?"  Part="1" 
AR Path="/5E2D6BE4/5E2D9395" Ref="J9"  Part="1" 
F 0 "J9" H 5657 3467 50  0000 C CNN
F 1 "USB_B" H 5657 3376 50  0000 C CNN
F 2 "Connector_USB:USB_B_OST_USB-B1HSxx_Horizontal" H 5750 2950 50  0001 C CNN
F 3 "~" H 5750 2950 50  0001 C CNN
F 4 "ED2983" H 5600 3000 50  0001 C CNN "Digikey part"
F 5 "USB-B1HSB6" H 5600 3000 50  0001 C CNN "part#"
	1    5600 3000
	1    0    0    -1  
$EndComp
Wire Wire Line
	5500 3400 5550 3400
$Comp
L fpc-iii:GND #PWR0152
U 1 1 5E2D93A3
P 5550 3500
F 0 "#PWR0152" H 5550 3250 50  0001 C CNN
F 1 "GND" H 5545 3327 50  0000 C CNN
F 2 "" H 5550 3500 50  0001 C CNN
F 3 "" H 5550 3500 50  0001 C CNN
	1    5550 3500
	1    0    0    -1  
$EndComp
$Comp
L fpc-iii:GND #PWR0142
U 1 1 5E2D93A9
P 4200 7400
F 0 "#PWR0142" H 4200 7150 50  0001 C CNN
F 1 "GND" H 4195 7227 50  0000 C CNN
F 2 "" H 4200 7400 50  0001 C CNN
F 3 "" H 4200 7400 50  0001 C CNN
	1    4200 7400
	1    0    0    -1  
$EndComp
Wire Wire Line
	5550 3400 5550 3500
Connection ~ 5550 3400
Wire Wire Line
	5550 3400 5600 3400
Wire Wire Line
	4150 7300 4200 7300
Wire Wire Line
	4200 7300 4200 7400
Connection ~ 4200 7300
Wire Wire Line
	4200 7300 4250 7300
$Comp
L Interface_USB:FT2232H U?
U 1 1 5E2D93B6
P 7700 4000
AR Path="/5E11FD2E/5E2D93B6" Ref="U?"  Part="1" 
AR Path="/5E2D6BE4/5E2D93B6" Ref="U13"  Part="1" 
F 0 "U13" H 6700 6100 50  0000 C CNN
F 1 "FT2232H" H 7700 4000 50  0000 C CNN
F 2 "Package_QFP:LQFP-64_10x10mm_P0.5mm" H 7700 4000 50  0001 C CNN
F 3 "https://www.ftdichip.com/Support/Documents/DataSheets/ICs/DS_FT2232H.pdf" H 7700 4000 50  0001 C CNN
F 4 "768-1024-1" H 7700 4000 50  0001 C CNN "Digikey part"
F 5 "FT2232HL" H 7700 4000 50  0001 C CNN "part#"
	1    7700 4000
	1    0    0    -1  
$EndComp
Wire Wire Line
	7100 6200 7300 6200
Connection ~ 7300 6200
Wire Wire Line
	7300 6200 7400 6200
Connection ~ 7400 6200
Wire Wire Line
	7400 6200 7500 6200
Connection ~ 7500 6200
Wire Wire Line
	7500 6200 7550 6200
Connection ~ 7600 6200
Wire Wire Line
	7600 6200 7700 6200
Connection ~ 7700 6200
Wire Wire Line
	7700 6200 7800 6200
Connection ~ 7800 6200
Wire Wire Line
	7800 6200 7900 6200
Connection ~ 7900 6200
Wire Wire Line
	7900 6200 8000 6200
$Comp
L fpc-iii:GND #PWR0165
U 1 1 5E2DA8FB
P 7550 6300
F 0 "#PWR0165" H 7550 6050 50  0001 C CNN
F 1 "GND" H 7545 6127 50  0000 C CNN
F 2 "" H 7550 6300 50  0001 C CNN
F 3 "" H 7550 6300 50  0001 C CNN
	1    7550 6300
	1    0    0    -1  
$EndComp
Wire Wire Line
	7550 6300 7550 6200
Connection ~ 7550 6200
Wire Wire Line
	7550 6200 7600 6200
Wire Wire Line
	6400 3200 6500 3200
$Comp
L fpc-iii:TPS2051C U10
U 1 1 5E168E32
P 2550 5000
F 0 "U10" H 2550 5467 50  0000 C CNN
F 1 "TPS2051C" H 2550 5376 50  0000 C CNN
F 2 "Package_TO_SOT_SMD:SOT-23-5" H 2550 5500 50  0001 C CNN
F 3 "http://www.ti.com/lit/ds/symlink/tps2041.pdf" H 2500 5300 50  0001 C CNN
F 4 "296-29537-1" H 2550 5000 50  0001 C CNN "Digikey part"
F 5 "TPS2051CDBVR" H 2550 5000 50  0001 C CNN "part#"
	1    2550 5000
	1    0    0    -1  
$EndComp
$Comp
L fpc-iii:GND #PWR0135
U 1 1 5E169B3A
P 2550 5600
F 0 "#PWR0135" H 2550 5350 50  0001 C CNN
F 1 "GND" H 2545 5427 50  0000 C CNN
F 2 "" H 2550 5600 50  0001 C CNN
F 3 "" H 2550 5600 50  0001 C CNN
	1    2550 5600
	1    0    0    -1  
$EndComp
Wire Wire Line
	3050 5000 3050 6200
$Comp
L Device:C_Small C74
U 1 1 5E16A67C
P 3300 4900
F 0 "C74" H 3392 4946 50  0000 L CNN
F 1 "100n" H 3392 4855 50  0000 L CNN
F 2 "Capacitor_SMD:C_0402_1005Metric" H 3300 4900 50  0001 C CNN
F 3 "~" H 3300 4900 50  0001 C CNN
F 4 "1276-1004-1" H 3300 4900 50  0001 C CNN "Digikey part"
F 5 "*" H 3300 4900 50  0001 C CNN "Tolerance"
F 6 "CL05F104ZO5NNNC" H 3300 4900 50  0001 C CNN "part#"
	1    3300 4900
	1    0    0    -1  
$EndComp
Wire Wire Line
	3050 4800 3300 4800
$Comp
L fpc-iii:GND #PWR0140
U 1 1 5E16B9AC
P 3300 5000
F 0 "#PWR0140" H 3300 4750 50  0001 C CNN
F 1 "GND" H 3295 4827 50  0000 C CNN
F 2 "" H 3300 5000 50  0001 C CNN
F 3 "" H 3300 5000 50  0001 C CNN
	1    3300 5000
	1    0    0    -1  
$EndComp
Wire Wire Line
	2300 3000 1950 3000
Wire Wire Line
	1950 3000 1950 5200
Wire Wire Line
	2300 2300 850  2300
Wire Wire Line
	850  2300 850  7550
Wire Wire Line
	850  7550 3150 7550
Wire Wire Line
	3150 6400 2950 6400
Wire Wire Line
	2950 6500 3050 6500
Wire Wire Line
	3050 6500 3050 7450
Wire Wire Line
	950  7450 950  2200
Wire Wire Line
	950  2200 2300 2200
$Comp
L fpc-iii:GND #PWR0138
U 1 1 5E175269
P 3100 4000
F 0 "#PWR0138" H 3100 3750 50  0001 C CNN
F 1 "GND" H 3095 3827 50  0000 C CNN
F 2 "" H 3100 4000 50  0001 C CNN
F 3 "" H 3100 4000 50  0001 C CNN
	1    3100 4000
	1    0    0    -1  
$EndComp
$Comp
L fpc-iii:GND #PWR0133
U 1 1 5E175888
P 2300 2400
F 0 "#PWR0133" H 2300 2150 50  0001 C CNN
F 1 "GND" H 2150 2300 50  0000 C CNN
F 2 "" H 2300 2400 50  0001 C CNN
F 3 "" H 2300 2400 50  0001 C CNN
	1    2300 2400
	1    0    0    -1  
$EndComp
$Comp
L power:+5V #PWR0139
U 1 1 5E176F28
P 3300 4700
F 0 "#PWR0139" H 3300 4550 50  0001 C CNN
F 1 "+5V" H 3315 4873 50  0000 C CNN
F 2 "" H 3300 4700 50  0001 C CNN
F 3 "" H 3300 4700 50  0001 C CNN
	1    3300 4700
	1    0    0    -1  
$EndComp
Wire Wire Line
	3300 4700 3300 4800
Connection ~ 3300 4800
$Comp
L power:+3V3 #PWR0137
U 1 1 5E17853F
P 3050 1200
F 0 "#PWR0137" H 3050 1050 50  0001 C CNN
F 1 "+3V3" H 3065 1373 50  0000 C CNN
F 2 "" H 3050 1200 50  0001 C CNN
F 3 "" H 3050 1200 50  0001 C CNN
	1    3050 1200
	1    0    0    -1  
$EndComp
$Comp
L fpc-iii:GND #PWR0143
U 1 1 5E17A471
P 4500 1650
F 0 "#PWR0143" H 4500 1400 50  0001 C CNN
F 1 "GND" H 4495 1477 50  0000 C CNN
F 2 "" H 4500 1650 50  0001 C CNN
F 3 "" H 4500 1650 50  0001 C CNN
	1    4500 1650
	1    0    0    -1  
$EndComp
$Comp
L Device:C_Small C76
U 1 1 5E17DD94
P 3600 1450
F 0 "C76" H 3692 1496 50  0000 L CNN
F 1 "100n" H 3692 1405 50  0000 L CNN
F 2 "Capacitor_SMD:C_0402_1005Metric" H 3600 1450 50  0001 C CNN
F 3 "~" H 3600 1450 50  0001 C CNN
F 4 "1276-1004-1" H 3600 1450 50  0001 C CNN "Digikey part"
F 5 "*" H 3600 1450 50  0001 C CNN "Tolerance"
F 6 "CL05F104ZO5NNNC" H 3600 1450 50  0001 C CNN "part#"
	1    3600 1450
	1    0    0    -1  
$EndComp
$Comp
L Device:C_Small C73
U 1 1 5E17E2ED
P 3150 1450
F 0 "C73" H 3250 1500 50  0000 L CNN
F 1 "100n" H 3250 1400 50  0000 L CNN
F 2 "Capacitor_SMD:C_0402_1005Metric" H 3150 1450 50  0001 C CNN
F 3 "~" H 3150 1450 50  0001 C CNN
F 4 "1276-1004-1" H 3150 1450 50  0001 C CNN "Digikey part"
F 5 "*" H 3150 1450 50  0001 C CNN "Tolerance"
F 6 "CL05F104ZO5NNNC" H 3150 1450 50  0001 C CNN "part#"
	1    3150 1450
	1    0    0    -1  
$EndComp
$Comp
L Device:C_Small C79
U 1 1 5E180F58
P 4650 2300
F 0 "C79" H 4742 2346 50  0000 L CNN
F 1 "1u" H 4742 2255 50  0000 L CNN
F 2 "Capacitor_SMD:C_0402_1005Metric" H 4650 2300 50  0001 C CNN
F 3 "~" H 4650 2300 50  0001 C CNN
F 4 "1276-1235-1" H 4650 2300 50  0001 C CNN "Digikey part"
F 5 "*" H 4650 2300 50  0001 C CNN "Tolerance"
F 6 "CL05A105MQ5NNNC" H 4650 2300 50  0001 C CNN "part#"
	1    4650 2300
	1    0    0    -1  
$EndComp
$Comp
L Device:C_Small C83
U 1 1 5E1814B0
P 5050 2200
F 0 "C83" H 5142 2246 50  0000 L CNN
F 1 "1u" H 5142 2155 50  0000 L CNN
F 2 "Capacitor_SMD:C_0402_1005Metric" H 5050 2200 50  0001 C CNN
F 3 "~" H 5050 2200 50  0001 C CNN
F 4 "1276-1235-1" H 5050 2200 50  0001 C CNN "Digikey part"
F 5 "*" H 5050 2200 50  0001 C CNN "Tolerance"
F 6 "CL05A105MQ5NNNC" H 5050 2200 50  0001 C CNN "part#"
	1    5050 2200
	1    0    0    -1  
$EndComp
$Comp
L fpc-iii:GND #PWR0144
U 1 1 5E18682D
P 4650 2400
F 0 "#PWR0144" H 4650 2150 50  0001 C CNN
F 1 "GND" H 4645 2227 50  0000 C CNN
F 2 "" H 4650 2400 50  0001 C CNN
F 3 "" H 4650 2400 50  0001 C CNN
	1    4650 2400
	1    0    0    -1  
$EndComp
$Comp
L fpc-iii:GND #PWR0147
U 1 1 5E186D2D
P 5050 2300
F 0 "#PWR0147" H 5050 2050 50  0001 C CNN
F 1 "GND" H 5045 2127 50  0000 C CNN
F 2 "" H 5050 2300 50  0001 C CNN
F 3 "" H 5050 2300 50  0001 C CNN
	1    5050 2300
	1    0    0    -1  
$EndComp
Wire Wire Line
	3900 2100 4000 2100
$Comp
L Interface_USB:USB3300-EZK U11
U 1 1 5E177CD8
P 3100 2800
F 0 "U11" H 2500 3800 50  0000 C CNN
F 1 "USB3300-EZK" H 3050 2800 50  0000 C CNN
F 2 "Package_DFN_QFN:QFN-32-1EP_5x5mm_P0.5mm_EP3.45x3.45mm" H 4400 1550 50  0001 C CNN
F 3 "http://ww1.microchip.com/downloads/en/DeviceDoc/00001783C.pdf" H 3100 2800 50  0001 C CNN
F 4 "USB3300-EZK-CT" H 3100 2800 50  0001 C CNN "Digikey part"
F 5 "USB3300-EZK" H 3100 2800 50  0001 C CNN "part#"
	1    3100 2800
	1    0    0    -1  
$EndComp
Text Label 2300 2200 2    50   ~ 0
HOSTUSBD-
Text Label 2300 2300 2    50   ~ 0
HOSTUSBD+
Wire Wire Line
	3000 3900 3100 3900
Connection ~ 3100 3900
Wire Wire Line
	3100 3900 3200 3900
Wire Wire Line
	3100 3900 3100 4000
$Comp
L Device:R_Small_US R60
U 1 1 5E17F6B1
P 2200 3700
F 0 "R60" H 2268 3746 50  0000 L CNN
F 1 "12K" H 2268 3655 50  0000 L CNN
F 2 "Resistor_SMD:R_0402_1005Metric" H 2200 3700 50  0001 C CNN
F 3 "~" H 2200 3700 50  0001 C CNN
F 4 "1%" H 2200 3700 50  0001 C CNN "Tolerance"
F 5 "RMCF0402FT15K0CT" H 2200 3700 50  0001 C CNN "Digikey part"
F 6 "RMCF0402FT15K0" H 2200 3700 50  0001 C CNN "part#"
	1    2200 3700
	1    0    0    -1  
$EndComp
$Comp
L fpc-iii:GND #PWR0132
U 1 1 5E17FF37
P 2200 3900
F 0 "#PWR0132" H 2200 3650 50  0001 C CNN
F 1 "GND" H 2195 3727 50  0000 C CNN
F 2 "" H 2200 3900 50  0001 C CNN
F 3 "" H 2200 3900 50  0001 C CNN
	1    2200 3900
	1    0    0    -1  
$EndComp
Wire Wire Line
	2200 3900 2200 3800
Wire Wire Line
	2200 3600 2200 3500
Wire Wire Line
	2200 3500 2300 3500
$Comp
L Device:C_Small C77
U 1 1 5E184FAE
P 4050 1450
F 0 "C77" H 4142 1496 50  0000 L CNN
F 1 "100n" H 4142 1405 50  0000 L CNN
F 2 "Capacitor_SMD:C_0402_1005Metric" H 4050 1450 50  0001 C CNN
F 3 "~" H 4050 1450 50  0001 C CNN
F 4 "1276-1004-1" H 4050 1450 50  0001 C CNN "Digikey part"
F 5 "*" H 4050 1450 50  0001 C CNN "Tolerance"
F 6 "CL05F104ZO5NNNC" H 4050 1450 50  0001 C CNN "part#"
	1    4050 1450
	1    0    0    -1  
$EndComp
$Comp
L Device:C_Small C78
U 1 1 5E185147
P 4500 1450
F 0 "C78" H 4592 1496 50  0000 L CNN
F 1 "100n" H 4592 1405 50  0000 L CNN
F 2 "Capacitor_SMD:C_0402_1005Metric" H 4500 1450 50  0001 C CNN
F 3 "~" H 4500 1450 50  0001 C CNN
F 4 "1276-1004-1" H 4500 1450 50  0001 C CNN "Digikey part"
F 5 "*" H 4500 1450 50  0001 C CNN "Tolerance"
F 6 "CL05F104ZO5NNNC" H 4500 1450 50  0001 C CNN "part#"
	1    4500 1450
	1    0    0    -1  
$EndComp
Wire Wire Line
	2900 1700 3000 1700
Connection ~ 3000 1700
Wire Wire Line
	3000 1700 3050 1700
Connection ~ 3100 1700
Wire Wire Line
	3100 1700 3200 1700
Wire Wire Line
	3050 1200 3050 1350
Connection ~ 3050 1700
Wire Wire Line
	3050 1700 3100 1700
Wire Wire Line
	3050 1350 3150 1350
Connection ~ 3050 1350
Wire Wire Line
	3050 1350 3050 1700
Connection ~ 3150 1350
Wire Wire Line
	3150 1350 3600 1350
Connection ~ 3600 1350
Wire Wire Line
	3600 1350 4050 1350
Connection ~ 4050 1350
Wire Wire Line
	4050 1350 4500 1350
Wire Wire Line
	3150 1550 3600 1550
Connection ~ 3600 1550
Wire Wire Line
	3600 1550 4050 1550
Connection ~ 4050 1550
Wire Wire Line
	4050 1550 4500 1550
Wire Wire Line
	4500 1650 4500 1550
Connection ~ 4500 1550
Wire Wire Line
	2300 3100 2050 3100
Wire Wire Line
	2050 3100 2050 4800
Wire Wire Line
	3900 2000 4000 2000
Wire Wire Line
	4000 2000 4000 2100
Wire Wire Line
	5500 2000 5500 2100
$Comp
L Device:C_Small C86
U 1 1 5E19948B
P 5500 2200
F 0 "C86" H 5592 2246 50  0000 L CNN
F 1 "100n" H 5592 2155 50  0000 L CNN
F 2 "Capacitor_SMD:C_0402_1005Metric" H 5500 2200 50  0001 C CNN
F 3 "~" H 5500 2200 50  0001 C CNN
F 4 "1276-1004-1" H 5500 2200 50  0001 C CNN "Digikey part"
F 5 "*" H 5500 2200 50  0001 C CNN "Tolerance"
F 6 "CL05F104ZO5NNNC" H 5500 2200 50  0001 C CNN "part#"
	1    5500 2200
	1    0    0    -1  
$EndComp
$Comp
L fpc-iii:GND #PWR0151
U 1 1 5E199BEB
P 5500 2300
F 0 "#PWR0151" H 5500 2050 50  0001 C CNN
F 1 "GND" H 5495 2127 50  0000 C CNN
F 2 "" H 5500 2300 50  0001 C CNN
F 3 "" H 5500 2300 50  0001 C CNN
	1    5500 2300
	1    0    0    -1  
$EndComp
$Comp
L Device:Crystal_Small Y1
U 1 1 5E19AAE0
P 1500 2450
F 0 "Y1" H 1500 2550 50  0000 C CNN
F 1 "24M" H 1500 2350 50  0000 C CNN
F 2 "fpc-iii:XTAL_XRCGB24M000F0L00R0" H 1500 2450 50  0001 C CNN
F 3 "~" H 1500 2450 50  0001 C CNN
F 4 "490-5575-1" H 1500 2450 50  0001 C CNN "Digikey part"
F 5 "XRCGB24M000F0L00R0" H 1500 2450 50  0001 C CNN "part#"
	1    1500 2450
	1    0    0    -1  
$EndComp
$Comp
L Device:R_Small_US R59
U 1 1 5E1A37DC
P 1500 2800
F 0 "R59" V 1400 2800 50  0000 C CNN
F 1 "1M" V 1600 2800 50  0000 C CNN
F 2 "Resistor_SMD:R_0402_1005Metric" H 1500 2800 50  0001 C CNN
F 3 "~" H 1500 2800 50  0001 C CNN
F 4 "RMCF0402JT1M00CT" H 1500 2800 50  0001 C CNN "Digikey part"
F 5 "RMCF0402JT1M00" H 1500 2800 50  0001 C CNN "part#"
	1    1500 2800
	0    1    1    0   
$EndComp
Wire Wire Line
	1400 2800 1350 2800
Wire Wire Line
	1350 2800 1350 2450
Wire Wire Line
	1600 2800 1650 2800
Wire Wire Line
	1650 2800 1650 2450
$Comp
L Device:C_Small C71
U 1 1 5E1B2F21
P 1750 2600
F 0 "C71" H 1800 2650 50  0000 L CNN
F 1 "6p" H 1800 2550 50  0000 L CNN
F 2 "Capacitor_SMD:C_0402_1005Metric" H 1750 2600 50  0001 C CNN
F 3 "~" H 1750 2600 50  0001 C CNN
F 4 "1276-1607-1" H 1750 2600 50  0001 C CNN "Digikey part"
F 5 "*" H 1750 2600 50  0001 C CNN "Tolerance"
F 6 "CL05C060CB5NNNC" H 1750 2600 50  0001 C CNN "part#"
	1    1750 2600
	1    0    0    -1  
$EndComp
$Comp
L fpc-iii:GND #PWR0129
U 1 1 5E1B3815
P 1750 2700
F 0 "#PWR0129" H 1750 2450 50  0001 C CNN
F 1 "GND" H 1745 2527 50  0000 C CNN
F 2 "" H 1750 2700 50  0001 C CNN
F 3 "" H 1750 2700 50  0001 C CNN
	1    1750 2700
	1    0    0    -1  
$EndComp
Wire Wire Line
	2000 2600 2300 2600
Wire Wire Line
	1050 3000 1900 3000
Wire Wire Line
	1900 3000 1900 2800
Wire Wire Line
	1900 2800 2300 2800
$Comp
L fpc-iii:GND #PWR0128
U 1 1 5E1B3543
P 1250 2700
F 0 "#PWR0128" H 1250 2450 50  0001 C CNN
F 1 "GND" H 1245 2527 50  0000 C CNN
F 2 "" H 1250 2700 50  0001 C CNN
F 3 "" H 1250 2700 50  0001 C CNN
	1    1250 2700
	1    0    0    -1  
$EndComp
$Comp
L Device:C_Small C70
U 1 1 5E1B0208
P 1250 2600
F 0 "C70" H 1050 2650 50  0000 L CNN
F 1 "6p" H 1050 2550 50  0000 L CNN
F 2 "Capacitor_SMD:C_0402_1005Metric" H 1250 2600 50  0001 C CNN
F 3 "~" H 1250 2600 50  0001 C CNN
F 4 "1276-1607-1" H 1250 2600 50  0001 C CNN "Digikey part"
F 5 "*" H 1250 2600 50  0001 C CNN "Tolerance"
F 6 "CL05C060CB5NNNC" H 1250 2600 50  0001 C CNN "part#"
	1    1250 2600
	1    0    0    -1  
$EndComp
Wire Wire Line
	1750 2500 1750 2450
Wire Wire Line
	1750 2450 1650 2450
Connection ~ 1650 2450
Wire Wire Line
	1650 2450 1600 2450
Wire Wire Line
	1250 2500 1250 2450
Wire Wire Line
	1250 2450 1050 2450
Wire Wire Line
	1050 2450 1050 3000
Wire Wire Line
	1250 2450 1350 2450
Connection ~ 1250 2450
Connection ~ 1350 2450
Wire Wire Line
	1350 2450 1400 2450
Wire Wire Line
	1750 2450 2000 2450
Wire Wire Line
	2000 2450 2000 2600
Connection ~ 1750 2450
$Comp
L power:+3V3 #PWR0134
U 1 1 5E213A45
P 2300 3300
F 0 "#PWR0134" H 2300 3150 50  0001 C CNN
F 1 "+3V3" H 2200 3250 50  0000 C CNN
F 2 "" H 2300 3300 50  0001 C CNN
F 3 "" H 2300 3300 50  0001 C CNN
	1    2300 3300
	1    0    0    -1  
$EndComp
$Comp
L Device:R_Small_US R58
U 1 1 5E21AE8A
P 1350 2100
F 0 "R58" V 1145 2100 50  0000 C CNN
F 1 "680" V 1236 2100 50  0000 C CNN
F 2 "Resistor_SMD:R_0402_1005Metric" H 1350 2100 50  0001 C CNN
F 3 "~" H 1350 2100 50  0001 C CNN
F 4 "RMCF0402JT680RCT" H 1350 2100 50  0001 C CNN "Digikey part"
F 5 "RMCF0402JT680R" H 1350 2100 50  0001 C CNN "part#"
	1    1350 2100
	0    1    1    0   
$EndComp
Wire Wire Line
	1450 2100 1750 2100
Wire Wire Line
	1250 2100 750  2100
Wire Wire Line
	750  2100 750  7650
Wire Wire Line
	750  7650 3250 7650
Wire Wire Line
	3250 6200 3050 6200
Connection ~ 3050 6200
Wire Wire Line
	3550 6200 3550 6300
Connection ~ 3250 6200
$Comp
L fpc-iii:GND #PWR0141
U 1 1 5E226674
P 3550 6600
F 0 "#PWR0141" H 3550 6350 50  0001 C CNN
F 1 "GND" H 3545 6427 50  0000 C CNN
F 2 "" H 3550 6600 50  0001 C CNN
F 3 "" H 3550 6600 50  0001 C CNN
	1    3550 6600
	1    0    0    -1  
$EndComp
Wire Wire Line
	3550 6600 3550 6500
$Comp
L Device:CP1_Small C75
U 1 1 5E22B3E8
P 3550 6400
F 0 "C75" H 3641 6446 50  0000 L CNN
F 1 "100u" H 3641 6355 50  0000 L CNN
F 2 "Capacitor_SMD:CP_Elec_6.3x7.7" H 3550 6400 50  0001 C CNN
F 3 "~" H 3550 6400 50  0001 C CNN
F 4 "PCE3750CT" H 3550 6400 50  0001 C CNN "Digikey part"
F 5 "*" H 3550 6400 50  0001 C CNN "Tolerance"
F 6 "EEE-HC1C101XP" H 3550 6400 50  0001 C CNN "part#"
	1    3550 6400
	1    0    0    -1  
$EndComp
Wire Wire Line
	8100 1800 8100 1500
Connection ~ 8100 1500
Wire Wire Line
	8100 1500 8200 1500
Wire Wire Line
	8000 1500 8000 1800
Connection ~ 8000 1500
Wire Wire Line
	8000 1500 8050 1500
Wire Wire Line
	7900 1800 7900 1500
Connection ~ 7900 1500
Wire Wire Line
	7900 1500 8000 1500
Wire Wire Line
	6350 2300 6500 2300
Wire Wire Line
	6500 2100 6500 1500
$Comp
L power:+3V3 #PWR0166
U 1 1 5E294811
P 8050 1400
F 0 "#PWR0166" H 8050 1250 50  0001 C CNN
F 1 "+3V3" H 8065 1573 50  0000 C CNN
F 2 "" H 8050 1400 50  0001 C CNN
F 3 "" H 8050 1400 50  0001 C CNN
	1    8050 1400
	1    0    0    -1  
$EndComp
$Comp
L Device:R_Small_US R66
U 1 1 5E295084
P 6150 3500
F 0 "R66" H 6218 3546 50  0000 L CNN
F 1 "12K" H 6218 3455 50  0000 L CNN
F 2 "Resistor_SMD:R_0402_1005Metric" H 6150 3500 50  0001 C CNN
F 3 "~" H 6150 3500 50  0001 C CNN
F 4 "RMCF0402FT15K0CT" H 6150 3500 50  0001 C CNN "Digikey part"
F 5 "1%" H 6150 3500 50  0001 C CNN "Tolerance"
F 6 "RMCF0402FT15K0" H 6150 3500 50  0001 C CNN "part#"
	1    6150 3500
	1    0    0    -1  
$EndComp
$Comp
L fpc-iii:GND #PWR0160
U 1 1 5E2957E6
P 6150 3600
F 0 "#PWR0160" H 6150 3350 50  0001 C CNN
F 1 "GND" H 6145 3427 50  0000 C CNN
F 2 "" H 6150 3600 50  0001 C CNN
F 3 "" H 6150 3600 50  0001 C CNN
	1    6150 3600
	1    0    0    -1  
$EndComp
Wire Wire Line
	6150 3400 6500 3400
$Comp
L Device:C_Small C88
U 1 1 5E29BEB9
P 6050 1700
F 0 "C88" H 6142 1746 50  0000 L CNN
F 1 "10u" H 6142 1655 50  0000 L CNN
F 2 "Capacitor_SMD:C_0805_2012Metric" H 6050 1700 50  0001 C CNN
F 3 "~" H 6050 1700 50  0001 C CNN
F 4 "1276-6455-1" H 6050 1700 50  0001 C CNN "Digikey part"
F 5 "CL21A106KOQNNNG" H 6050 1700 50  0001 C CNN "part#"
	1    6050 1700
	1    0    0    -1  
$EndComp
$Comp
L fpc-iii:GND #PWR0159
U 1 1 5E29C5BD
P 6050 1800
F 0 "#PWR0159" H 6050 1550 50  0001 C CNN
F 1 "GND" H 6045 1627 50  0000 C CNN
F 2 "" H 6050 1800 50  0001 C CNN
F 3 "" H 6050 1800 50  0001 C CNN
	1    6050 1800
	1    0    0    -1  
$EndComp
Wire Wire Line
	6500 5800 6500 6200
Wire Wire Line
	6500 6200 7100 6200
Connection ~ 7100 6200
$Comp
L Memory_EEPROM:93CxxC U12
U 1 1 5E2ACD54
P 5550 4800
F 0 "U12" H 5300 5050 50  0000 C CNN
F 1 "93CxxC" H 5750 5050 50  0000 C CNN
F 2 "Package_SO:SOIC-8_3.9x4.9mm_P1.27mm" H 5550 4800 50  0001 C CNN
F 3 "http://ww1.microchip.com/downloads/en/DeviceDoc/20001749K.pdf" H 5550 4800 50  0001 C CNN
F 4 "93LC46CT-I/SNCT" H 5550 4800 50  0001 C CNN "Digikey part"
F 5 "93LC46CT-I/SN" H 5550 4800 50  0001 C CNN "part#"
	1    5550 4800
	1    0    0    -1  
$EndComp
Wire Wire Line
	5950 4700 6150 4700
Wire Wire Line
	6150 4700 6150 4800
Wire Wire Line
	6150 4800 6500 4800
Wire Wire Line
	5150 4700 5150 4250
Wire Wire Line
	5150 4250 5900 4250
Wire Wire Line
	6500 4250 6500 4700
$Comp
L power:+3V3 #PWR0153
U 1 1 5E2C1369
P 5550 4500
F 0 "#PWR0153" H 5550 4350 50  0001 C CNN
F 1 "+3V3" H 5565 4673 50  0000 C CNN
F 2 "" H 5550 4500 50  0001 C CNN
F 3 "" H 5550 4500 50  0001 C CNN
	1    5550 4500
	1    0    0    -1  
$EndComp
$Comp
L fpc-iii:GND #PWR0154
U 1 1 5E2C1BE4
P 5550 5100
F 0 "#PWR0154" H 5550 4850 50  0001 C CNN
F 1 "GND" H 5545 4927 50  0000 C CNN
F 2 "" H 5550 5100 50  0001 C CNN
F 3 "" H 5550 5100 50  0001 C CNN
	1    5550 5100
	1    0    0    -1  
$EndComp
Wire Wire Line
	5950 4900 6150 4900
$Comp
L power:+3V3 #PWR0148
U 1 1 5E2D0056
P 5050 4800
F 0 "#PWR0148" H 5050 4650 50  0001 C CNN
F 1 "+3V3" H 5065 4973 50  0000 C CNN
F 2 "" H 5050 4800 50  0001 C CNN
F 3 "" H 5050 4800 50  0001 C CNN
	1    5050 4800
	1    0    0    -1  
$EndComp
Wire Wire Line
	5050 4800 5150 4800
$Comp
L Device:C_Small C91
U 1 1 5E2D74BD
P 8400 1600
F 0 "C91" H 8492 1646 50  0000 L CNN
F 1 "100n" H 8492 1555 50  0000 L CNN
F 2 "Capacitor_SMD:C_0402_1005Metric" H 8400 1600 50  0001 C CNN
F 3 "~" H 8400 1600 50  0001 C CNN
F 4 "1276-1004-1" H 8400 1600 50  0001 C CNN "Digikey part"
F 5 "*" H 8400 1600 50  0001 C CNN "Tolerance"
F 6 "CL05F104ZO5NNNC" H 8400 1600 50  0001 C CNN "part#"
	1    8400 1600
	1    0    0    -1  
$EndComp
$Comp
L fpc-iii:GND #PWR0167
U 1 1 5E2D7CCF
P 8400 1700
F 0 "#PWR0167" H 8400 1450 50  0001 C CNN
F 1 "GND" H 8395 1527 50  0000 C CNN
F 2 "" H 8400 1700 50  0001 C CNN
F 3 "" H 8400 1700 50  0001 C CNN
	1    8400 1700
	1    0    0    -1  
$EndComp
$Comp
L Device:C_Small C90
U 1 1 5E2F1AE6
P 7400 1100
F 0 "C90" H 7492 1146 50  0000 L CNN
F 1 "100n" H 7492 1055 50  0000 L CNN
F 2 "Capacitor_SMD:C_0402_1005Metric" H 7400 1100 50  0001 C CNN
F 3 "~" H 7400 1100 50  0001 C CNN
F 4 "1276-1004-1" H 7400 1100 50  0001 C CNN "Digikey part"
F 5 "*" H 7400 1100 50  0001 C CNN "Tolerance"
F 6 "CL05F104ZO5NNNC" H 7400 1100 50  0001 C CNN "part#"
	1    7400 1100
	1    0    0    -1  
$EndComp
$Comp
L Device:C_Small C89
U 1 1 5E2F1CA0
P 7100 1100
F 0 "C89" H 7192 1146 50  0000 L CNN
F 1 "100n" H 7192 1055 50  0000 L CNN
F 2 "Capacitor_SMD:C_0402_1005Metric" H 7100 1100 50  0001 C CNN
F 3 "~" H 7100 1100 50  0001 C CNN
F 4 "1276-1004-1" H 7100 1100 50  0001 C CNN "Digikey part"
F 5 "*" H 7100 1100 50  0001 C CNN "Tolerance"
F 6 "CL05F104ZO5NNNC" H 7100 1100 50  0001 C CNN "part#"
	1    7100 1100
	-1   0    0    -1  
$EndComp
$Comp
L Device:C_Small C92
U 1 1 5E2F1EE7
P 9450 1600
F 0 "C92" H 9542 1646 50  0000 L CNN
F 1 "100n" H 9542 1555 50  0000 L CNN
F 2 "Capacitor_SMD:C_0402_1005Metric" H 9450 1600 50  0001 C CNN
F 3 "~" H 9450 1600 50  0001 C CNN
F 4 "1276-1004-1" H 9450 1600 50  0001 C CNN "Digikey part"
F 5 "*" H 9450 1600 50  0001 C CNN "Tolerance"
F 6 "CL05F104ZO5NNNC" H 9450 1600 50  0001 C CNN "part#"
	1    9450 1600
	1    0    0    -1  
$EndComp
$Comp
L fpc-iii:GND #PWR0164
U 1 1 5E3003BF
P 7400 1200
F 0 "#PWR0164" H 7400 950 50  0001 C CNN
F 1 "GND" H 7395 1027 50  0000 C CNN
F 2 "" H 7400 1200 50  0001 C CNN
F 3 "" H 7400 1200 50  0001 C CNN
	1    7400 1200
	1    0    0    -1  
$EndComp
$Comp
L fpc-iii:GND #PWR0162
U 1 1 5E30071B
P 7100 1200
F 0 "#PWR0162" H 7100 950 50  0001 C CNN
F 1 "GND" H 7095 1027 50  0000 C CNN
F 2 "" H 7100 1200 50  0001 C CNN
F 3 "" H 7100 1200 50  0001 C CNN
	1    7100 1200
	-1   0    0    -1  
$EndComp
$Comp
L fpc-iii:GND #PWR0168
U 1 1 5E30090F
P 9450 1700
F 0 "#PWR0168" H 9450 1450 50  0001 C CNN
F 1 "GND" H 9445 1527 50  0000 C CNN
F 2 "" H 9450 1700 50  0001 C CNN
F 3 "" H 9450 1700 50  0001 C CNN
	1    9450 1700
	1    0    0    -1  
$EndComp
Connection ~ 8200 1500
Connection ~ 8400 1500
Wire Wire Line
	8400 1500 8200 1500
$Comp
L Device:C_Small C87
U 1 1 5E307942
P 5700 1700
F 0 "C87" H 5792 1746 50  0000 L CNN
F 1 "100n" H 5792 1655 50  0000 L CNN
F 2 "Capacitor_SMD:C_0402_1005Metric" H 5700 1700 50  0001 C CNN
F 3 "~" H 5700 1700 50  0001 C CNN
F 4 "1276-1004-1" H 5700 1700 50  0001 C CNN "Digikey part"
F 5 "*" H 5700 1700 50  0001 C CNN "Tolerance"
F 6 "CL05F104ZO5NNNC" H 5700 1700 50  0001 C CNN "part#"
	1    5700 1700
	1    0    0    -1  
$EndComp
Wire Wire Line
	8200 1500 8200 1800
$Comp
L Device:C_Small C85
U 1 1 5E30ECD7
P 5350 1700
F 0 "C85" H 5442 1746 50  0000 L CNN
F 1 "100n" H 5442 1655 50  0000 L CNN
F 2 "Capacitor_SMD:C_0402_1005Metric" H 5350 1700 50  0001 C CNN
F 3 "~" H 5350 1700 50  0001 C CNN
F 4 "1276-1004-1" H 5350 1700 50  0001 C CNN "Digikey part"
F 5 "*" H 5350 1700 50  0001 C CNN "Tolerance"
F 6 "CL05F104ZO5NNNC" H 5350 1700 50  0001 C CNN "part#"
	1    5350 1700
	1    0    0    -1  
$EndComp
$Comp
L Device:C_Small C82
U 1 1 5E30EE4F
P 5000 1700
F 0 "C82" H 5092 1746 50  0000 L CNN
F 1 "100n" H 5092 1655 50  0000 L CNN
F 2 "Capacitor_SMD:C_0402_1005Metric" H 5000 1700 50  0001 C CNN
F 3 "~" H 5000 1700 50  0001 C CNN
F 4 "1276-1004-1" H 5000 1700 50  0001 C CNN "Digikey part"
F 5 "*" H 5000 1700 50  0001 C CNN "Tolerance"
F 6 "CL05F104ZO5NNNC" H 5000 1700 50  0001 C CNN "part#"
	1    5000 1700
	1    0    0    -1  
$EndComp
Wire Wire Line
	5000 1800 5350 1800
Connection ~ 6050 1800
Connection ~ 5350 1800
Wire Wire Line
	5350 1800 5700 1800
Connection ~ 5700 1800
Wire Wire Line
	5700 1800 6050 1800
Wire Wire Line
	5000 1600 5350 1600
Wire Wire Line
	7700 1600 7700 1800
Connection ~ 5350 1600
Wire Wire Line
	5350 1600 5700 1600
Connection ~ 5700 1600
Wire Wire Line
	5700 1600 6050 1600
Connection ~ 6050 1600
Wire Wire Line
	6050 1600 6350 1600
Wire Wire Line
	7600 1800 7600 1600
Connection ~ 7600 1600
Wire Wire Line
	7600 1600 7700 1600
Wire Wire Line
	7500 1600 7500 1800
Connection ~ 7500 1600
Wire Wire Line
	7500 1600 7600 1600
Wire Wire Line
	6350 1600 6350 2300
Connection ~ 6350 1600
Wire Wire Line
	6350 1600 7500 1600
$Comp
L Device:C_Small C80
U 1 1 5E347D74
P 4650 4600
F 0 "C80" H 4742 4646 50  0000 L CNN
F 1 "100n" H 4742 4555 50  0000 L CNN
F 2 "Capacitor_SMD:C_0402_1005Metric" H 4650 4600 50  0001 C CNN
F 3 "~" H 4650 4600 50  0001 C CNN
F 4 "1276-1004-1" H 4650 4600 50  0001 C CNN "Digikey part"
F 5 "*" H 4650 4600 50  0001 C CNN "Tolerance"
F 6 "CL05F104ZO5NNNC" H 4650 4600 50  0001 C CNN "part#"
	1    4650 4600
	1    0    0    -1  
$EndComp
$Comp
L fpc-iii:GND #PWR0145
U 1 1 5E34887E
P 4650 4700
F 0 "#PWR0145" H 4650 4450 50  0001 C CNN
F 1 "GND" H 4645 4527 50  0000 C CNN
F 2 "" H 4650 4700 50  0001 C CNN
F 3 "" H 4650 4700 50  0001 C CNN
	1    4650 4700
	1    0    0    -1  
$EndComp
Wire Wire Line
	5550 4500 4650 4500
Connection ~ 5550 4500
$Comp
L Device:R_Small_US R67
U 1 1 5E3603E2
P 6150 4100
F 0 "R67" H 6218 4146 50  0000 L CNN
F 1 "10K" H 6218 4055 50  0000 L CNN
F 2 "Resistor_SMD:R_0402_1005Metric" H 6150 4100 50  0001 C CNN
F 3 "~" H 6150 4100 50  0001 C CNN
F 4 "RMCF0402JT10K0CT" H 6150 4100 50  0001 C CNN "Digikey part"
F 5 "RMCF0402JT10K0" H 6150 4100 50  0001 C CNN "part#"
	1    6150 4100
	1    0    0    -1  
$EndComp
$Comp
L Device:R_Small_US R70
U 1 1 5E360ABF
P 6400 4100
F 0 "R70" H 6468 4146 50  0000 L CNN
F 1 "10K" H 6468 4055 50  0000 L CNN
F 2 "Resistor_SMD:R_0402_1005Metric" H 6400 4100 50  0001 C CNN
F 3 "~" H 6400 4100 50  0001 C CNN
F 4 "RMCF0402JT10K0CT" H 6400 4100 50  0001 C CNN "Digikey part"
F 5 "RMCF0402JT10K0" H 6400 4100 50  0001 C CNN "part#"
	1    6400 4100
	1    0    0    -1  
$EndComp
$Comp
L Device:R_Small_US R65
U 1 1 5E360F2F
P 5900 4100
F 0 "R65" H 5968 4146 50  0000 L CNN
F 1 "10K" H 5968 4055 50  0000 L CNN
F 2 "Resistor_SMD:R_0402_1005Metric" H 5900 4100 50  0001 C CNN
F 3 "~" H 5900 4100 50  0001 C CNN
F 4 "RMCF0402JT10K0CT" H 5900 4100 50  0001 C CNN "Digikey part"
F 5 "RMCF0402JT10K0" H 5900 4100 50  0001 C CNN "part#"
	1    5900 4100
	1    0    0    -1  
$EndComp
Wire Wire Line
	5900 4200 5900 4250
Connection ~ 5900 4250
Wire Wire Line
	5900 4250 6500 4250
Wire Wire Line
	6150 4200 6150 4700
Connection ~ 6150 4700
Wire Wire Line
	6400 4200 6400 4900
Wire Wire Line
	5900 4000 6150 4000
Connection ~ 6150 4000
Wire Wire Line
	6150 4000 6400 4000
$Comp
L power:+3V3 #PWR0158
U 1 1 5E391141
P 5900 4000
F 0 "#PWR0158" H 5900 3850 50  0001 C CNN
F 1 "+3V3" H 5915 4173 50  0000 C CNN
F 2 "" H 5900 4000 50  0001 C CNN
F 3 "" H 5900 4000 50  0001 C CNN
	1    5900 4000
	1    0    0    -1  
$EndComp
Connection ~ 5900 4000
Wire Wire Line
	5950 4800 6050 4800
Wire Wire Line
	6050 4800 6050 5100
Wire Wire Line
	6050 5100 6150 5100
Wire Wire Line
	6500 5100 6500 4900
$Comp
L Device:R_Small_US R68
U 1 1 5E39AC18
P 6150 5000
F 0 "R68" H 6218 5046 50  0000 L CNN
F 1 "2K2" H 6218 4955 50  0000 L CNN
F 2 "Resistor_SMD:R_0402_1005Metric" H 6150 5000 50  0001 C CNN
F 3 "~" H 6150 5000 50  0001 C CNN
F 4 "RMCF0402JT2K20CT" H 6150 5000 50  0001 C CNN "Digikey part"
F 5 "RMCF0402JT2K20" H 6150 5000 50  0001 C CNN "part#"
	1    6150 5000
	1    0    0    -1  
$EndComp
Connection ~ 6150 4900
Wire Wire Line
	6150 4900 6400 4900
Connection ~ 6150 5100
Wire Wire Line
	6150 5100 6500 5100
$Comp
L Oscillator:ECS-2520MV-xxx-xx X2
U 1 1 5E39BDC9
P 5750 5750
F 0 "X2" H 5450 6000 50  0000 L CNN
F 1 "12M" H 5900 6000 50  0000 L CNN
F 2 "Oscillator:Oscillator_SMD_ECS_2520MV-xxx-xx-4Pin_2.5x2.0mm" H 6200 5400 50  0001 C CNN
F 3 "https://www.ecsxtal.com/store/pdf/ECS-2520MV.pdf" H 5575 5875 50  0001 C CNN
F 4 "DSC6011JE1A-012.0000TCT" H 5750 5750 50  0001 C CNN "Digikey part"
F 5 "DSC6011JE1A-012.0000T" H 5750 5750 50  0001 C CNN "part#"
	1    5750 5750
	1    0    0    -1  
$EndComp
$Comp
L power:+3V3 #PWR0156
U 1 1 5E39CB50
P 5750 5450
F 0 "#PWR0156" H 5750 5300 50  0001 C CNN
F 1 "+3V3" H 5765 5623 50  0000 C CNN
F 2 "" H 5750 5450 50  0001 C CNN
F 3 "" H 5750 5450 50  0001 C CNN
	1    5750 5450
	1    0    0    -1  
$EndComp
Wire Wire Line
	6150 5750 6300 5750
$Comp
L fpc-iii:GND #PWR0157
U 1 1 5E3A65E9
P 5750 6050
F 0 "#PWR0157" H 5750 5800 50  0001 C CNN
F 1 "GND" H 5745 5877 50  0000 C CNN
F 2 "" H 5750 6050 50  0001 C CNN
F 3 "" H 5750 6050 50  0001 C CNN
	1    5750 6050
	1    0    0    -1  
$EndComp
$Comp
L Device:C_Small C81
U 1 1 5E3A6F47
P 4950 5550
F 0 "C81" H 5042 5596 50  0000 L CNN
F 1 "100n" H 5042 5505 50  0000 L CNN
F 2 "Capacitor_SMD:C_0402_1005Metric" H 4950 5550 50  0001 C CNN
F 3 "~" H 4950 5550 50  0001 C CNN
F 4 "1276-1004-1" H 4950 5550 50  0001 C CNN "Digikey part"
F 5 "*" H 4950 5550 50  0001 C CNN "Tolerance"
F 6 "CL05F104ZO5NNNC" H 4950 5550 50  0001 C CNN "part#"
	1    4950 5550
	1    0    0    -1  
$EndComp
Connection ~ 5750 5450
$Comp
L fpc-iii:GND #PWR0146
U 1 1 5E3B0C3B
P 4950 5650
F 0 "#PWR0146" H 4950 5400 50  0001 C CNN
F 1 "GND" H 4945 5477 50  0000 C CNN
F 2 "" H 4950 5650 50  0001 C CNN
F 3 "" H 4950 5650 50  0001 C CNN
	1    4950 5650
	1    0    0    -1  
$EndComp
Wire Wire Line
	4950 5450 5350 5450
Wire Wire Line
	5350 5750 5350 5450
Connection ~ 5350 5450
Wire Wire Line
	5350 5450 5750 5450
Wire Wire Line
	6300 5200 6500 5200
Wire Wire Line
	6300 5200 6300 5750
NoConn ~ 6500 5600
$Comp
L Device:R_Small_US R69
U 1 1 5E3D75CE
P 6400 3800
F 0 "R69" H 6468 3846 50  0000 L CNN
F 1 "10K" H 6468 3755 50  0000 L CNN
F 2 "Resistor_SMD:R_0402_1005Metric" H 6400 3800 50  0001 C CNN
F 3 "~" H 6400 3800 50  0001 C CNN
F 4 "RMCF0402JT10K0CT" H 6400 3800 50  0001 C CNN "Digikey part"
F 5 "RMCF0402JT10K0" H 6400 3800 50  0001 C CNN "part#"
	1    6400 3800
	1    0    0    -1  
$EndComp
Wire Wire Line
	6400 3900 6400 4000
Connection ~ 6400 4000
Wire Wire Line
	6400 3700 6400 3600
Wire Wire Line
	6400 3600 6500 3600
Text Label 6500 5200 2    50   ~ 0
12MHZ
$Comp
L fpc-iii:USB_B J?
U 1 1 5E2D939C
P 4250 6900
AR Path="/5E11FD2E/5E2D939C" Ref="J?"  Part="1" 
AR Path="/5E2D6BE4/5E2D939C" Ref="J8"  Part="1" 
F 0 "J8" H 4307 7367 50  0000 C CNN
F 1 "USB_B" H 4307 7276 50  0000 C CNN
F 2 "Connector_USB:USB_B_OST_USB-B1HSxx_Horizontal" H 4400 6850 50  0001 C CNN
F 3 "~" H 4400 6850 50  0001 C CNN
F 4 "ED2983" H 4250 6900 50  0001 C CNN "Digikey part"
F 5 "USB-B1HSB6" H 4250 6900 50  0001 C CNN "part#"
	1    4250 6900
	1    0    0    -1  
$EndComp
Text Label 5900 3000 0    50   ~ 0
D+
Text Label 5900 3100 0    50   ~ 0
D-
$Comp
L Device:C_Small C93
U 1 1 5E1DD166
P 9800 1600
F 0 "C93" H 9892 1646 50  0000 L CNN
F 1 "100n" H 9892 1555 50  0000 L CNN
F 2 "Capacitor_SMD:C_0402_1005Metric" H 9800 1600 50  0001 C CNN
F 3 "~" H 9800 1600 50  0001 C CNN
F 4 "1276-1004-1" H 9800 1600 50  0001 C CNN "Digikey part"
F 5 "*" H 9800 1600 50  0001 C CNN "Tolerance"
F 6 "CL05F104ZO5NNNC" H 9800 1600 50  0001 C CNN "part#"
	1    9800 1600
	1    0    0    -1  
$EndComp
$Comp
L Device:C_Small C94
U 1 1 5E1DD3A1
P 10150 1600
F 0 "C94" H 10242 1646 50  0000 L CNN
F 1 "100n" H 10242 1555 50  0000 L CNN
F 2 "Capacitor_SMD:C_0402_1005Metric" H 10150 1600 50  0001 C CNN
F 3 "~" H 10150 1600 50  0001 C CNN
F 4 "1276-1004-1" H 10150 1600 50  0001 C CNN "Digikey part"
F 5 "*" H 10150 1600 50  0001 C CNN "Tolerance"
F 6 "CL05F104ZO5NNNC" H 10150 1600 50  0001 C CNN "part#"
	1    10150 1600
	1    0    0    -1  
$EndComp
Wire Wire Line
	9450 1500 9800 1500
Connection ~ 9450 1500
Connection ~ 9800 1500
Wire Wire Line
	9800 1500 10150 1500
$Comp
L fpc-iii:GND #PWR0171
U 1 1 5E1E9325
P 9800 1700
F 0 "#PWR0171" H 9800 1450 50  0001 C CNN
F 1 "GND" H 9795 1527 50  0000 C CNN
F 2 "" H 9800 1700 50  0001 C CNN
F 3 "" H 9800 1700 50  0001 C CNN
	1    9800 1700
	1    0    0    -1  
$EndComp
$Comp
L fpc-iii:GND #PWR0173
U 1 1 5E1E9532
P 10150 1700
F 0 "#PWR0173" H 10150 1450 50  0001 C CNN
F 1 "GND" H 10145 1527 50  0000 C CNN
F 2 "" H 10150 1700 50  0001 C CNN
F 3 "" H 10150 1700 50  0001 C CNN
	1    10150 1700
	1    0    0    -1  
$EndComp
$Comp
L Connector:USB_A J?
U 1 1 5E243FF1
P 9850 3800
AR Path="/5E11FD2E/5E243FF1" Ref="J?"  Part="1" 
AR Path="/5E2D6BE4/5E243FF1" Ref="J5"  Part="1" 
F 0 "J5" H 9907 4267 50  0000 C CNN
F 1 "USB_A" H 9907 4176 50  0000 C CNN
F 2 "Connector_USB:USB_A_Stewart_SS-52100-001_Horizontal" H 10000 3750 50  0001 C CNN
F 3 " ~" H 10000 3750 50  0001 C CNN
F 4 "ED2989" H 9850 3800 50  0001 C CNN "Digikey part"
F 5 "USB-A1HSW6" H 9850 3800 50  0001 C CNN "part#"
	1    9850 3800
	1    0    0    -1  
$EndComp
Wire Wire Line
	9750 4200 9800 4200
$Comp
L power:+5V #PWR0174
U 1 1 5E25150C
P 10250 3500
F 0 "#PWR0174" H 10250 3350 50  0001 C CNN
F 1 "+5V" H 10265 3673 50  0000 C CNN
F 2 "" H 10250 3500 50  0001 C CNN
F 3 "" H 10250 3500 50  0001 C CNN
	1    10250 3500
	1    0    0    -1  
$EndComp
$Comp
L fpc-iii:GND #PWR0172
U 1 1 5E25212E
P 9800 4300
F 0 "#PWR0172" H 9800 4050 50  0001 C CNN
F 1 "GND" H 9795 4127 50  0000 C CNN
F 2 "" H 9800 4300 50  0001 C CNN
F 3 "" H 9800 4300 50  0001 C CNN
	1    9800 4300
	1    0    0    -1  
$EndComp
Connection ~ 9800 4200
Wire Wire Line
	9800 4200 9850 4200
Wire Wire Line
	9800 4300 9800 4200
Wire Wire Line
	10250 3500 10250 3600
Wire Wire Line
	10250 3600 10150 3600
Wire Wire Line
	6400 3000 6400 3200
Wire Wire Line
	3050 7450 950  7450
Wire Wire Line
	3150 6400 3150 7550
Wire Wire Line
	3250 6200 3250 7650
Wire Wire Line
	1950 5200 2050 5200
Text GLabel 10500 3800 2    50   BiDi ~ 0
HOST1.D+
Text GLabel 10500 3900 2    50   BiDi ~ 0
HOST1.D-
Wire Wire Line
	10150 3800 10250 3800
Wire Wire Line
	10150 3900 10450 3900
$Comp
L Device:R_Small_US R75
U 1 1 5E2EA8EC
P 10450 4150
F 0 "R75" H 10382 4104 50  0000 R CNN
F 1 "15K" H 10382 4195 50  0000 R CNN
F 2 "Resistor_SMD:R_0402_1005Metric" H 10450 4150 50  0001 C CNN
F 3 "~" H 10450 4150 50  0001 C CNN
F 4 "RMCF0402FT15K0CT" H 10450 4150 50  0001 C CNN "Digikey part"
F 5 "1%" H 10450 4150 50  0001 C CNN "Tolerance"
F 6 "RMCF0402FT15K0" H 10450 4150 50  0001 C CNN "part#"
	1    10450 4150
	-1   0    0    1   
$EndComp
$Comp
L Device:R_Small_US R74
U 1 1 5E2EACE9
P 10250 4150
F 0 "R74" H 10400 4100 50  0000 R CNN
F 1 "15K" H 10450 4200 50  0000 R CNN
F 2 "Resistor_SMD:R_0402_1005Metric" H 10250 4150 50  0001 C CNN
F 3 "~" H 10250 4150 50  0001 C CNN
F 4 "RMCF0402FT15K0CT" H 10250 4150 50  0001 C CNN "Digikey part"
F 5 "1%" H 10250 4150 50  0001 C CNN "Tolerance"
F 6 "RMCF0402FT15K0" H 10250 4150 50  0001 C CNN "part#"
	1    10250 4150
	-1   0    0    1   
$EndComp
$Comp
L fpc-iii:GND #PWR0175
U 1 1 5E2F69AD
P 10250 4250
F 0 "#PWR0175" H 10250 4000 50  0001 C CNN
F 1 "GND" H 10245 4077 50  0000 C CNN
F 2 "" H 10250 4250 50  0001 C CNN
F 3 "" H 10250 4250 50  0001 C CNN
	1    10250 4250
	1    0    0    -1  
$EndComp
$Comp
L fpc-iii:GND #PWR0176
U 1 1 5E2F6B93
P 10450 4250
F 0 "#PWR0176" H 10450 4000 50  0001 C CNN
F 1 "GND" H 10445 4077 50  0000 C CNN
F 2 "" H 10450 4250 50  0001 C CNN
F 3 "" H 10450 4250 50  0001 C CNN
	1    10450 4250
	1    0    0    -1  
$EndComp
Wire Wire Line
	10250 4050 10250 3800
Connection ~ 10250 3800
Wire Wire Line
	10250 3800 10500 3800
Wire Wire Line
	10450 3900 10450 4050
Connection ~ 10450 3900
Wire Wire Line
	10450 3900 10500 3900
Text GLabel 4750 6900 2    50   BiDi ~ 0
DEV1.D+
Text GLabel 4750 7000 2    50   BiDi ~ 0
DEV1.D-
Wire Wire Line
	4550 7000 4750 7000
Wire Wire Line
	4550 6900 4650 6900
Wire Wire Line
	4650 6900 4650 7300
Wire Wire Line
	4650 7300 4750 7300
Connection ~ 4650 6900
Wire Wire Line
	4650 6900 4750 6900
Wire Wire Line
	4750 7600 4550 7600
Wire Wire Line
	4550 7600 4550 7000
Connection ~ 4550 7000
$Comp
L Device:R_Small_US R61
U 1 1 5E385D71
P 4850 7300
F 0 "R61" V 4645 7300 50  0000 C CNN
F 1 "1K5" V 4736 7300 50  0000 C CNN
F 2 "Resistor_SMD:R_0402_1005Metric" H 4850 7300 50  0001 C CNN
F 3 "~" H 4850 7300 50  0001 C CNN
F 4 "RMCF0402JT1K50CT" H 4850 7300 50  0001 C CNN "Digikey part"
F 5 "RMCF0402JT1K50" H 4850 7300 50  0001 C CNN "part#"
	1    4850 7300
	0    1    1    0   
$EndComp
$Comp
L Device:R_Small_US R62
U 1 1 5E3ABCBB
P 4850 7600
F 0 "R62" V 4645 7600 50  0000 C CNN
F 1 "1K5" V 4736 7600 50  0000 C CNN
F 2 "Resistor_SMD:R_0402_1005Metric" H 4850 7600 50  0001 C CNN
F 3 "~" H 4850 7600 50  0001 C CNN
F 4 "RMCF0402JT1K50CT" H 4850 7600 50  0001 C CNN "Digikey part"
F 5 "RMCF0402JT1K50" H 4850 7600 50  0001 C CNN "part#"
	1    4850 7600
	0    1    1    0   
$EndComp
Text GLabel 4950 7300 2    50   Input ~ 0
DEV1.PULL+
Text GLabel 4950 7600 2    50   Input ~ 0
DEV1.PULL-
$Comp
L Device:R_Small_US R63
U 1 1 5E3AC6F6
P 5700 6800
F 0 "R63" H 5632 6754 50  0000 R CNN
F 1 "10K" H 5632 6845 50  0000 R CNN
F 2 "Resistor_SMD:R_0402_1005Metric" H 5700 6800 50  0001 C CNN
F 3 "~" H 5700 6800 50  0001 C CNN
F 4 "RMCF0402JT10K0CT" H 5700 6800 50  0001 C CNN "Digikey part"
F 5 "RMCF0402JT10K0" H 5700 6800 50  0001 C CNN "part#"
	1    5700 6800
	-1   0    0    1   
$EndComp
$Comp
L Device:R_Small_US R64
U 1 1 5E3ACBC4
P 5700 7100
F 0 "R64" H 5632 7054 50  0000 R CNN
F 1 "22K" H 5632 7145 50  0000 R CNN
F 2 "Resistor_SMD:R_0402_1005Metric" H 5700 7100 50  0001 C CNN
F 3 "~" H 5700 7100 50  0001 C CNN
F 4 "RMCF0402FT22K0CT" H 5700 7100 50  0001 C CNN "Digikey part"
F 5 "1%" H 5700 7100 50  0001 C CNN "Tolerance"
F 6 "RMCF0402FT22K0" H 5700 7100 50  0001 C CNN "part#"
	1    5700 7100
	-1   0    0    1   
$EndComp
$Comp
L fpc-iii:GND #PWR0155
U 1 1 5E3ACD89
P 5700 7300
F 0 "#PWR0155" H 5700 7050 50  0001 C CNN
F 1 "GND" H 5695 7127 50  0000 C CNN
F 2 "" H 5700 7300 50  0001 C CNN
F 3 "" H 5700 7300 50  0001 C CNN
	1    5700 7300
	1    0    0    -1  
$EndComp
Wire Wire Line
	5700 6700 4550 6700
Wire Wire Line
	5700 6900 5700 6950
Wire Wire Line
	5700 7200 5700 7300
Text GLabel 5900 6950 2    50   Output ~ 0
DEV1.VSENSE
Wire Wire Line
	5700 6950 5900 6950
Connection ~ 5700 6950
Wire Wire Line
	5700 6950 5700 7000
NoConn ~ 8900 2600
NoConn ~ 8900 2700
NoConn ~ 8900 2800
NoConn ~ 8900 3000
NoConn ~ 8900 3100
NoConn ~ 8900 3200
NoConn ~ 8900 3300
NoConn ~ 8900 3400
NoConn ~ 8900 3500
NoConn ~ 8900 3600
NoConn ~ 8900 3700
NoConn ~ 8900 5300
NoConn ~ 8900 5400
Wire Wire Line
	4000 2000 5500 2000
Connection ~ 4000 2000
Wire Wire Line
	4000 2100 5050 2100
Connection ~ 4000 2100
Wire Wire Line
	3900 2200 4650 2200
Text GLabel 3900 3100 2    50   BiDi ~ 0
HOST0.D0
Text GLabel 3900 3000 2    50   BiDi ~ 0
HOST0.D1
Text GLabel 3900 2900 2    50   BiDi ~ 0
HOST0.D2
Text GLabel 3900 2800 2    50   BiDi ~ 0
HOST0.D3
Text GLabel 3900 2700 2    50   BiDi ~ 0
HOST0.D4
Text GLabel 3900 2600 2    50   BiDi ~ 0
HOST0.D5
Text GLabel 3900 2500 2    50   BiDi ~ 0
HOST0.D6
Text GLabel 3900 2400 2    50   BiDi ~ 0
HOST0.D7
Text GLabel 3900 3600 2    50   Input ~ 0
HOST0.RESET
Text GLabel 3900 3200 2    50   Output ~ 0
HOST0.NXT
Text GLabel 3900 3300 2    50   Output ~ 0
HOST0.DIR
Text GLabel 3900 3400 2    50   Input ~ 0
HOST0.STP
Text GLabel 3900 3500 2    50   Output ~ 0
HOST0.CLK
Text GLabel 8900 2100 2    50   Output ~ 0
TCK
Text GLabel 8900 2400 2    50   Output ~ 0
TMS
Text GLabel 8900 2200 2    50   Output ~ 0
TDI
Text GLabel 8900 2300 2    50   Input ~ 0
TDO
$Comp
L power:+3V3 #PWR0169
U 1 1 5E342746
P 9600 2100
F 0 "#PWR0169" H 9600 1950 50  0001 C CNN
F 1 "+3V3" H 9615 2273 50  0000 C CNN
F 2 "" H 9600 2100 50  0001 C CNN
F 3 "" H 9600 2100 50  0001 C CNN
	1    9600 2100
	1    0    0    -1  
$EndComp
$Comp
L Device:R_Small_US R71
U 1 1 5E3438FD
P 9600 2200
F 0 "R71" H 9668 2246 50  0000 L CNN
F 1 "150" H 9668 2155 50  0000 L CNN
F 2 "Resistor_SMD:R_0402_1005Metric" H 9600 2200 50  0001 C CNN
F 3 "~" H 9600 2200 50  0001 C CNN
F 4 "RMCF0402JT150RCT" H 9600 2200 50  0001 C CNN "Digikey part"
F 5 "RMCF0402JT150R" H 9600 2200 50  0001 C CNN "part#"
	1    9600 2200
	1    0    0    -1  
$EndComp
$Comp
L Device:LED_Small D10
U 1 1 5E344449
P 9600 2400
F 0 "D10" V 9600 2332 50  0000 R CNN
F 1 "LED_Small" V 9555 2332 50  0001 R CNN
F 2 "LED_SMD:LED_0603_1608Metric" V 9600 2400 50  0001 C CNN
F 3 "~" V 9600 2400 50  0001 C CNN
F 4 "150060YS75000" H 9600 2400 50  0001 C CNN "part#"
F 5 "732-4981-1" H 9600 2400 50  0001 C CNN "Digikey part"
	1    9600 2400
	0    -1   -1   0   
$EndComp
Wire Wire Line
	8900 2500 9600 2500
Text GLabel 8900 3900 2    50   BiDi ~ 0
DEV0.D0
Text GLabel 8900 4000 2    50   BiDi ~ 0
DEV0.D1
Text GLabel 8900 4100 2    50   BiDi ~ 0
DEV0.D2
Text GLabel 8900 4200 2    50   BiDi ~ 0
DEV0.D3
Text GLabel 8900 4300 2    50   BiDi ~ 0
DEV0.D4
Text GLabel 8900 4400 2    50   BiDi ~ 0
DEV0.D5
Text GLabel 8900 4500 2    50   BiDi ~ 0
DEV0.D6
Text GLabel 8900 4600 2    50   BiDi ~ 0
DEV0.D7
Text GLabel 8900 4800 2    50   Output ~ 0
DEV0.RXF
Text GLabel 8900 4900 2    50   Output ~ 0
DEV0.TXE
Text GLabel 8900 5000 2    50   Input ~ 0
DEV0.RD
Text GLabel 8900 5100 2    50   Input ~ 0
DEV0.WR
Text GLabel 8900 5200 2    50   Input ~ 0
DEV0.SIWU
$Comp
L Device:R_Small_US R73
U 1 1 5E370D13
P 9750 5700
F 0 "R73" H 9818 5746 50  0000 L CNN
F 1 "10K" H 9818 5655 50  0000 L CNN
F 2 "Resistor_SMD:R_0402_1005Metric" H 9750 5700 50  0001 C CNN
F 3 "~" H 9750 5700 50  0001 C CNN
F 4 "RMCF0402JT10K0CT" H 9750 5700 50  0001 C CNN "Digikey part"
F 5 "RMCF0402JT10K0" H 9750 5700 50  0001 C CNN "part#"
	1    9750 5700
	1    0    0    -1  
$EndComp
$Comp
L fpc-iii:GND #PWR0170
U 1 1 5E3719C1
P 9750 5800
F 0 "#PWR0170" H 9750 5550 50  0001 C CNN
F 1 "GND" H 9745 5627 50  0000 C CNN
F 2 "" H 9750 5800 50  0001 C CNN
F 3 "" H 9750 5800 50  0001 C CNN
	1    9750 5800
	1    0    0    -1  
$EndComp
Wire Wire Line
	8900 5500 9750 5500
Wire Wire Line
	9750 5600 9750 5500
$Comp
L Device:R_Small_US R72
U 1 1 5E3A2488
P 9750 5300
F 0 "R72" H 9818 5346 50  0000 L CNN
F 1 "4K7" H 9818 5255 50  0000 L CNN
F 2 "Resistor_SMD:R_0402_1005Metric" H 9750 5300 50  0001 C CNN
F 3 "~" H 9750 5300 50  0001 C CNN
F 4 "RMCF0402JT4K70CT" H 9750 5300 50  0001 C CNN "Digikey part"
F 5 "RMCF0402JT4K70" H 9750 5300 50  0001 C CNN "part#"
	1    9750 5300
	1    0    0    -1  
$EndComp
Wire Wire Line
	9750 5400 9750 5500
Connection ~ 9750 5500
Wire Wire Line
	9750 5200 9750 5100
NoConn ~ 8900 5800
Wire Wire Line
	3250 6200 3550 6200
$Comp
L power:PWR_FLAG #FLG010
U 1 1 5E39A38A
P 1750 2100
F 0 "#FLG010" H 1750 2175 50  0001 C CNN
F 1 "PWR_FLAG" H 1750 2273 50  0000 C CNN
F 2 "" H 1750 2100 50  0001 C CNN
F 3 "~" H 1750 2100 50  0001 C CNN
	1    1750 2100
	1    0    0    -1  
$EndComp
Connection ~ 1750 2100
Wire Wire Line
	1750 2100 2300 2100
Text GLabel 5900 2800 2    50   Output ~ 0
DEV0.VBUS
Text GLabel 9750 5100 2    50   Input ~ 0
DEV0.VBUS
NoConn ~ 8900 5700
$Comp
L Device:Ferrite_Bead_Small FB?
U 1 1 5E61D804
P 7400 900
AR Path="/5E15624E/5E61D804" Ref="FB?"  Part="1" 
AR Path="/5E2D6BE4/5E61D804" Ref="FB3"  Part="1" 
F 0 "FB3" H 7500 946 50  0000 L CNN
F 1 "1K" H 7500 855 50  0000 L CNN
F 2 "Inductor_SMD:L_0402_1005Metric" V 7330 900 50  0001 C CNN
F 3 "~" H 7400 900 50  0001 C CNN
F 4 "587-1841-1" H 7400 900 50  0001 C CNN "Digikey part"
F 5 "BK1005HS102-T" H 7400 900 50  0001 C CNN "part#"
	1    7400 900 
	1    0    0    -1  
$EndComp
$Comp
L power:+3V3 #PWR?
U 1 1 5E61D80A
P 7400 800
AR Path="/5E15624E/5E61D80A" Ref="#PWR?"  Part="1" 
AR Path="/5E2D6BE4/5E61D80A" Ref="#PWR0163"  Part="1" 
F 0 "#PWR0163" H 7400 650 50  0001 C CNN
F 1 "+3V3" H 7415 973 50  0000 C CNN
F 2 "" H 7400 800 50  0001 C CNN
F 3 "" H 7400 800 50  0001 C CNN
	1    7400 800 
	1    0    0    -1  
$EndComp
Wire Wire Line
	8400 1500 9450 1500
$Comp
L Device:Ferrite_Bead_Small FB?
U 1 1 5E638CE8
P 7100 900
AR Path="/5E15624E/5E638CE8" Ref="FB?"  Part="1" 
AR Path="/5E2D6BE4/5E638CE8" Ref="FB2"  Part="1" 
F 0 "FB2" H 7200 946 50  0000 L CNN
F 1 "1K" H 7200 855 50  0000 L CNN
F 2 "Inductor_SMD:L_0402_1005Metric" V 7030 900 50  0001 C CNN
F 3 "~" H 7100 900 50  0001 C CNN
F 4 "587-1841-1" H 7100 900 50  0001 C CNN "Digikey part"
F 5 "BK1005HS102-T" H 7100 900 50  0001 C CNN "part#"
	1    7100 900 
	-1   0    0    -1  
$EndComp
$Comp
L power:+3V3 #PWR?
U 1 1 5E638CEE
P 7100 800
AR Path="/5E15624E/5E638CEE" Ref="#PWR?"  Part="1" 
AR Path="/5E2D6BE4/5E638CEE" Ref="#PWR0161"  Part="1" 
F 0 "#PWR0161" H 7100 650 50  0001 C CNN
F 1 "+3V3" H 7115 973 50  0000 C CNN
F 2 "" H 7100 800 50  0001 C CNN
F 3 "" H 7100 800 50  0001 C CNN
	1    7100 800 
	1    0    0    -1  
$EndComp
Wire Wire Line
	8050 1400 8050 1500
Wire Wire Line
	6500 1500 7900 1500
Connection ~ 8050 1500
Wire Wire Line
	8050 1500 8100 1500
Wire Wire Line
	7300 1800 7300 1000
Wire Wire Line
	7300 1000 7400 1000
Connection ~ 7400 1000
Wire Wire Line
	7200 1800 7200 1000
Wire Wire Line
	7200 1000 7100 1000
Connection ~ 7100 1000
$Comp
L power:PWR_FLAG #FLG011
U 1 1 5E6A8B37
P 6600 1000
F 0 "#FLG011" H 6600 1075 50  0001 C CNN
F 1 "PWR_FLAG" H 6600 1173 50  0000 C CNN
F 2 "" H 6600 1000 50  0001 C CNN
F 3 "~" H 6600 1000 50  0001 C CNN
	1    6600 1000
	1    0    0    -1  
$EndComp
$Comp
L power:PWR_FLAG #FLG012
U 1 1 5E6A8D88
P 7900 1000
F 0 "#FLG012" H 7900 1075 50  0001 C CNN
F 1 "PWR_FLAG" H 7900 1173 50  0000 C CNN
F 2 "" H 7900 1000 50  0001 C CNN
F 3 "~" H 7900 1000 50  0001 C CNN
	1    7900 1000
	1    0    0    -1  
$EndComp
Wire Wire Line
	7900 1000 7400 1000
Wire Wire Line
	7100 1000 6600 1000
Wire Wire Line
	5900 3000 6400 3000
Wire Wire Line
	5900 3100 6500 3100
$Comp
L Device:C_Small C84
U 1 1 5E425139
P 5100 3050
F 0 "C84" H 5192 3096 50  0000 L CNN
F 1 "100n" H 5192 3005 50  0000 L CNN
F 2 "Capacitor_SMD:C_0402_1005Metric" H 5100 3050 50  0001 C CNN
F 3 "~" H 5100 3050 50  0001 C CNN
F 4 "1276-1004-1" H 5100 3050 50  0001 C CNN "Digikey part"
F 5 "*" H 5100 3050 50  0001 C CNN "Tolerance"
F 6 "CL05F104ZO5NNNC" H 5100 3050 50  0001 C CNN "part#"
	1    5100 3050
	1    0    0    -1  
$EndComp
$Comp
L power:+3V3 #PWR0149
U 1 1 5E425B3B
P 5100 2950
F 0 "#PWR0149" H 5100 2800 50  0001 C CNN
F 1 "+3V3" H 5115 3123 50  0000 C CNN
F 2 "" H 5100 2950 50  0001 C CNN
F 3 "" H 5100 2950 50  0001 C CNN
	1    5100 2950
	1    0    0    -1  
$EndComp
$Comp
L fpc-iii:GND #PWR0150
U 1 1 5E425D1C
P 5100 3150
F 0 "#PWR0150" H 5100 2900 50  0001 C CNN
F 1 "GND" H 5095 2977 50  0000 C CNN
F 2 "" H 5100 3150 50  0001 C CNN
F 3 "" H 5100 3150 50  0001 C CNN
	1    5100 3150
	1    0    0    -1  
$EndComp
$Comp
L Device:C_Small C72
U 1 1 5E435A64
P 1950 7050
F 0 "C72" H 2042 7096 50  0000 L CNN
F 1 "100n" H 2042 7005 50  0000 L CNN
F 2 "Capacitor_SMD:C_0402_1005Metric" H 1950 7050 50  0001 C CNN
F 3 "~" H 1950 7050 50  0001 C CNN
F 4 "1276-1004-1" H 1950 7050 50  0001 C CNN "Digikey part"
F 5 "*" H 1950 7050 50  0001 C CNN "Tolerance"
F 6 "CL05F104ZO5NNNC" H 1950 7050 50  0001 C CNN "part#"
	1    1950 7050
	1    0    0    -1  
$EndComp
$Comp
L power:+3V3 #PWR0130
U 1 1 5E435A6A
P 1950 6950
F 0 "#PWR0130" H 1950 6800 50  0001 C CNN
F 1 "+3V3" H 1965 7123 50  0000 C CNN
F 2 "" H 1950 6950 50  0001 C CNN
F 3 "" H 1950 6950 50  0001 C CNN
	1    1950 6950
	1    0    0    -1  
$EndComp
$Comp
L fpc-iii:GND #PWR0131
U 1 1 5E435A70
P 1950 7150
F 0 "#PWR0131" H 1950 6900 50  0001 C CNN
F 1 "GND" H 1945 6977 50  0000 C CNN
F 2 "" H 1950 7150 50  0001 C CNN
F 3 "" H 1950 7150 50  0001 C CNN
	1    1950 7150
	1    0    0    -1  
$EndComp
$EndSCHEMATC
